[gd_scene load_steps=3 format=3 uid="uid://2fojiy5acyx2"]

[ext_resource type="Script" path="res://game/interface/prompt/prompt.gd" id="1_topf0"]

[sub_resource type="LabelSettings" id="LabelSettings_ag0pa"]
font_size = 24

[node name="prompt" type="Node2D"]
script = ExtResource("1_topf0")

[node name="label" type="Label" parent="."]
offset_left = -189.0
offset_top = -12.0
offset_right = 190.0
offset_bottom = 13.0
label_settings = SubResource("LabelSettings_ag0pa")
horizontal_alignment = 1
