[gd_scene load_steps=5 format=3 uid="uid://djox5r5hqoynx"]

[sub_resource type="StandardMaterial3D" id="StandardMaterial3D_hss7w"]

[sub_resource type="ArrayMesh" id="ArrayMesh_5rijn"]
resource_name = "anim1_frame0"
_blend_shape_names = PackedStringArray("frame1", "frame2")
_surfaces = [{
"aabb": AABB(-0.9453, -0.9219, -4.5195, 1.71871, 1.75001, 4.54291),
"attribute_data": PackedByteArray(0, 0, 0, 0, 0, 0, 128, 63, 27, 13, 32, 62, 0, 0, 128, 63, 27, 13, 32, 62, 0, 0, 128, 63, 27, 13, 32, 62, 0, 0, 128, 63, 0, 0, 0, 0, 0, 0, 128, 63, 0, 0, 0, 0, 0, 0, 128, 63, 0, 0, 0, 0, 0, 0, 128, 63, 27, 13, 32, 62, 0, 0, 128, 63, 0, 0, 128, 61, 32, 151, 255, 60, 0, 0, 128, 61, 32, 151, 255, 60, 0, 0, 128, 61, 32, 151, 255, 60, 0, 0, 128, 61, 32, 151, 255, 60, 0, 0, 0, 0, 0, 0, 128, 63, 27, 13, 32, 62, 0, 0, 128, 63, 27, 13, 32, 62, 0, 0, 128, 63, 27, 13, 32, 62, 0, 0, 128, 63, 0, 0, 0, 0, 0, 0, 128, 63, 0, 0, 0, 0, 0, 0, 128, 63, 0, 0, 0, 0, 0, 0, 128, 63, 27, 13, 32, 62, 0, 0, 128, 63, 0, 0, 128, 61, 32, 151, 255, 60, 0, 0, 128, 61, 32, 151, 255, 60, 0, 0, 128, 61, 32, 151, 255, 60, 0, 0, 128, 61, 32, 151, 255, 60, 0, 0, 0, 0, 0, 0, 128, 63, 27, 13, 32, 62, 0, 0, 128, 63, 27, 13, 32, 62, 0, 0, 128, 63, 27, 13, 32, 62, 0, 0, 128, 63, 0, 0, 0, 0, 0, 0, 128, 63, 0, 0, 0, 0, 0, 0, 128, 63, 0, 0, 0, 0, 0, 0, 128, 63, 27, 13, 32, 62, 0, 0, 128, 63, 0, 0, 128, 61, 32, 151, 255, 60, 0, 0, 128, 61, 32, 151, 255, 60, 0, 0, 128, 61, 32, 151, 255, 60, 0, 0, 128, 61, 32, 151, 255, 60, 0, 0, 0, 0, 0, 0, 128, 63, 27, 13, 32, 62, 0, 0, 128, 63, 27, 13, 32, 62, 0, 0, 128, 63, 27, 13, 32, 62, 0, 0, 128, 63, 0, 0, 0, 0, 0, 0, 128, 63, 0, 0, 0, 0, 0, 0, 128, 63, 0, 0, 0, 0, 0, 0, 128, 63, 27, 13, 32, 62, 0, 0, 128, 63, 0, 0, 128, 61, 32, 151, 255, 60, 0, 0, 128, 61, 32, 151, 255, 60, 0, 0, 128, 61, 32, 151, 255, 60, 0, 0, 128, 61, 32, 151, 255, 60),
"blend_shapes": PackedByteArray(139, 253, 69, 63, 93, 254, 83, 63, 210, 0, 190, 191, 139, 253, 69, 63, 93, 254, 83, 63, 210, 0, 190, 191, 142, 6, 240, 62, 93, 254, 83, 63, 210, 0, 190, 191, 142, 6, 240, 62, 93, 254, 83, 63, 210, 0, 190, 191, 139, 253, 69, 63, 0, 0, 48, 63, 210, 0, 190, 191, 139, 253, 69, 63, 0, 0, 48, 63, 210, 0, 190, 191, 142, 6, 240, 62, 0, 0, 48, 63, 210, 0, 190, 191, 142, 6, 240, 62, 0, 0, 48, 63, 210, 0, 190, 191, 105, 0, 31, 63, 46, 255, 65, 63, 190, 159, 144, 192, 105, 0, 31, 63, 46, 255, 65, 63, 190, 159, 144, 192, 105, 0, 31, 63, 46, 255, 65, 63, 190, 159, 144, 192, 105, 0, 31, 63, 46, 255, 65, 63, 190, 159, 144, 192, 93, 254, 35, 191, 93, 254, 83, 63, 210, 0, 190, 191, 93, 254, 35, 191, 93, 254, 83, 63, 210, 0, 190, 191, 46, 255, 113, 191, 93, 254, 83, 63, 210, 0, 190, 191, 46, 255, 113, 191, 93, 254, 83, 63, 210, 0, 190, 191, 93, 254, 35, 191, 0, 0, 48, 63, 210, 0, 190, 191, 93, 254, 35, 191, 0, 0, 48, 63, 210, 0, 190, 191, 46, 255, 113, 191, 0, 0, 48, 63, 210, 0, 190, 191, 46, 255, 113, 191, 0, 0, 48, 63, 210, 0, 190, 191, 12, 2, 75, 191, 46, 255, 65, 63, 190, 159, 144, 192, 12, 2, 75, 191, 46, 255, 65, 63, 190, 159, 144, 192, 12, 2, 75, 191, 46, 255, 65, 63, 190, 159, 144, 192, 12, 2, 75, 191, 46, 255, 65, 63, 190, 159, 144, 192, 139, 253, 69, 63, 71, 3, 72, 191, 210, 0, 190, 191, 139, 253, 69, 63, 71, 3, 72, 191, 210, 0, 190, 191, 142, 6, 240, 62, 71, 3, 72, 191, 210, 0, 190, 191, 142, 6, 240, 62, 71, 3, 72, 191, 210, 0, 190, 191, 139, 253, 69, 63, 163, 1, 108, 191, 210, 0, 190, 191, 139, 253, 69, 63, 163, 1, 108, 191, 210, 0, 190, 191, 142, 6, 240, 62, 163, 1, 108, 191, 210, 0, 190, 191, 142, 6, 240, 62, 163, 1, 108, 191, 210, 0, 190, 191, 105, 0, 31, 63, 117, 2, 90, 191, 190, 159, 144, 192, 105, 0, 31, 63, 117, 2, 90, 191, 190, 159, 144, 192, 105, 0, 31, 63, 117, 2, 90, 191, 190, 159, 144, 192, 105, 0, 31, 63, 117, 2, 90, 191, 190, 159, 144, 192, 93, 254, 35, 191, 71, 3, 72, 191, 210, 0, 190, 191, 93, 254, 35, 191, 71, 3, 72, 191, 210, 0, 190, 191, 46, 255, 113, 191, 71, 3, 72, 191, 210, 0, 190, 191, 46, 255, 113, 191, 71, 3, 72, 191, 210, 0, 190, 191, 93, 254, 35, 191, 163, 1, 108, 191, 210, 0, 190, 191, 93, 254, 35, 191, 163, 1, 108, 191, 210, 0, 190, 191, 46, 255, 113, 191, 163, 1, 108, 191, 210, 0, 190, 191, 46, 255, 113, 191, 163, 1, 108, 191, 210, 0, 190, 191, 12, 2, 75, 191, 117, 2, 90, 191, 190, 159, 144, 192, 12, 2, 75, 191, 117, 2, 90, 191, 190, 159, 144, 192, 12, 2, 75, 191, 117, 2, 90, 191, 190, 159, 144, 192, 12, 2, 75, 191, 117, 2, 90, 191, 190, 159, 144, 192, 230, 130, 255, 255, 0, 0, 255, 63, 255, 255, 28, 134, 255, 127, 0, 0, 0, 0, 28, 134, 255, 127, 255, 255, 230, 130, 255, 255, 0, 0, 255, 63, 230, 130, 0, 0, 0, 0, 255, 191, 255, 255, 28, 134, 255, 127, 0, 0, 0, 0, 28, 134, 255, 127, 255, 255, 230, 130, 0, 0, 0, 0, 255, 191, 0, 0, 28, 134, 255, 127, 255, 255, 230, 130, 0, 0, 0, 0, 255, 191, 230, 130, 255, 255, 0, 0, 255, 63, 255, 255, 28, 134, 255, 127, 0, 0, 230, 130, 255, 255, 0, 0, 255, 63, 255, 255, 28, 134, 255, 127, 0, 0, 0, 0, 28, 134, 255, 127, 255, 255, 230, 130, 255, 255, 0, 0, 255, 63, 230, 130, 0, 0, 0, 0, 255, 191, 255, 255, 28, 134, 255, 127, 0, 0, 0, 0, 28, 134, 255, 127, 255, 255, 230, 130, 0, 0, 0, 0, 255, 191, 0, 0, 28, 134, 255, 127, 255, 255, 230, 130, 0, 0, 0, 0, 255, 191, 230, 130, 255, 255, 0, 0, 255, 63, 255, 255, 28, 134, 255, 127, 0, 0, 230, 130, 255, 255, 0, 0, 255, 63, 255, 255, 28, 134, 255, 127, 0, 0, 0, 0, 28, 134, 255, 127, 255, 255, 230, 130, 255, 255, 0, 0, 255, 63, 230, 130, 0, 0, 0, 0, 255, 191, 255, 255, 28, 134, 255, 127, 0, 0, 0, 0, 28, 134, 255, 127, 255, 255, 230, 130, 0, 0, 0, 0, 255, 191, 0, 0, 28, 134, 255, 127, 255, 255, 230, 130, 0, 0, 0, 0, 255, 191, 230, 130, 255, 255, 0, 0, 255, 63, 255, 255, 28, 134, 255, 127, 0, 0, 230, 130, 255, 255, 0, 0, 255, 63, 255, 255, 28, 134, 255, 127, 0, 0, 0, 0, 28, 134, 255, 127, 255, 255, 230, 130, 255, 255, 0, 0, 255, 63, 230, 130, 0, 0, 0, 0, 255, 191, 255, 255, 28, 134, 255, 127, 0, 0, 0, 0, 28, 134, 255, 127, 255, 255, 230, 130, 0, 0, 0, 0, 255, 191, 0, 0, 28, 134, 255, 127, 255, 255, 230, 130, 0, 0, 0, 0, 255, 191, 230, 130, 255, 255, 0, 0, 255, 63, 255, 255, 28, 134, 255, 127, 0, 0, 139, 253, 69, 63, 93, 254, 83, 63, 64, 177, 191, 60, 139, 253, 69, 63, 93, 254, 83, 63, 64, 177, 191, 60, 142, 6, 240, 62, 93, 254, 83, 63, 64, 177, 191, 60, 142, 6, 240, 62, 93, 254, 83, 63, 64, 177, 191, 60, 139, 253, 69, 63, 0, 0, 48, 63, 64, 177, 191, 60, 139, 253, 69, 63, 0, 0, 48, 63, 64, 177, 191, 60, 142, 6, 240, 62, 0, 0, 48, 63, 64, 177, 191, 60, 142, 6, 240, 62, 0, 0, 48, 63, 64, 177, 191, 60, 105, 0, 31, 63, 46, 255, 65, 63, 230, 63, 64, 192, 105, 0, 31, 63, 46, 255, 65, 63, 230, 63, 64, 192, 105, 0, 31, 63, 46, 255, 65, 63, 230, 63, 64, 192, 105, 0, 31, 63, 46, 255, 65, 63, 230, 63, 64, 192, 93, 254, 35, 191, 93, 254, 83, 63, 64, 177, 191, 60, 93, 254, 35, 191, 93, 254, 83, 63, 64, 177, 191, 60, 46, 255, 113, 191, 93, 254, 83, 63, 64, 177, 191, 60, 46, 255, 113, 191, 93, 254, 83, 63, 64, 177, 191, 60, 93, 254, 35, 191, 0, 0, 48, 63, 64, 177, 191, 60, 93, 254, 35, 191, 0, 0, 48, 63, 64, 177, 191, 60, 46, 255, 113, 191, 0, 0, 48, 63, 64, 177, 191, 60, 46, 255, 113, 191, 0, 0, 48, 63, 64, 177, 191, 60, 12, 2, 75, 191, 46, 255, 65, 63, 230, 63, 64, 192, 12, 2, 75, 191, 46, 255, 65, 63, 230, 63, 64, 192, 12, 2, 75, 191, 46, 255, 65, 63, 230, 63, 64, 192, 12, 2, 75, 191, 46, 255, 65, 63, 230, 63, 64, 192, 139, 253, 69, 63, 71, 3, 72, 191, 64, 177, 191, 60, 139, 253, 69, 63, 71, 3, 72, 191, 64, 177, 191, 60, 142, 6, 240, 62, 71, 3, 72, 191, 64, 177, 191, 60, 142, 6, 240, 62, 71, 3, 72, 191, 64, 177, 191, 60, 139, 253, 69, 63, 163, 1, 108, 191, 64, 177, 191, 60, 139, 253, 69, 63, 163, 1, 108, 191, 64, 177, 191, 60, 142, 6, 240, 62, 163, 1, 108, 191, 64, 177, 191, 60, 142, 6, 240, 62, 163, 1, 108, 191, 64, 177, 191, 60, 105, 0, 31, 63, 117, 2, 90, 191, 230, 63, 64, 192, 105, 0, 31, 63, 117, 2, 90, 191, 230, 63, 64, 192, 105, 0, 31, 63, 117, 2, 90, 191, 230, 63, 64, 192, 105, 0, 31, 63, 117, 2, 90, 191, 230, 63, 64, 192, 93, 254, 35, 191, 71, 3, 72, 191, 64, 177, 191, 60, 93, 254, 35, 191, 71, 3, 72, 191, 64, 177, 191, 60, 46, 255, 113, 191, 71, 3, 72, 191, 64, 177, 191, 60, 46, 255, 113, 191, 71, 3, 72, 191, 64, 177, 191, 60, 93, 254, 35, 191, 163, 1, 108, 191, 64, 177, 191, 60, 93, 254, 35, 191, 163, 1, 108, 191, 64, 177, 191, 60, 46, 255, 113, 191, 163, 1, 108, 191, 64, 177, 191, 60, 46, 255, 113, 191, 163, 1, 108, 191, 64, 177, 191, 60, 12, 2, 75, 191, 117, 2, 90, 191, 230, 63, 64, 192, 12, 2, 75, 191, 117, 2, 90, 191, 230, 63, 64, 192, 12, 2, 75, 191, 117, 2, 90, 191, 230, 63, 64, 192, 12, 2, 75, 191, 117, 2, 90, 191, 230, 63, 64, 192, 230, 130, 255, 255, 0, 0, 255, 63, 255, 255, 31, 134, 255, 127, 0, 0, 0, 0, 31, 134, 255, 127, 255, 255, 230, 130, 255, 255, 0, 0, 255, 63, 230, 130, 0, 0, 0, 0, 255, 191, 255, 255, 31, 134, 255, 127, 0, 0, 0, 0, 31, 134, 255, 127, 255, 255, 230, 130, 0, 0, 0, 0, 255, 191, 0, 0, 31, 134, 255, 127, 255, 255, 230, 130, 0, 0, 0, 0, 255, 191, 230, 130, 255, 255, 0, 0, 255, 63, 255, 255, 31, 134, 255, 127, 0, 0, 230, 130, 255, 255, 0, 0, 255, 63, 255, 255, 34, 134, 255, 127, 0, 0, 0, 0, 31, 134, 255, 127, 255, 255, 230, 130, 255, 255, 0, 0, 255, 63, 230, 130, 0, 0, 0, 0, 255, 191, 255, 255, 34, 134, 255, 127, 0, 0, 0, 0, 31, 134, 255, 127, 255, 255, 230, 130, 0, 0, 0, 0, 255, 191, 0, 0, 31, 134, 255, 127, 255, 255, 230, 130, 0, 0, 0, 0, 255, 191, 230, 130, 255, 255, 0, 0, 255, 63, 255, 255, 34, 134, 255, 127, 0, 0, 230, 130, 255, 255, 0, 0, 255, 63, 255, 255, 31, 134, 255, 127, 0, 0, 0, 0, 31, 134, 255, 127, 255, 255, 230, 130, 255, 255, 0, 0, 255, 63, 230, 130, 0, 0, 0, 0, 255, 191, 255, 255, 31, 134, 255, 127, 0, 0, 0, 0, 31, 134, 255, 127, 255, 255, 230, 130, 0, 0, 0, 0, 255, 191, 0, 0, 31, 134, 255, 127, 255, 255, 230, 130, 0, 0, 0, 0, 255, 191, 230, 130, 255, 255, 0, 0, 255, 63, 255, 255, 31, 134, 255, 127, 0, 0, 230, 130, 255, 255, 0, 0, 255, 63, 255, 255, 34, 134, 255, 127, 0, 0, 0, 0, 31, 134, 255, 127, 255, 255, 230, 130, 255, 255, 0, 0, 255, 63, 230, 130, 0, 0, 0, 0, 255, 191, 255, 255, 34, 134, 255, 127, 0, 0, 0, 0, 31, 134, 255, 127, 255, 255, 230, 130, 0, 0, 0, 0, 255, 191, 0, 0, 31, 134, 255, 127, 255, 255, 230, 130, 0, 0, 0, 0, 255, 191, 230, 130, 255, 255, 0, 0, 255, 63, 255, 255, 34, 134, 255, 127, 0, 0),
"format": 34359742487,
"index_count": 48,
"index_data": PackedByteArray(0, 0, 3, 0, 10, 0, 2, 0, 6, 0, 8, 0, 7, 0, 4, 0, 9, 0, 5, 0, 1, 0, 11, 0, 12, 0, 15, 0, 22, 0, 14, 0, 18, 0, 20, 0, 19, 0, 16, 0, 21, 0, 17, 0, 13, 0, 23, 0, 24, 0, 27, 0, 34, 0, 26, 0, 30, 0, 32, 0, 31, 0, 28, 0, 33, 0, 29, 0, 25, 0, 35, 0, 36, 0, 39, 0, 46, 0, 38, 0, 42, 0, 44, 0, 43, 0, 40, 0, 45, 0, 41, 0, 37, 0, 47, 0),
"material": SubResource("StandardMaterial3D_hss7w"),
"primitive": 3,
"uv_scale": Vector4(0, 0, 0, 0),
"vertex_count": 48,
"vertex_data": PackedByteArray(139, 253, 69, 63, 93, 254, 83, 63, 210, 0, 190, 191, 139, 253, 69, 63, 93, 254, 83, 63, 210, 0, 190, 191, 142, 6, 240, 62, 93, 254, 83, 63, 210, 0, 190, 191, 142, 6, 240, 62, 93, 254, 83, 63, 210, 0, 190, 191, 139, 253, 69, 63, 0, 0, 48, 63, 210, 0, 190, 191, 139, 253, 69, 63, 0, 0, 48, 63, 210, 0, 190, 191, 142, 6, 240, 62, 0, 0, 48, 63, 210, 0, 190, 191, 142, 6, 240, 62, 0, 0, 48, 63, 210, 0, 190, 191, 105, 0, 31, 63, 46, 255, 65, 63, 190, 159, 144, 192, 105, 0, 31, 63, 46, 255, 65, 63, 190, 159, 144, 192, 105, 0, 31, 63, 46, 255, 65, 63, 190, 159, 144, 192, 105, 0, 31, 63, 46, 255, 65, 63, 190, 159, 144, 192, 93, 254, 35, 191, 93, 254, 83, 63, 210, 0, 190, 191, 93, 254, 35, 191, 93, 254, 83, 63, 210, 0, 190, 191, 46, 255, 113, 191, 93, 254, 83, 63, 210, 0, 190, 191, 46, 255, 113, 191, 93, 254, 83, 63, 210, 0, 190, 191, 93, 254, 35, 191, 0, 0, 48, 63, 210, 0, 190, 191, 93, 254, 35, 191, 0, 0, 48, 63, 210, 0, 190, 191, 46, 255, 113, 191, 0, 0, 48, 63, 210, 0, 190, 191, 46, 255, 113, 191, 0, 0, 48, 63, 210, 0, 190, 191, 12, 2, 75, 191, 46, 255, 65, 63, 190, 159, 144, 192, 12, 2, 75, 191, 46, 255, 65, 63, 190, 159, 144, 192, 12, 2, 75, 191, 46, 255, 65, 63, 190, 159, 144, 192, 12, 2, 75, 191, 46, 255, 65, 63, 190, 159, 144, 192, 139, 253, 69, 63, 71, 3, 72, 191, 210, 0, 190, 191, 139, 253, 69, 63, 71, 3, 72, 191, 210, 0, 190, 191, 142, 6, 240, 62, 71, 3, 72, 191, 210, 0, 190, 191, 142, 6, 240, 62, 71, 3, 72, 191, 210, 0, 190, 191, 139, 253, 69, 63, 163, 1, 108, 191, 210, 0, 190, 191, 139, 253, 69, 63, 163, 1, 108, 191, 210, 0, 190, 191, 142, 6, 240, 62, 163, 1, 108, 191, 210, 0, 190, 191, 142, 6, 240, 62, 163, 1, 108, 191, 210, 0, 190, 191, 105, 0, 31, 63, 117, 2, 90, 191, 190, 159, 144, 192, 105, 0, 31, 63, 117, 2, 90, 191, 190, 159, 144, 192, 105, 0, 31, 63, 117, 2, 90, 191, 190, 159, 144, 192, 105, 0, 31, 63, 117, 2, 90, 191, 190, 159, 144, 192, 93, 254, 35, 191, 71, 3, 72, 191, 210, 0, 190, 191, 93, 254, 35, 191, 71, 3, 72, 191, 210, 0, 190, 191, 46, 255, 113, 191, 71, 3, 72, 191, 210, 0, 190, 191, 46, 255, 113, 191, 71, 3, 72, 191, 210, 0, 190, 191, 93, 254, 35, 191, 163, 1, 108, 191, 210, 0, 190, 191, 93, 254, 35, 191, 163, 1, 108, 191, 210, 0, 190, 191, 46, 255, 113, 191, 163, 1, 108, 191, 210, 0, 190, 191, 46, 255, 113, 191, 163, 1, 108, 191, 210, 0, 190, 191, 12, 2, 75, 191, 117, 2, 90, 191, 190, 159, 144, 192, 12, 2, 75, 191, 117, 2, 90, 191, 190, 159, 144, 192, 12, 2, 75, 191, 117, 2, 90, 191, 190, 159, 144, 192, 12, 2, 75, 191, 117, 2, 90, 191, 190, 159, 144, 192, 230, 130, 255, 255, 0, 0, 255, 63, 255, 255, 28, 134, 255, 127, 0, 0, 0, 0, 28, 134, 255, 127, 255, 255, 230, 130, 255, 255, 0, 0, 255, 63, 230, 130, 0, 0, 0, 0, 255, 191, 255, 255, 28, 134, 255, 127, 0, 0, 0, 0, 28, 134, 255, 127, 255, 255, 230, 130, 0, 0, 0, 0, 255, 191, 0, 0, 28, 134, 255, 127, 255, 255, 230, 130, 0, 0, 0, 0, 255, 191, 230, 130, 255, 255, 0, 0, 255, 63, 255, 255, 28, 134, 255, 127, 0, 0, 230, 130, 255, 255, 0, 0, 255, 63, 255, 255, 28, 134, 255, 127, 0, 0, 0, 0, 28, 134, 255, 127, 255, 255, 230, 130, 255, 255, 0, 0, 255, 63, 230, 130, 0, 0, 0, 0, 255, 191, 255, 255, 28, 134, 255, 127, 0, 0, 0, 0, 28, 134, 255, 127, 255, 255, 230, 130, 0, 0, 0, 0, 255, 191, 0, 0, 28, 134, 255, 127, 255, 255, 230, 130, 0, 0, 0, 0, 255, 191, 230, 130, 255, 255, 0, 0, 255, 63, 255, 255, 28, 134, 255, 127, 0, 0, 230, 130, 255, 255, 0, 0, 255, 63, 255, 255, 28, 134, 255, 127, 0, 0, 0, 0, 28, 134, 255, 127, 255, 255, 230, 130, 255, 255, 0, 0, 255, 63, 230, 130, 0, 0, 0, 0, 255, 191, 255, 255, 28, 134, 255, 127, 0, 0, 0, 0, 28, 134, 255, 127, 255, 255, 230, 130, 0, 0, 0, 0, 255, 191, 0, 0, 28, 134, 255, 127, 255, 255, 230, 130, 0, 0, 0, 0, 255, 191, 230, 130, 255, 255, 0, 0, 255, 63, 255, 255, 28, 134, 255, 127, 0, 0, 230, 130, 255, 255, 0, 0, 255, 63, 255, 255, 28, 134, 255, 127, 0, 0, 0, 0, 28, 134, 255, 127, 255, 255, 230, 130, 255, 255, 0, 0, 255, 63, 230, 130, 0, 0, 0, 0, 255, 191, 255, 255, 28, 134, 255, 127, 0, 0, 0, 0, 28, 134, 255, 127, 255, 255, 230, 130, 0, 0, 0, 0, 255, 191, 0, 0, 28, 134, 255, 127, 255, 255, 230, 130, 0, 0, 0, 0, 255, 191, 230, 130, 255, 255, 0, 0, 255, 63, 255, 255, 28, 134, 255, 127, 0, 0)
}]
blend_shape_mode = 0

[sub_resource type="Animation" id="Animation_xligx"]
resource_name = "KeyAction_130"
length = 0.125
tracks/0/type = "blend_shape"
tracks/0/imported = true
tracks/0/enabled = true
tracks/0/path = NodePath("frame0:frame1")
tracks/0/interp = 1
tracks/0/loop_wrap = true
tracks/0/keys = PackedFloat32Array(0, 1, 1, 0.0833333, 1, 1, 0.125, 1, 0)
tracks/1/type = "blend_shape"
tracks/1/imported = true
tracks/1/enabled = true
tracks/1/path = NodePath("frame0:frame2")
tracks/1/interp = 1
tracks/1/loop_wrap = true
tracks/1/keys = PackedFloat32Array(0, 1, 0, 0.0833333, 1, 0, 0.125, 1, 1)

[sub_resource type="AnimationLibrary" id="AnimationLibrary_04qpw"]
_data = {
"KeyAction_130": SubResource("Animation_xligx")
}

[node name="anim1" type="Node3D"]

[node name="frame0" type="MeshInstance3D" parent="."]
transform = Transform3D(-1, 0, 0, 0, 0, -1, 0, 1, 0, 0, 0, 0)
mesh = SubResource("ArrayMesh_5rijn")
skeleton = NodePath("")
blend_shapes/frame1 = 0.0
blend_shapes/frame2 = 0.0

[node name="AnimationPlayer" type="AnimationPlayer" parent="."]
libraries = {
"": SubResource("AnimationLibrary_04qpw")
}
