[gd_scene load_steps=4 format=3 uid="uid://cjl78mdqwwg4p"]

[ext_resource type="Script" path="res://game/actors/projectile/projectile.gd" id="1_78gwu"]
[ext_resource type="ArrayMesh" uid="uid://c8ude3hwubruu" path="res://game/assets/obj_models/175_arrow.obj" id="2_68dhm"]

[sub_resource type="BoxShape3D" id="BoxShape3D_nala6"]
size = Vector3(0.3, 0.3, 1)

[node name="Arrow" type="CharacterBody3D"]
script = ExtResource("1_78gwu")

[node name="MeshInstance3D" type="MeshInstance3D" parent="."]
transform = Transform3D(2, 0, 0, 0, 2, 0, 0, 0, 2, 0, 0, -0.771776)
mesh = ExtResource("2_68dhm")

[node name="CollisionShape3D" type="CollisionShape3D" parent="."]
shape = SubResource("BoxShape3D_nala6")
