[gd_scene load_steps=5 format=3 uid="uid://mcbcnax17x6a"]

[ext_resource type="Script" path="res://game/actors/projectile/projectile.gd" id="1_5hy0r"]

[sub_resource type="SphereShape3D" id="SphereShape3D_wturb"]
radius = 0.2

[sub_resource type="StandardMaterial3D" id="StandardMaterial3D_bgd4f"]
albedo_color = Color(0.933333, 0.266667, 0, 1)
emission = Color(1, 0.780392, 0.25098, 1)

[sub_resource type="SphereMesh" id="SphereMesh_m8pga"]
material = SubResource("StandardMaterial3D_bgd4f")
radius = 0.2
height = 0.4
radial_segments = 8
rings = 8

[node name="projectile" type="CharacterBody3D"]
script = ExtResource("1_5hy0r")

[node name="CollisionShape3D" type="CollisionShape3D" parent="."]
shape = SubResource("SphereShape3D_wturb")

[node name="MeshInstance3D" type="MeshInstance3D" parent="."]
mesh = SubResource("SphereMesh_m8pga")
