g Object
v -0.0625 -0.0273 0.7266
v -0.0625 0.0391 0.8086
v -0.0625 1.3750 -0.3203
v -0.0625 1.4375 -0.2266
v 0.0469 0.0391 0.8086
v 0.0469 1.4375 -0.2266
v 0.0469 -0.0273 0.7266
v 0.0469 1.3750 -0.3203
v 0.7305 -0.0078 -0.3320
v 0.7305 -0.0078 -0.2227
v 0.3711 1.3477 -0.3320
v 0.3711 1.3477 -0.2227
v 0.6250 -0.0273 -0.2227
v 0.2578 1.3164 -0.2227
v 0.6250 -0.0273 -0.3320
v 0.2578 1.3164 -0.3320
v -0.7461 -0.0078 -0.3320
v -0.7461 -0.0078 -0.2227
v -0.3906 1.3477 -0.3320
v -0.3906 1.3477 -0.2227
v -0.6406 -0.0273 -0.2227
v -0.2852 1.3164 -0.2227
v -0.6406 -0.0273 -0.3320
v -0.2852 1.3164 -0.3320
v 0.0078 1.4180 -0.1680
v 0.0078 2.3633 0.2656
v -0.8125 2.0000 0.1016
v -1.0078 1.2070 -0.2656
v -0.4453 0.5625 -0.5664
v 0.4531 0.5625 -0.5664
v 1.0156 1.2070 -0.2656
v 0.8203 2.0000 0.1016
v 0.0078 2.4727 0.0195
v -0.8125 2.1211 -0.1484
v -1.0078 1.3164 -0.5234
v -0.4453 0.6719 -0.8164
v 0.4531 0.6719 -0.8164
v 1.0156 1.3164 -0.5234
v 0.8203 2.1211 -0.1484
v 0.0078 1.5273 -0.4258
vt 0.3906 0.0000
vt 0.1406 0.0000
vt 0.1406 1.0000
vt 0.1406 1.0000
vt 0.3906 1.0000
vt 0.3906 0.0000
vt 0.3906 0.0000
vt 0.1406 0.0000
vt 0.1406 1.0000
vt 0.1406 1.0000
vt 0.3906 1.0000
vt 0.3906 0.0000
vt 0.3906 0.0000
vt 0.1406 0.0000
vt 0.1406 1.0000
vt 0.1406 1.0000
vt 0.3906 1.0000
vt 0.3906 0.0000
vt 0.3906 0.0000
vt 0.1406 0.0000
vt 0.1406 1.0000
vt 0.1406 1.0000
vt 0.3906 1.0000
vt 0.3906 0.0000
vt 0.1406 0.0000
vt 0.3906 0.0000
vt 0.1406 1.0000
vt 0.3906 1.0000
vt 0.1406 1.0000
vt 0.3906 0.0000
vt 0.1406 0.0000
vt 0.3906 0.0000
vt 0.1406 1.0000
vt 0.3906 1.0000
vt 0.1406 1.0000
vt 0.3906 0.0000
vt 0.1406 0.0000
vt 0.3906 0.0000
vt 0.1406 1.0000
vt 0.3906 1.0000
vt 0.1406 1.0000
vt 0.3906 0.0000
vt 0.1406 0.0000
vt 0.3906 0.0000
vt 0.1406 1.0000
vt 0.3906 1.0000
vt 0.1406 1.0000
vt 0.3906 0.0000
vt 0.3906 0.0000
vt 0.1406 0.0000
vt 0.1406 1.0000
vt 0.1406 1.0000
vt 0.3906 1.0000
vt 0.3906 0.0000
vt 0.3906 0.0000
vt 0.1406 0.0000
vt 0.1406 1.0000
vt 0.1406 1.0000
vt 0.3906 1.0000
vt 0.3906 0.0000
vt 0.3906 0.0000
vt 0.1406 0.0000
vt 0.1406 1.0000
vt 0.1406 1.0000
vt 0.3906 1.0000
vt 0.3906 0.0000
vt 0.3906 0.0000
vt 0.1406 0.0000
vt 0.1406 1.0000
vt 0.1406 1.0000
vt 0.3906 1.0000
vt 0.3906 0.0000
vt 0.2188 0.5000
vt 0.3906 0.9063
vt 0.4844 0.5000
vt 0.2188 0.5000
vt 0.1719 1.0000
vt 0.3906 0.9063
vt 0.2188 0.5000
vt 0.0000 0.7344
vt 0.1719 1.0000
vt 0.2188 0.5000
vt 0.0000 0.2813
vt 0.0000 0.7344
vt 0.2188 0.5000
vt 0.1719 0.0000
vt 0.0000 0.2813
vt 0.2188 0.5000
vt 0.3906 0.1094
vt 0.1719 0.0000
vt 0.2188 0.5000
vt 0.4844 0.5000
vt 0.3906 0.1094
vt 0.7344 0.4063
vt 0.9844 0.4063
vt 0.8906 0.7344
vt 0.7344 0.4063
vt 0.8906 0.7344
vt 0.6719 0.8125
vt 0.7344 0.4063
vt 0.6719 0.8125
vt 0.4844 0.5781
vt 0.7344 0.4063
vt 0.4844 0.5781
vt 0.4844 0.2188
vt 0.7344 0.4063
vt 0.4844 0.2188
vt 0.6719 0.0000
vt 0.7344 0.4063
vt 0.6719 0.0000
vt 0.8906 0.0781
vt 0.7344 0.4063
vt 0.8906 0.0781
vt 0.9844 0.4063
vt 0.9844 0.9844
vt 0.4844 0.8125
vt 0.9844 0.8125
vt 0.9844 0.9844
vt 0.4844 0.9844
vt 0.4844 0.8125
vt 0.9844 0.9844
vt 0.4844 0.8125
vt 0.9844 0.8125
vt 0.9844 0.9844
vt 0.4844 0.9844
vt 0.4844 0.8125
vt 0.9844 0.9844
vt 0.4844 0.8125
vt 0.9844 0.8125
vt 0.9844 0.9844
vt 0.4844 0.9844
vt 0.4844 0.8125
vt 0.9844 0.9844
vt 0.4844 0.8125
vt 0.9844 0.8125
vt 0.9844 0.9844
vt 0.4844 0.9844
vt 0.4844 0.8125
vt 0.9844 0.9844
vt 0.4844 0.8125
vt 0.9844 0.8125
vt 0.9844 0.9844
vt 0.4844 0.9844
vt 0.4844 0.8125
vt 0.9844 0.9844
vt 0.4844 0.8125
vt 0.9844 0.8125
vt 0.9844 0.9844
vt 0.4844 0.9844
vt 0.4844 0.8125
vt 0.9844 0.9844
vt 0.4844 0.8125
vt 0.9844 0.8125
vt 0.9844 0.9844
vt 0.4844 0.9844
vt 0.4844 0.8125
f 2/1 3/3 1/2
f 3/4 2/6 4/5
f 5/7 4/9 2/8
f 4/10 5/12 6/11
f 7/13 6/15 5/14
f 6/16 7/18 8/17
f 1/19 8/21 7/20
f 8/22 1/24 3/23
f 9/25 11/27 10/26
f 12/28 10/30 11/29
f 10/31 12/33 13/32
f 14/34 13/36 12/35
f 13/37 14/39 15/38
f 16/40 15/42 14/41
f 15/43 16/45 9/44
f 11/46 9/48 16/47
f 18/49 19/51 17/50
f 19/52 18/54 20/53
f 21/55 20/57 18/56
f 20/58 21/60 22/59
f 23/61 22/63 21/62
f 22/64 23/66 24/65
f 17/67 24/69 23/68
f 24/70 17/72 19/71
f 25/73 26/75 27/74
f 25/76 27/78 28/77
f 25/79 28/81 29/80
f 25/82 29/84 30/83
f 25/85 30/87 31/86
f 25/88 31/90 32/89
f 25/91 32/93 26/92
f 40/94 34/96 33/95
f 40/97 35/99 34/98
f 40/100 36/102 35/101
f 40/103 37/105 36/104
f 40/106 38/108 37/107
f 40/109 39/111 38/110
f 40/112 33/114 39/113
f 28/115 35/117 36/116
f 28/118 36/120 29/119
f 29/121 36/123 37/122
f 29/124 37/126 30/125
f 30/127 37/129 38/128
f 30/130 38/132 31/131
f 31/133 38/135 39/134
f 31/136 39/138 32/137
f 32/139 39/141 33/140
f 32/142 33/144 26/143
f 26/145 33/147 34/146
f 26/148 34/150 27/149
f 27/151 34/153 35/152
f 27/154 35/156 28/155
