g Object
v -0.6563 -0.1367 0.1719
v 0.6680 -0.1367 0.1719
v 0.6680 0.2266 0.1719
v -0.6563 0.2266 0.1719
v 0.6680 0.2266 0.8945
v -0.6563 0.2266 0.8945
v -0.6563 -0.1367 0.8945
v 0.6680 -0.1367 0.8945
v -0.5664 0.2266 0.2578
v -0.5664 0.2266 0.8594
v 0.5781 0.2266 0.8594
v 0.5781 0.2266 0.2578
v -0.5664 -0.0547 0.2578
v -0.5664 -0.0547 0.8594
v 0.5781 -0.0547 0.8594
v 0.5781 -0.0547 0.2578
v 1.4766 -1.0703 0.7227
v 1.5742 -1.0703 0.5547
v 1.4766 0.2266 0.7070
v 1.5625 0.2266 0.5703
v 1.3867 0.2266 0.5703
v 1.3750 -1.0703 0.5547
v -1.4609 0.2266 0.7070
v -1.3750 0.2266 0.5703
v -1.3633 -1.0703 0.5547
v -1.4609 -1.0703 0.7227
v -1.5508 0.2266 0.5703
v -1.5625 -1.0703 0.5547
v -1.4609 -1.0703 -0.5547
v -1.3633 -1.0703 -0.7305
v -1.4609 0.2266 -0.5703
v -1.3750 0.2266 -0.7148
v -1.5508 0.2266 -0.7148
v -1.5625 -1.0703 -0.7305
v 1.4766 -1.0703 -0.5547
v 1.5742 -1.0703 -0.7305
v 1.4766 0.2266 -0.5703
v 1.5625 0.2266 -0.7148
v 1.3867 0.2266 -0.7148
v 1.3750 -1.0703 -0.7305
v 1.5625 0.4961 -0.4023
v -1.5508 0.4961 -0.4023
v -1.5508 2.3008 -0.4023
v 1.5625 2.3008 -0.4023
v -1.5508 0.4961 -0.9023
v 1.5625 0.4961 -0.9023
v 1.5625 2.3008 -0.9023
v -1.5508 2.3008 -0.9023
v 1.5625 0.2266 -0.9023
v -1.5508 0.2266 -0.9023
v 1.5625 0.2266 0.8945
v -1.5508 0.2266 0.8945
v 1.5625 0.4961 0.8945
v -1.5508 0.4961 0.8945
v 0.6797 0.2266 0.1719
v -0.6797 0.2266 0.1719
v 0.6406 0.2266 0.2227
v -0.6289 0.2266 0.2227
v 0.0000 0.4961 -0.4023
v 0.0000 2.3008 -0.4023
v 0.0000 2.3008 -0.9023
vt 0.9219 0.6719
vt 0.9219 0.4531
vt 0.7031 0.4531
vt 0.7031 0.4531
vt 0.7031 0.6719
vt 0.9219 0.6719
vt 0.9219 0.4531
vt 0.9219 0.6719
vt 0.7031 0.6719
vt 0.7031 0.6719
vt 0.7031 0.4531
vt 0.9219 0.4531
vt 0.9844 0.6875
vt 0.9844 0.8281
vt 0.5469 0.8281
vt 0.5469 0.8281
vt 0.5469 0.6875
vt 0.9844 0.6875
vt 0.8750 0.6406
vt 0.8750 0.4844
vt 0.8906 0.4688
vt 0.8906 0.4688
vt 0.8906 0.6563
vt 0.8750 0.6406
vt 0.7188 0.4844
vt 0.7188 0.6406
vt 0.7031 0.6563
vt 0.7031 0.6563
vt 0.7031 0.4688
vt 0.7188 0.4844
vt 0.8750 0.4844
vt 0.7188 0.4844
vt 0.7031 0.4688
vt 0.7031 0.4688
vt 0.8906 0.4688
vt 0.8750 0.4844
vt 0.7344 0.4844
vt 0.9219 0.4844
vt 0.9219 0.6719
vt 0.9219 0.6719
vt 0.7344 0.6719
vt 0.7344 0.4844
vt 0.9219 0.4844
vt 0.7344 0.4844
vt 0.7344 0.6719
vt 0.7344 0.6719
vt 0.9219 0.6719
vt 0.9219 0.4844
vt 0.8750 0.4531
vt 0.6719 0.4531
vt 0.6719 0.6563
vt 0.6719 0.6563
vt 0.8750 0.6563
vt 0.8750 0.4531
vt 0.6719 0.6563
vt 0.6719 0.4531
vt 0.8750 0.4531
vt 0.8750 0.4531
vt 0.8750 0.6563
vt 0.6719 0.6563
vt 0.8906 0.4531
vt 0.8906 0.6719
vt 0.6875 0.6719
vt 0.6875 0.6719
vt 0.6875 0.4531
vt 0.8906 0.4531
vt 0.5938 0.6719
vt 0.5156 0.6719
vt 0.5156 0.5000
vt 0.5156 0.5000
vt 0.5938 0.5000
vt 0.5938 0.6719
vt 0.5938 0.6719
vt 0.5156 0.6719
vt 0.5156 0.5000
vt 0.5156 0.5000
vt 0.5938 0.5000
vt 0.5938 0.6719
vt 0.5938 0.6719
vt 0.5156 0.6719
vt 0.5156 0.5000
vt 0.5156 0.5000
vt 0.5938 0.5000
vt 0.5938 0.6719
vt 0.5938 0.6719
vt 0.5156 0.6719
vt 0.5156 0.5000
vt 0.5156 0.5000
vt 0.5938 0.5000
vt 0.5938 0.6719
vt 0.5938 0.6719
vt 0.5156 0.6719
vt 0.5156 0.5000
vt 0.5156 0.5000
vt 0.5938 0.5000
vt 0.5938 0.6719
vt 0.5938 0.6719
vt 0.5156 0.6719
vt 0.5156 0.5000
vt 0.5156 0.5000
vt 0.5938 0.5000
vt 0.5938 0.6719
vt 0.5938 0.6719
vt 0.5156 0.6719
vt 0.5156 0.5000
vt 0.5156 0.5000
vt 0.5938 0.5000
vt 0.5938 0.6719
vt 0.5938 0.6719
vt 0.5156 0.6719
vt 0.5156 0.5000
vt 0.5156 0.5000
vt 0.5938 0.5000
vt 0.5938 0.6719
vt 0.5938 0.6719
vt 0.5156 0.6719
vt 0.5156 0.5000
vt 0.5156 0.5000
vt 0.5938 0.5000
vt 0.5938 0.6719
vt 0.5938 0.6719
vt 0.5156 0.6719
vt 0.5156 0.5000
vt 0.5156 0.5000
vt 0.5938 0.5000
vt 0.5938 0.6719
vt 0.4844 0.4219
vt 0.4844 0.9844
vt 0.0000 0.9844
vt 0.0000 0.9844
vt 0.0000 0.4219
vt 0.4844 0.4219
vt 0.8125 0.4375
vt 0.8125 0.6406
vt 0.6406 0.6406
vt 0.6406 0.6406
vt 0.6406 0.4375
vt 0.8125 0.4375
vt 0.6250 0.4219
vt 0.6250 0.6406
vt 0.8750 0.6406
vt 0.8750 0.6406
vt 0.8750 0.4219
vt 0.6250 0.4219
vt 0.6250 0.6406
vt 0.6250 0.4219
vt 0.8750 0.4219
vt 0.8750 0.4219
vt 0.8750 0.6406
vt 0.6250 0.6406
vt 0.9844 0.9844
vt 0.5156 0.9844
vt 0.5156 0.7969
vt 0.5156 0.7969
vt 0.9844 0.7969
vt 0.9844 0.9844
vt 0.9844 0.6875
vt 0.0000 0.6875
vt 0.0000 0.0000
vt 0.0000 0.0000
vt 0.9844 0.0000
vt 0.9844 0.6875
vt 0.5156 0.7969
vt 0.5156 0.9844
vt 0.9844 0.9844
vt 0.9844 0.9844
vt 0.9844 0.7969
vt 0.5156 0.7969
vt 0.5156 0.9844
vt 0.5156 0.7969
vt 0.9844 0.7969
vt 0.9844 0.7969
vt 0.9844 0.9844
vt 0.5156 0.9844
vt 0.6094 0.0000
vt 0.3750 0.0000
vt 0.3750 0.0000
vt 0.3750 0.0000
vt 0.6094 0.0000
vt 0.6094 0.0000
vt 0.9375 0.4375
vt 0.9375 0.6406
vt 0.7500 0.6406
vt 0.7500 0.6406
vt 0.7500 0.4375
vt 0.9375 0.4375
vt 0.4844 0.4219
vt 0.4844 0.9844
vt 0.0000 0.9844
vt 0.0000 0.9844
vt 0.0000 0.4219
vt 0.4844 0.4219
f 6/1 1/3 7/2
f 1/4 6/6 4/5
f 8/7 3/9 5/8
f 3/10 8/12 2/11
f 7/13 5/15 6/14
f 5/16 7/18 8/17
f 9/19 6/21 10/20
f 6/22 9/24 4/23
f 11/25 3/27 12/26
f 3/28 11/30 5/29
f 10/31 5/33 11/32
f 5/34 10/36 6/35
f 13/37 10/39 14/38
f 10/40 13/42 9/41
f 15/43 12/45 16/44
f 12/46 15/48 11/47
f 14/49 11/51 15/50
f 11/52 14/54 10/53
f 12/55 13/57 16/56
f 13/58 12/60 9/59
f 14/61 16/63 13/62
f 16/64 14/66 15/65
f 19/67 18/69 20/68
f 18/70 19/72 17/71
f 21/73 17/75 19/74
f 17/76 21/78 22/77
f 20/79 22/81 21/80
f 22/82 20/84 18/83
f 23/85 25/87 24/86
f 25/88 23/90 26/89
f 27/91 26/93 23/92
f 26/94 27/96 28/95
f 24/97 28/99 27/98
f 28/100 24/102 25/101
f 31/103 30/105 32/104
f 30/106 31/108 29/107
f 33/109 29/111 31/110
f 29/112 33/114 34/113
f 37/115 36/117 38/116
f 36/118 37/120 35/119
f 39/121 35/123 37/122
f 35/124 39/126 40/125
f 59/127 44/129 60/128
f 44/130 59/132 41/131
f 60/133 47/135 61/134
f 47/136 60/138 44/137
f 45/139 43/141 48/140
f 43/142 45/144 42/143
f 47/145 41/147 46/146
f 41/148 47/150 44/149
f 54/151 51/153 53/152
f 51/154 54/156 52/155
f 45/157 53/159 46/158
f 53/160 45/162 54/161
f 50/163 54/165 45/164
f 54/166 50/168 52/167
f 46/169 51/171 49/170
f 51/172 46/174 53/173
f 57/175 56/177 58/176
f 56/178 57/180 55/179
f 43/181 61/183 48/182
f 61/184 43/186 60/185
f 42/187 60/189 43/188
f 60/190 42/192 59/191
