g Object
v 0.5234 0.0000 0.2969
v -0.5508 0.0000 0.2969
v 0.5234 0.0000 -0.3711
v -0.5508 0.0000 -0.3711
v 0.5234 2.0195 0.2969
v -0.5508 2.0195 0.2969
v 0.5234 2.0195 -0.3711
v -0.5508 2.0195 -0.3711
v -0.8047 1.5898 -0.3711
v -0.8047 1.5898 0.2969
v 0.7773 1.5898 0.2969
v 0.7773 1.5898 -0.3711
v -0.8047 0.3945 -0.3711
v -0.8047 0.3945 0.2969
v 0.7773 0.3945 0.2969
v 0.7773 0.3945 -0.3711
v -0.2461 0.9648 -0.1797
v -0.3867 1.2188 -0.1797
v -0.5313 0.9727 -1.3242
v -0.2461 0.9648 -1.3242
v -0.3867 1.2188 -1.3242
v -0.5313 0.9727 -0.1797
vt 0.9063 0.0000
vt 0.5625 0.0000
vt 0.5625 0.4688
vt 0.5625 0.4688
vt 0.9063 0.4688
vt 0.9063 0.0000
vt 0.9063 0.0000
vt 0.9063 0.4688
vt 0.5625 0.4688
vt 0.5625 0.4688
vt 0.5625 0.0000
vt 0.9063 0.0000
vt 0.5625 0.1875
vt 0.9063 0.1875
vt 0.9063 0.0000
vt 0.9063 0.0000
vt 0.5625 0.0000
vt 0.5625 0.1875
vt 0.4063 0.0000
vt 0.0625 0.0000
vt 0.0625 0.9688
vt 0.0625 0.9688
vt 0.4063 0.9688
vt 0.4063 0.0000
vt 0.9063 0.1875
vt 0.5625 0.1875
vt 0.5625 0.0000
vt 0.5625 0.0000
vt 0.9063 0.0000
vt 0.9063 0.1875
vt 0.5000 0.7813
vt 0.5000 0.2188
vt 0.4063 0.0000
vt 0.5000 0.7813
vt 0.4063 0.0000
vt 0.4063 0.9688
vt 0.0625 0.9688
vt 0.0625 0.0000
vt 0.0000 0.1875
vt 0.0000 0.7813
vt 0.0625 0.9688
vt 0.0000 0.1875
vt 0.9063 0.7813
vt 0.5625 0.7813
vt 0.5625 0.9688
vt 0.5625 0.9688
vt 0.9063 0.9688
vt 0.9063 0.7813
vt 0.5625 0.7813
vt 0.9063 0.7813
vt 0.9063 0.9688
vt 0.9063 0.9688
vt 0.5625 0.9688
vt 0.5625 0.7813
vt 0.5625 0.7813
vt 0.9063 0.7813
vt 0.9063 0.1875
vt 0.9063 0.1875
vt 0.5625 0.1875
vt 0.5625 0.7813
vt 0.9063 0.7813
vt 0.5625 0.7813
vt 0.5625 0.1875
vt 0.5625 0.1875
vt 0.9063 0.1875
vt 0.9063 0.7813
vt 0.5000 0.0000
vt 0.6875 1.0000
vt 0.5000 0.9688
vt 0.5000 0.0000
vt 0.6875 0.0000
vt 0.6875 1.0000
vt 0.9063 0.3438
vt 0.6875 0.7188
vt 0.4688 0.3438
vt 0.6875 0.0000
vt 0.9063 0.9688
vt 0.6875 1.0000
vt 0.6875 0.0000
vt 0.9063 0.0000
vt 0.9063 0.9688
vt 0.9063 0.0000
vt 0.5000 0.9688
vt 0.9063 0.9688
vt 0.9063 0.0000
vt 0.5000 0.0000
vt 0.5000 0.9688
f 1/1 4/3 3/2
f 4/4 1/6 2/5
f 5/7 8/9 6/8
f 8/10 5/12 7/11
f 13/13 2/15 14/14
f 2/16 13/18 4/17
f 4/19 7/21 3/20
f 7/22 4/24 8/23
f 15/25 3/27 16/26
f 3/28 15/30 1/29
f 9/31 4/33 13/32
f 9/34 8/36 4/35
f 7/37 16/39 3/38
f 12/40 16/42 7/41
f 10/43 8/45 9/44
f 8/46 10/48 6/47
f 12/49 5/51 11/50
f 5/52 12/54 7/53
f 9/55 14/57 10/56
f 14/58 9/60 13/59
f 11/61 16/63 12/62
f 16/64 11/66 15/65
f 17/67 20/69 21/68
f 17/70 21/72 18/71
f 20/73 19/75 21/74
f 18/76 21/78 19/77
f 18/79 19/81 22/80
f 22/82 19/84 20/83
f 22/85 20/87 17/86
