g Object
v 0.9141 1.9688 0.9844
v 0.4727 1.9688 0.8047
v 1.1992 1.9688 0.2969
v 0.7578 1.9688 0.1172
v 0.9141 2.1328 0.9844
v 0.4727 2.1328 0.8047
v 1.1992 2.1328 0.2969
v 0.7578 2.1328 0.1172
v 0.8359 1.6211 0.2148
v -0.8203 1.6211 0.2148
v 0.8359 1.6211 1.1211
v -0.8203 1.6211 1.1211
v -0.7109 1.6211 0.3242
v -0.7109 1.6211 1.0742
v 0.7266 1.6211 1.0742
v 0.7266 1.6211 0.3242
v 1.8477 0.0000 0.9023
v 1.9727 0.0000 0.6953
v 1.8477 1.6211 0.8867
v 1.9570 1.6211 0.7148
v 1.7344 1.6211 0.7148
v 1.7188 0.0000 0.6953
v -1.8320 1.6211 0.8867
v -1.7188 1.6211 0.7148
v -1.7031 0.0000 0.6953
v -1.8320 0.0000 0.9023
v -1.9414 1.6211 0.7148
v -1.9570 0.0000 0.6953
v -1.8320 0.0000 -0.6953
v -1.7031 0.0000 -0.9141
v -1.8320 1.6211 -0.7148
v -1.7188 1.6211 -0.8945
v -1.9414 1.6211 -0.8945
v -1.9570 0.0000 -0.9141
v 1.8477 0.0000 -0.6953
v 1.9727 0.0000 -0.9141
v 1.8477 1.6211 -0.7148
v 1.9570 1.6211 -0.8945
v 1.7344 1.6211 -0.8945
v 1.7188 0.0000 -0.9141
v -1.9414 1.9688 -1.1289
v 1.9570 1.9688 -1.1289
v 1.9570 1.6211 -1.1289
v -1.9414 1.6211 -1.1289
v 1.9570 1.6211 1.1211
v -1.9414 1.6211 1.1211
v 1.9570 1.9688 1.1211
v -1.9414 1.9688 1.1211
v 0.8516 1.6211 0.2148
v -0.8516 1.6211 0.2148
v 0.8047 1.6211 0.2773
v -0.7891 1.6211 0.2773
v -1.0742 1.9688 -0.1875
v -0.8516 1.9688 -0.3164
v -0.8516 1.9688 -0.0625
v -0.9766 2.1016 -0.1875
v -0.8984 2.1016 -0.2422
v -0.8984 2.1016 -0.1328
v -1.0234 2.1563 -0.1875
v -0.8672 2.1563 -0.2695
v -0.8672 2.1563 -0.0977
v -0.9141 2.1563 -0.1875
v -0.9141 2.0586 -0.1875
v -1.1055 2.6055 -0.2344
v -1.2305 2.7266 -0.1445
v -0.9453 2.1680 -0.1875
v -0.9609 2.1680 -0.1797
v -1.0234 2.3516 -0.1719
v -0.9922 2.3516 -0.2070
v -0.9609 2.1680 -0.1797
v -1.0234 2.3516 -0.1719
v -0.9922 2.3516 -0.2070
v -0.9453 2.1680 -0.1875
v -1.2305 2.7266 -0.1445
v -1.1055 2.6055 -0.2344
vt 0.1719 0.5000
vt 0.4844 0.5000
vt 0.4844 0.9844
vt 0.4844 0.9844
vt 0.1719 0.9844
vt 0.1719 0.5000
vt 0.9063 0.5000
vt 0.9063 0.6250
vt 0.8594 0.6250
vt 0.8594 0.6250
vt 0.8594 0.5000
vt 0.9063 0.5000
vt 0.8594 0.5000
vt 0.8594 0.6250
vt 0.9063 0.6250
vt 0.9063 0.6250
vt 0.9063 0.5000
vt 0.8594 0.5000
vt 0.9063 0.6250
vt 0.9063 0.5000
vt 0.8594 0.5000
vt 0.8594 0.5000
vt 0.8594 0.6250
vt 0.9063 0.6250
vt 0.0000 0.9844
vt 0.0000 0.5000
vt 0.1406 0.5000
vt 0.1406 0.5000
vt 0.1406 0.9844
vt 0.0000 0.9844
vt 0.1875 0.3125
vt 0.1875 0.1563
vt 0.2031 0.1563
vt 0.2031 0.1563
vt 0.2031 0.3438
vt 0.1875 0.3125
vt 0.0156 0.1563
vt 0.0156 0.3125
vt 0.0156 0.3438
vt 0.0156 0.3438
vt 0.0156 0.1563
vt 0.0156 0.1563
vt 0.1875 0.1563
vt 0.0156 0.1563
vt 0.0156 0.1563
vt 0.0156 0.1563
vt 0.2031 0.1563
vt 0.1875 0.1563
vt 0.5938 0.6719
vt 0.5156 0.6719
vt 0.5156 0.5000
vt 0.5156 0.5000
vt 0.5938 0.5000
vt 0.5938 0.6719
vt 0.5938 0.6719
vt 0.5156 0.6719
vt 0.5156 0.5000
vt 0.5156 0.5000
vt 0.5938 0.5000
vt 0.5938 0.6719
vt 0.5938 0.6719
vt 0.5156 0.6719
vt 0.5156 0.5000
vt 0.5156 0.5000
vt 0.5938 0.5000
vt 0.5938 0.6719
vt 0.5938 0.6719
vt 0.5156 0.6719
vt 0.5156 0.5000
vt 0.5156 0.5000
vt 0.5938 0.5000
vt 0.5938 0.6719
vt 0.5938 0.6719
vt 0.5156 0.6719
vt 0.5156 0.5000
vt 0.5156 0.5000
vt 0.5938 0.5000
vt 0.5938 0.6719
vt 0.5938 0.6719
vt 0.5156 0.6719
vt 0.5156 0.5000
vt 0.5156 0.5000
vt 0.5938 0.5000
vt 0.5938 0.6719
vt 0.5938 0.6719
vt 0.5156 0.6719
vt 0.5156 0.5000
vt 0.5156 0.5000
vt 0.5938 0.5000
vt 0.5938 0.6719
vt 0.5938 0.6719
vt 0.5156 0.6719
vt 0.5156 0.5000
vt 0.5156 0.5000
vt 0.5938 0.5000
vt 0.5938 0.6719
vt 0.5938 0.6719
vt 0.5156 0.6719
vt 0.5156 0.5000
vt 0.5156 0.5000
vt 0.5938 0.5000
vt 0.5938 0.6719
vt 0.5938 0.6719
vt 0.5156 0.6719
vt 0.5156 0.5000
vt 0.5156 0.5000
vt 0.5938 0.5000
vt 0.5938 0.6719
vt 0.9844 0.9844
vt 0.5156 0.9844
vt 0.5156 0.7969
vt 0.5156 0.7969
vt 0.9844 0.7969
vt 0.9844 0.9844
vt 0.9844 0.4844
vt 0.0000 0.4844
vt 0.0000 0.0000
vt 0.0000 0.0000
vt 0.9844 0.0000
vt 0.9844 0.4844
vt 0.5156 0.7969
vt 0.5156 0.9844
vt 0.9844 0.9844
vt 0.9844 0.9844
vt 0.9844 0.7969
vt 0.5156 0.7969
vt 0.5156 0.9844
vt 0.5156 0.7969
vt 0.9844 0.7969
vt 0.9844 0.7969
vt 0.9844 0.9844
vt 0.5156 0.9844
vt 0.6094 0.0000
vt 0.3750 0.0000
vt 0.3750 0.0000
vt 0.3750 0.0000
vt 0.6094 0.0000
vt 0.6094 0.0000
vt 0.7500 0.5000
vt 0.7500 0.5938
vt 0.7500 0.5938
vt 0.7500 0.5000
vt 0.7500 0.5000
vt 0.7500 0.5938
vt 0.7500 0.5000
vt 0.8438 0.5938
vt 0.7500 0.5938
vt 0.7500 0.5000
vt 0.8438 0.5000
vt 0.8438 0.5938
vt 0.8438 0.5000
vt 0.7500 0.5938
vt 0.8438 0.5938
vt 0.8438 0.5000
vt 0.7500 0.5000
vt 0.7500 0.5938
vt 0.7500 0.5938
vt 0.7500 0.6250
vt 0.7500 0.6250
vt 0.7500 0.5938
vt 0.7500 0.5938
vt 0.7500 0.6250
vt 0.7500 0.5938
vt 0.8438 0.6250
vt 0.7500 0.6250
vt 0.7500 0.5938
vt 0.8438 0.5938
vt 0.8438 0.6250
vt 0.8438 0.5938
vt 0.7500 0.6250
vt 0.8438 0.6250
vt 0.8438 0.5938
vt 0.7500 0.5938
vt 0.7500 0.6250
vt 0.4375 0.0313
vt 0.4531 0.0313
vt 0.4219 0.0469
vt 0.4375 0.0313
vt 0.4219 0.0469
vt 0.4219 0.0156
vt 0.4375 0.0313
vt 0.4219 0.0156
vt 0.4531 0.0313
vt 0.8750 0.5156
vt 0.8906 0.5469
vt 0.8594 0.5469
vt 0.8594 0.5469
vt 0.8750 0.5156
vt 0.8750 0.5156
vt 0.8750 0.5156
vt 0.8750 0.5156
vt 0.8906 0.5000
vt 0.8906 0.5469
vt 0.9063 0.6250
vt 0.8594 0.6250
vt 0.8594 0.6250
vt 0.8594 0.5469
vt 0.8906 0.5469
vt 0.8906 0.5469
vt 0.8750 0.5156
vt 0.8594 0.5469
vt 0.8750 0.5156
vt 0.8594 0.5469
vt 0.8750 0.5156
vt 0.9063 0.6250
vt 0.8906 0.5469
vt 0.8594 0.6250
vt 0.8594 0.5469
vt 0.8594 0.6250
vt 0.8906 0.5469
f 5/1 8/3 6/2
f 8/4 5/6 7/5
f 1/7 6/9 2/8
f 6/10 1/12 5/11
f 2/13 8/15 4/14
f 8/16 2/18 6/17
f 4/19 7/21 3/20
f 7/22 4/24 8/23
f 3/25 5/27 1/26
f 5/28 3/30 7/29
f 13/31 12/33 14/32
f 12/34 13/36 10/35
f 15/37 9/39 16/38
f 9/40 15/42 11/41
f 14/43 11/45 15/44
f 11/46 14/48 12/47
f 19/49 18/51 20/50
f 18/52 19/54 17/53
f 21/55 17/57 19/56
f 17/58 21/60 22/59
f 20/61 22/63 21/62
f 22/64 20/66 18/65
f 23/67 25/69 24/68
f 25/70 23/72 26/71
f 27/73 26/75 23/74
f 26/76 27/78 28/77
f 24/79 28/81 27/80
f 28/82 24/84 25/83
f 31/85 30/87 32/86
f 30/88 31/90 29/89
f 33/91 29/93 31/92
f 29/94 33/96 34/95
f 37/97 36/99 38/98
f 36/100 37/102 35/101
f 39/103 35/105 37/104
f 35/106 39/108 40/107
f 48/109 45/111 47/110
f 45/112 48/114 46/113
f 41/115 47/117 42/116
f 47/118 41/120 48/119
f 44/121 48/123 41/122
f 48/124 44/126 46/125
f 42/127 45/129 43/128
f 45/130 42/132 47/131
f 51/133 50/135 52/134
f 50/136 51/138 49/137
f 53/139 56/141 57/140
f 53/142 57/144 54/143
f 54/145 57/147 58/146
f 54/148 58/150 55/149
f 55/151 58/153 56/152
f 55/154 56/156 53/155
f 56/157 59/159 60/158
f 56/160 60/162 57/161
f 57/163 60/165 61/164
f 57/166 61/168 58/167
f 58/169 61/171 59/170
f 58/172 59/174 56/173
f 62/175 60/177 59/176
f 62/178 61/180 60/179
f 62/181 59/183 61/182
f 67/184 69/186 68/185
f 69/187 67/189 66/188
f 67/190 63/192 66/191
f 68/193 64/195 65/194
f 64/196 68/198 69/197
f 71/199 72/201 70/200
f 73/202 70/204 72/203
f 74/205 75/207 71/206
f 72/208 71/210 75/209
