g Object
v 0.9258 0.5625 1.1953
v 1.0195 0.5625 0.9766
v 0.8281 0.5625 0.9766
v 0.9258 0.0000 1.1953
v 1.0195 0.0000 0.9766
v 0.8281 0.0000 0.9766
v -0.9258 0.5625 1.1953
v -0.8203 0.5625 0.9766
v -1.0195 0.5625 0.9766
v -0.9258 0.0000 1.1953
v -0.8203 0.0000 0.9766
v -1.0195 0.0000 0.9766
v 1.0469 0.5625 -1.0469
v 1.0469 0.5625 -1.6992
v 1.0469 0.0000 -1.3711
v 1.0469 0.0000 -0.7188
v 1.0469 0.5625 -0.3906
v 1.0469 1.1367 -0.7188
v 1.0469 1.1367 -1.3711
v 1.1914 0.5625 -1.6992
v 1.1914 0.0000 -1.3711
v 1.1914 0.0000 -0.7188
v 1.1914 0.5625 -0.3906
v 1.1914 1.1367 -0.7188
v 1.1914 1.1367 -1.3711
v 1.1914 0.5625 -1.0469
v 1.0195 0.5625 1.1953
v -1.0195 0.5625 1.1953
v 1.0195 0.5625 -1.6719
v -1.0195 0.5625 -1.6719
v 1.0195 1.3867 1.1953
v -1.0195 1.9297 1.1953
v 1.0195 1.3867 -1.6719
v -1.0195 1.9297 -1.6719
v 0.0000 1.3867 1.1953
v 0.0000 1.3867 -1.6719
v -0.6953 1.9297 1.1953
v -0.6953 1.9297 -1.6719
v 1.0195 1.3867 -0.2422
v 0.0000 1.3867 -0.2422
v -0.6953 1.9297 -0.2422
v -1.0195 1.3867 1.1953
v -1.0195 1.3867 -1.6719
v 1.0195 0.5625 -0.2422
v -1.0195 1.9297 -0.2422
v 0.0000 0.5625 1.1953
v 0.0000 0.5625 -1.6719
v -1.0195 0.5625 -0.2422
v -1.0195 1.3867 -0.2422
v -1.1836 0.5625 -1.0469
v -1.1836 0.5625 -1.6992
v -1.1836 0.0000 -1.3711
v -1.1836 0.0000 -0.7188
v -1.1836 0.5625 -0.3906
v -1.1836 1.1367 -0.7188
v -1.1836 1.1367 -1.3711
v -1.0391 0.5625 -1.6992
v -1.0391 0.0000 -1.3711
v -1.0391 0.0000 -0.7188
v -1.0391 0.5625 -0.3906
v -1.0391 1.1367 -0.7188
v -1.0391 1.1367 -1.3711
v -1.0391 0.5625 -1.0469
v 0.9258 1.3086 1.1953
v 0.9805 1.1992 1.1953
v 0.8672 1.1992 1.1953
v 0.9258 1.3086 1.6445
v 0.9805 1.1992 1.6836
v 0.8672 1.1992 1.6836
v -0.9258 1.3086 1.1953
v -0.8672 1.1992 1.1953
v -0.9727 1.1992 1.1953
v -0.9258 1.3086 1.6445
v -0.8672 1.1992 1.6836
v -0.9727 1.1992 1.6836
v 0.9805 1.1992 1.5898
v 0.9258 1.3086 1.6445
v -0.9727 1.1992 1.5898
v -0.9258 1.3086 1.6445
v 0.9805 1.1992 1.6836
v -0.9727 1.1992 1.6836
vt 0.4844 0.4844
vt 0.4844 0.0781
vt 0.0000 0.4844
vt 0.0000 0.0781
vt 0.0000 0.4844
vt 0.4844 0.0781
vt 0.9844 0.9844
vt 0.9844 0.9844
vt 0.0000 0.9844
vt 0.0000 0.9844
vt 0.0000 0.9844
vt 0.9844 0.9844
vt 0.4844 0.0781
vt 0.4844 0.4844
vt 0.0000 0.0781
vt 0.0000 0.4844
vt 0.0000 0.0781
vt 0.4844 0.4844
vt 0.4844 0.4844
vt 0.4844 0.0781
vt 0.0000 0.4844
vt 0.0000 0.0781
vt 0.0000 0.4844
vt 0.4844 0.0781
vt 0.9844 0.9844
vt 0.9844 0.9844
vt 0.0000 0.9844
vt 0.0000 0.9844
vt 0.0000 0.9844
vt 0.9844 0.9844
vt 0.4844 0.0781
vt 0.4844 0.4844
vt 0.0000 0.0781
vt 0.0000 0.4844
vt 0.0000 0.0781
vt 0.4844 0.4844
vt 0.7500 0.2500
vt 0.8750 0.4688
vt 1.0000 0.2500
vt 0.7500 0.2500
vt 0.6250 0.4688
vt 0.8750 0.4688
vt 0.7500 0.2500
vt 0.5000 0.2500
vt 0.6250 0.4688
vt 0.7500 0.2500
vt 0.6250 0.0313
vt 0.5000 0.2500
vt 0.7500 0.2500
vt 0.8750 0.0313
vt 0.6250 0.0313
vt 0.7500 0.2500
vt 1.0000 0.2500
vt 0.8750 0.0313
vt 0.9688 0.4844
vt 0.9844 0.0000
vt 0.9844 0.4844
vt 0.9688 0.4844
vt 0.9688 0.0000
vt 0.9844 0.0000
vt 0.9688 0.4844
vt 0.9844 0.0000
vt 0.9844 0.4844
vt 0.9688 0.4844
vt 0.9688 0.0000
vt 0.9844 0.0000
vt 0.9688 0.4844
vt 0.9844 0.0000
vt 0.9844 0.4844
vt 0.9688 0.4844
vt 0.9688 0.0000
vt 0.9844 0.0000
vt 0.9688 0.4844
vt 0.9844 0.0000
vt 0.9844 0.4844
vt 0.9688 0.4844
vt 0.9688 0.0000
vt 0.9844 0.0000
vt 0.9688 0.4844
vt 0.9844 0.0000
vt 0.9844 0.4844
vt 0.9688 0.4844
vt 0.9688 0.0000
vt 0.9844 0.0000
vt 0.7500 0.2500
vt 1.0000 0.2500
vt 0.8750 0.4688
vt 0.7500 0.2500
vt 0.8750 0.4688
vt 0.6250 0.4688
vt 0.7500 0.2500
vt 0.6250 0.4688
vt 0.5000 0.2500
vt 0.7500 0.2500
vt 0.5000 0.2500
vt 0.6250 0.0313
vt 0.7500 0.2500
vt 0.6250 0.0313
vt 0.8750 0.0313
vt 0.7500 0.2500
vt 0.8750 0.0313
vt 1.0000 0.2500
vt 0.0000 0.5000
vt 0.0000 0.9844
vt 0.9844 0.9844
vt 0.0000 0.5000
vt 0.9844 0.9844
vt 0.9844 0.5000
vt 0.4844 0.0000
vt 0.4844 0.4844
vt 0.0000 0.4844
vt 0.0000 0.4844
vt 0.0000 0.0000
vt 0.4844 0.0000
vt 0.4844 0.0000
vt 0.0000 0.0000
vt 0.0000 0.4844
vt 0.4844 0.0000
vt 0.0000 0.4844
vt 0.4844 0.4844
vt 0.0000 0.4844
vt 0.0000 0.0000
vt 0.4844 0.0000
vt 0.4844 0.0000
vt 0.4844 0.4844
vt 0.0000 0.4844
vt 0.4844 0.4844
vt 0.0000 0.4844
vt 0.0000 0.0781
vt 0.0000 0.0781
vt 0.4844 0.0781
vt 0.4844 0.4844
vt 0.9844 0.5000
vt 0.9844 0.9844
vt 0.0000 0.9844
vt 0.9844 0.5000
vt 0.0000 0.9844
vt 0.0000 0.5000
vt 0.4844 0.0781
vt 0.4844 0.4844
vt 0.0000 0.4844
vt 0.0000 0.4844
vt 0.0000 0.0781
vt 0.4844 0.0781
vt 0.0000 0.4844
vt 0.4844 0.4844
vt 0.4844 0.0781
vt 0.4844 0.0781
vt 0.0000 0.0781
vt 0.0000 0.4844
vt 0.9844 0.9844
vt 0.0000 0.9844
vt 0.0000 0.5000
vt 0.0000 0.5000
vt 0.9844 0.5000
vt 0.9844 0.9844
vt 0.9844 0.5000
vt 0.0000 0.5000
vt 0.0000 0.9844
vt 0.0000 0.9844
vt 0.9844 0.9844
vt 0.9844 0.5000
vt 0.0000 0.4844
vt 0.0000 0.0000
vt 0.4844 0.0000
vt 0.4844 0.0000
vt 0.4844 0.4844
vt 0.0000 0.4844
vt 0.0000 0.4844
vt 0.0000 0.0781
vt 0.4844 0.0781
vt 0.4844 0.0781
vt 0.4844 0.4844
vt 0.0000 0.4844
vt 0.0000 0.0000
vt 0.4844 0.0000
vt 0.4844 0.4844
vt 0.0000 0.0000
vt 0.4844 0.4844
vt 0.0000 0.4844
vt 0.0000 0.0000
vt 0.0000 0.4844
vt 0.4844 0.4844
vt 0.4844 0.4844
vt 0.4844 0.0000
vt 0.0000 0.0000
vt 0.0000 0.4844
vt 0.0000 0.0000
vt 0.4844 0.0000
vt 0.4844 0.0000
vt 0.4844 0.4844
vt 0.0000 0.4844
vt 0.0000 0.4844
vt 0.0000 0.0000
vt 0.4844 0.0000
vt 0.4844 0.0000
vt 0.4844 0.4844
vt 0.0000 0.4844
vt 0.0000 0.4844
vt 0.0000 0.0781
vt 0.4844 0.0781
vt 0.4844 0.0781
vt 0.4844 0.4844
vt 0.0000 0.4844
vt 0.0000 0.4844
vt 0.0000 0.0781
vt 0.4844 0.0781
vt 0.4844 0.0781
vt 0.4844 0.4844
vt 0.0000 0.4844
vt 0.7500 0.2500
vt 0.8750 0.4688
vt 1.0000 0.2500
vt 0.7500 0.2500
vt 0.6250 0.4688
vt 0.8750 0.4688
vt 0.7500 0.2500
vt 0.5000 0.2500
vt 0.6250 0.4688
vt 0.7500 0.2500
vt 0.6250 0.0313
vt 0.5000 0.2500
vt 0.7500 0.2500
vt 0.8750 0.0313
vt 0.6250 0.0313
vt 0.7500 0.2500
vt 1.0000 0.2500
vt 0.8750 0.0313
vt 0.9688 0.4844
vt 0.9844 0.0000
vt 0.9844 0.4844
vt 0.9688 0.4844
vt 0.9688 0.0000
vt 0.9844 0.0000
vt 0.9688 0.4844
vt 0.9844 0.0000
vt 0.9844 0.4844
vt 0.9688 0.4844
vt 0.9688 0.0000
vt 0.9844 0.0000
vt 0.9688 0.4844
vt 0.9844 0.0000
vt 0.9844 0.4844
vt 0.9688 0.4844
vt 0.9688 0.0000
vt 0.9844 0.0000
vt 0.9688 0.4844
vt 0.9844 0.0000
vt 0.9844 0.4844
vt 0.9688 0.4844
vt 0.9688 0.0000
vt 0.9844 0.0000
vt 0.9688 0.4844
vt 0.9844 0.0000
vt 0.9844 0.4844
vt 0.9688 0.4844
vt 0.9688 0.0000
vt 0.9844 0.0000
vt 0.7500 0.2500
vt 1.0000 0.2500
vt 0.8750 0.4688
vt 0.7500 0.2500
vt 0.8750 0.4688
vt 0.6250 0.4688
vt 0.7500 0.2500
vt 0.6250 0.4688
vt 0.5000 0.2500
vt 0.7500 0.2500
vt 0.5000 0.2500
vt 0.6250 0.0313
vt 0.7500 0.2500
vt 0.6250 0.0313
vt 0.8750 0.0313
vt 0.7500 0.2500
vt 0.8750 0.0313
vt 1.0000 0.2500
vt 0.4844 0.4844
vt 0.4844 0.0781
vt 0.0000 0.4844
vt 0.0000 0.0781
vt 0.0000 0.4844
vt 0.4844 0.0781
vt 0.4844 0.0781
vt 0.4844 0.4844
vt 0.0000 0.0781
vt 0.0000 0.4844
vt 0.0000 0.0781
vt 0.4844 0.4844
vt 0.4844 0.4844
vt 0.4844 0.0781
vt 0.0000 0.4844
vt 0.0000 0.0781
vt 0.0000 0.4844
vt 0.4844 0.0781
vt 0.4844 0.0781
vt 0.4844 0.4844
vt 0.0000 0.0781
vt 0.0000 0.4844
vt 0.0000 0.0781
vt 0.4844 0.4844
vt 0.4844 0.4844
vt 0.4844 0.0781
vt 0.0000 0.4844
vt 0.0000 0.0781
vt 0.0000 0.4844
vt 0.4844 0.0781
vt 0.4844 0.0781
vt 0.4844 0.4844
vt 0.0000 0.0781
vt 0.0000 0.4844
vt 0.0000 0.0781
vt 0.4844 0.4844
f 3/1 6/3 1/2
f 4/4 1/6 6/5
f 2/7 5/9 3/8
f 6/10 3/12 5/11
f 1/13 4/15 2/14
f 5/16 2/18 4/17
f 9/19 12/21 7/20
f 10/22 7/24 12/23
f 8/25 11/27 9/26
f 12/28 9/30 11/29
f 7/31 10/33 8/32
f 11/34 8/36 10/35
f 13/37 14/39 15/38
f 13/40 15/42 16/41
f 13/43 16/45 17/44
f 13/46 17/48 18/47
f 13/49 18/51 19/50
f 13/52 19/54 14/53
f 14/55 20/57 21/56
f 14/58 21/60 15/59
f 16/61 22/63 23/62
f 16/64 23/66 17/65
f 17/67 23/69 24/68
f 17/70 24/72 18/71
f 18/73 24/75 25/74
f 18/76 25/78 19/77
f 19/79 25/81 20/80
f 19/82 20/84 14/83
f 26/85 21/87 20/86
f 26/88 22/90 21/89
f 26/91 23/93 22/92
f 26/94 24/96 23/95
f 26/97 25/99 24/98
f 26/100 20/102 25/101
f 39/103 36/105 40/104
f 39/106 33/108 36/107
f 46/109 31/111 35/110
f 31/112 46/114 27/113
f 30/115 36/117 47/116
f 30/118 43/120 36/119
f 33/121 44/123 29/122
f 44/124 33/126 39/125
f 45/127 38/129 34/128
f 38/130 45/132 41/131
f 31/133 40/135 35/134
f 31/136 39/138 40/137
f 42/139 37/141 32/140
f 37/142 42/144 35/143
f 38/145 43/147 34/146
f 43/148 38/150 36/149
f 41/151 36/153 38/152
f 36/154 41/156 40/155
f 37/157 40/159 41/158
f 40/160 37/162 35/161
f 39/163 27/165 44/164
f 27/166 39/168 31/167
f 45/169 37/171 41/170
f 37/172 45/174 32/173
f 46/175 42/177 28/176
f 46/178 35/180 42/179
f 29/181 36/183 33/182
f 36/184 29/186 47/185
f 42/187 48/189 28/188
f 48/190 42/192 49/191
f 49/193 30/195 48/194
f 30/196 49/198 43/197
f 32/199 49/201 42/200
f 49/202 32/204 45/203
f 45/205 43/207 49/206
f 43/208 45/210 34/209
f 50/211 51/213 52/212
f 50/214 52/216 53/215
f 50/217 53/219 54/218
f 50/220 54/222 55/221
f 50/223 55/225 56/224
f 50/226 56/228 51/227
f 51/229 57/231 58/230
f 51/232 58/234 52/233
f 53/235 59/237 60/236
f 53/238 60/240 54/239
f 54/241 60/243 61/242
f 54/244 61/246 55/245
f 55/247 61/249 62/248
f 55/250 62/252 56/251
f 56/253 62/255 57/254
f 56/256 57/258 51/257
f 63/259 58/261 57/260
f 63/262 59/264 58/263
f 63/265 60/267 59/266
f 63/268 61/270 60/269
f 63/271 62/273 61/272
f 63/274 57/276 62/275
f 66/277 69/279 64/278
f 67/280 64/282 69/281
f 64/283 67/285 65/284
f 68/286 65/288 67/287
f 72/289 75/291 70/290
f 73/292 70/294 75/293
f 70/295 73/297 71/296
f 74/298 71/300 73/299
f 76/301 78/303 77/302
f 79/304 77/306 78/305
f 77/307 79/309 80/308
f 81/310 80/312 79/311
