g Object
v -0.3984 0.5781 2.0977
v -0.3086 0.7500 1.9102
v -0.2344 0.7422 2.1563
v -0.3242 0.5703 2.3438
v -0.1602 0.3633 1.3398
v -0.0703 0.5391 1.1328
v 0.0156 0.5313 1.3789
v -0.0703 0.3555 1.5859
v 0.0156 1.1836 -0.0938
v 0.0000 0.8359 1.4922
v -1.1250 0.8359 1.0391
v -1.5977 0.8359 -0.0938
v -1.1250 0.8359 -1.2266
v 0.0156 0.8359 -1.6992
v 1.1445 0.8359 -1.2266
v 1.6133 0.8359 -0.0938
v 1.1445 0.8359 1.0391
v 0.0000 0.0000 2.1758
v -1.5977 0.0000 1.4922
v -2.2500 0.0000 -0.0938
v -1.5977 0.0000 -1.6992
v 0.0156 0.0000 -2.3633
v 1.6133 0.0000 -1.6992
v 2.2695 0.0000 -0.0938
v 1.6133 0.0000 1.4922
v 0.5234 0.7969 -0.1289
v 0.5977 0.5391 -0.0352
v 0.5781 1.0117 0.1289
v 0.6719 0.7500 0.2266
v 1.4883 1.7188 -0.1484
v 1.5781 1.4570 -0.0547
v 1.5586 1.9297 0.1133
v 1.6523 1.6719 0.2070
v -1.6680 1.2930 -0.2266
v -1.4688 1.3008 -0.0352
v -1.6875 1.4258 -0.0156
v -1.9063 1.4258 -0.2070
v -1.2695 0.6328 0.0938
v -1.0703 0.6328 0.2813
v -1.3047 0.7656 0.3008
v -1.5078 0.7578 0.1133
v 0.8867 1.2930 -1.5117
v 0.8320 1.3008 -1.2461
v 0.7070 1.4258 -1.4375
v 0.7617 1.4258 -1.6992
v 0.8164 0.6328 -1.0000
v 0.7617 0.6328 -0.7344
v 0.6328 0.7656 -0.9258
v 0.6875 0.7578 -1.1914
vt 0.7188 0.0000
vt 0.9844 0.0000
vt 0.9844 0.2656
vt 0.9844 0.2656
vt 0.7188 0.2656
vt 0.7188 0.0000
vt 0.7188 0.0000
vt 0.9844 0.0000
vt 0.9844 0.2656
vt 0.9844 0.2656
vt 0.7188 0.2656
vt 0.7188 0.0000
vt 0.7188 0.0000
vt 0.7188 0.2656
vt 0.9844 0.2656
vt 0.9844 0.2656
vt 0.9844 0.0000
vt 0.7188 0.0000
vt 0.9844 0.0000
vt 0.7188 0.0000
vt 0.7188 0.2656
vt 0.7188 0.2656
vt 0.9844 0.2656
vt 0.9844 0.0000
vt 0.7188 0.2656
vt 0.7188 0.0000
vt 0.9844 0.0000
vt 0.9844 0.0000
vt 0.9844 0.2656
vt 0.7188 0.2656
vt 0.4844 0.4844
vt 0.4844 0.8438
vt 0.2344 0.7344
vt 0.4844 0.4844
vt 0.2344 0.7344
vt 0.1406 0.4844
vt 0.4844 0.4844
vt 0.1406 0.4844
vt 0.2344 0.2344
vt 0.4844 0.4844
vt 0.2344 0.2344
vt 0.4844 0.1406
vt 0.9844 0.4844
vt 0.5313 0.1875
vt 0.5469 0.5000
vt 0.9844 0.4844
vt 0.5469 0.5000
vt 0.7188 0.7656
vt 0.4844 0.9844
vt 0.1094 0.5781
vt 0.4063 0.5313
vt 0.4844 0.9844
vt 0.4063 0.5313
vt 0.7813 0.6563
vt 0.4844 0.8438
vt 0.4844 0.9844
vt 0.1406 0.8438
vt 0.4844 0.8438
vt 0.1406 0.8438
vt 0.2344 0.7344
vt 0.2344 0.7344
vt 0.1406 0.8438
vt 0.0000 0.4844
vt 0.2344 0.7344
vt 0.0000 0.4844
vt 0.1406 0.4844
vt 0.1406 0.4844
vt 0.0000 0.4844
vt 0.1406 0.1406
vt 0.1406 0.4844
vt 0.1406 0.1406
vt 0.2344 0.2344
vt 0.2344 0.2344
vt 0.1406 0.1406
vt 0.4844 0.0000
vt 0.2344 0.2344
vt 0.4844 0.0000
vt 0.4844 0.1406
vt 0.5313 0.1875
vt 0.0000 0.0000
vt 0.0156 0.6250
vt 0.5313 0.1875
vt 0.0156 0.6250
vt 0.5469 0.5000
vt 0.5469 0.5000
vt 0.0156 0.6250
vt 0.2656 0.9844
vt 0.5469 0.5000
vt 0.2656 0.9844
vt 0.7188 0.7656
vt 0.1094 0.5781
vt 0.0000 0.2969
vt 0.3438 0.2344
vt 0.1094 0.5781
vt 0.3438 0.2344
vt 0.4063 0.5313
vt 0.4063 0.5313
vt 0.3438 0.2344
vt 0.9531 0.3281
vt 0.4063 0.5313
vt 0.9531 0.3281
vt 0.7813 0.6563
vt 0.7188 0.0000
vt 0.9844 0.0000
vt 0.9844 0.2656
vt 0.9844 0.2656
vt 0.7188 0.2656
vt 0.7188 0.0000
vt 0.7188 0.0000
vt 0.9844 0.0000
vt 0.9844 0.2656
vt 0.9844 0.2656
vt 0.7188 0.2656
vt 0.7188 0.0000
vt 0.7188 0.0000
vt 0.7188 0.2656
vt 0.9844 0.2656
vt 0.9844 0.2656
vt 0.9844 0.0000
vt 0.7188 0.0000
vt 0.9844 0.0000
vt 0.7188 0.0000
vt 0.7188 0.2656
vt 0.7188 0.2656
vt 0.9844 0.2656
vt 0.9844 0.0000
vt 0.7188 0.2656
vt 0.7188 0.0000
vt 0.9844 0.0000
vt 0.9844 0.0000
vt 0.9844 0.2656
vt 0.7188 0.2656
vt 0.7188 0.0000
vt 0.9844 0.0000
vt 0.9844 0.2656
vt 0.9844 0.2656
vt 0.7188 0.2656
vt 0.7188 0.0000
vt 0.7188 0.0000
vt 0.9844 0.0000
vt 0.9844 0.2656
vt 0.9844 0.2656
vt 0.7188 0.2656
vt 0.7188 0.0000
vt 0.7188 0.0000
vt 0.7188 0.2656
vt 0.9844 0.2656
vt 0.9844 0.2656
vt 0.9844 0.0000
vt 0.7188 0.0000
vt 0.9844 0.0000
vt 0.7188 0.0000
vt 0.7188 0.2656
vt 0.7188 0.2656
vt 0.9844 0.2656
vt 0.9844 0.0000
vt 0.7188 0.2656
vt 0.7188 0.0000
vt 0.9844 0.0000
vt 0.9844 0.0000
vt 0.9844 0.2656
vt 0.7188 0.2656
vt 0.7188 0.0000
vt 0.9844 0.0000
vt 0.9844 0.2656
vt 0.9844 0.2656
vt 0.7188 0.2656
vt 0.7188 0.0000
vt 0.7188 0.0000
vt 0.9844 0.0000
vt 0.9844 0.2656
vt 0.9844 0.2656
vt 0.7188 0.2656
vt 0.7188 0.0000
vt 0.7188 0.0000
vt 0.7188 0.2656
vt 0.9844 0.2656
vt 0.9844 0.2656
vt 0.9844 0.0000
vt 0.7188 0.0000
vt 0.9844 0.0000
vt 0.7188 0.0000
vt 0.7188 0.2656
vt 0.7188 0.2656
vt 0.9844 0.2656
vt 0.9844 0.0000
vt 0.7188 0.2656
vt 0.7188 0.0000
vt 0.9844 0.0000
vt 0.9844 0.0000
vt 0.9844 0.2656
vt 0.7188 0.2656
f 1/1 3/3 2/2
f 3/4 1/6 4/5
f 5/7 2/9 6/8
f 2/10 5/12 1/11
f 6/13 3/15 7/14
f 3/16 6/18 2/17
f 7/19 4/21 8/20
f 4/22 7/24 3/23
f 8/25 1/27 5/26
f 1/28 8/30 4/29
f 9/31 11/33 10/32
f 9/34 12/36 11/35
f 9/37 13/39 12/38
f 9/40 14/42 13/41
f 9/43 15/45 14/44
f 9/46 16/48 15/47
f 9/49 17/51 16/50
f 9/52 10/54 17/53
f 10/55 19/57 18/56
f 10/58 11/60 19/59
f 11/61 20/63 19/62
f 11/64 12/66 20/65
f 12/67 21/69 20/68
f 12/70 13/72 21/71
f 13/73 22/75 21/74
f 13/76 14/78 22/77
f 14/79 23/81 22/80
f 14/82 15/84 23/83
f 15/85 24/87 23/86
f 15/88 16/90 24/89
f 16/91 25/93 24/92
f 16/94 17/96 25/95
f 17/97 18/99 25/98
f 17/100 10/102 18/101
f 30/103 33/105 31/104
f 33/106 30/108 32/107
f 26/109 31/111 27/110
f 31/112 26/114 30/113
f 27/115 33/117 29/116
f 33/118 27/120 31/119
f 29/121 32/123 28/122
f 32/124 29/126 33/125
f 28/127 30/129 26/128
f 30/130 28/132 32/131
f 34/133 36/135 35/134
f 36/136 34/138 37/137
f 38/139 35/141 39/140
f 35/142 38/144 34/143
f 39/145 36/147 40/146
f 36/148 39/150 35/149
f 40/151 37/153 41/152
f 37/154 40/156 36/155
f 41/157 34/159 38/158
f 34/160 41/162 37/161
f 42/163 44/165 43/164
f 44/166 42/168 45/167
f 46/169 43/171 47/170
f 43/172 46/174 42/173
f 47/175 44/177 48/176
f 44/178 47/180 43/179
f 48/181 45/183 49/182
f 45/184 48/186 44/185
f 49/187 42/189 46/188
f 42/190 49/192 45/191
