g Object
v 1.5234 0.0000 1.5078
v -1.5078 0.0000 1.5078
v 1.5234 0.0000 -1.5234
v -1.5078 0.0000 -1.5234
v 1.5234 6.0664 1.5078
v -1.5078 6.0664 1.5078
v 1.5234 6.0664 -1.5234
v -1.5078 6.0664 -1.5234
v -1.5078 2.1914 1.5078
v 1.5234 2.1914 1.5078
v -1.5078 2.1914 -1.5234
v 1.5234 2.1914 -1.5234
v 1.5234 4.1406 1.5078
v -1.5078 4.1406 1.5078
v -1.5078 4.1406 -1.5234
v 1.5234 4.1406 -1.5234
vt 0.0000 0.5313
vt 0.0000 0.9844
vt 0.9844 0.9844
vt 0.9844 0.9844
vt 0.9844 0.5313
vt 0.0000 0.5313
vt 0.0000 0.9844
vt 0.0000 0.0000
vt 0.9844 0.0000
vt 0.9844 0.0000
vt 0.9844 0.9844
vt 0.0000 0.9844
vt 0.0000 0.9844
vt 0.0000 0.0000
vt 0.9844 0.0000
vt 0.9844 0.0000
vt 0.9844 0.9844
vt 0.0000 0.9844
vt 0.0000 0.9844
vt 0.0000 0.0000
vt 0.9844 0.0000
vt 0.9844 0.0000
vt 0.9844 0.9844
vt 0.0000 0.9844
vt 0.0000 0.9844
vt 0.0000 0.0000
vt 0.9844 0.0000
vt 0.9844 0.0000
vt 0.9844 0.9844
vt 0.0000 0.9844
vt 0.0000 0.9844
vt 0.0000 0.5156
vt 0.9844 0.5156
vt 0.9844 0.5156
vt 0.9844 0.9844
vt 0.0000 0.9844
vt 0.9844 0.9844
vt 0.9844 0.5156
vt 0.0000 0.5156
vt 0.0000 0.5156
vt 0.0000 0.9844
vt 0.9844 0.9844
vt 0.9844 0.9844
vt 0.9844 0.5156
vt 0.0000 0.5156
vt 0.0000 0.5156
vt 0.0000 0.9844
vt 0.9844 0.9844
vt 0.0000 0.9844
vt 0.0000 0.5156
vt 0.9844 0.5156
vt 0.9844 0.5156
vt 0.9844 0.9844
vt 0.0000 0.9844
vt 0.0000 0.5156
vt 0.9844 0.5156
vt 0.9844 0.9844
vt 0.9844 0.9844
vt 0.0000 0.9844
vt 0.0000 0.5156
vt 0.9844 0.5156
vt 0.0000 0.5156
vt 0.0000 0.9844
vt 0.0000 0.9844
vt 0.9844 0.9844
vt 0.9844 0.5156
vt 0.9844 0.5156
vt 0.0000 0.5156
vt 0.0000 0.9844
vt 0.0000 0.9844
vt 0.9844 0.9844
vt 0.9844 0.5156
vt 0.0000 0.5156
vt 0.9844 0.5156
vt 0.9844 0.9844
vt 0.9844 0.9844
vt 0.0000 0.9844
vt 0.0000 0.5156
f 1/1 4/3 3/2
f 4/4 1/6 2/5
f 10/7 2/9 1/8
f 2/10 10/12 9/11
f 9/13 4/15 2/14
f 4/16 9/18 11/17
f 11/19 3/21 4/20
f 3/22 11/24 12/23
f 12/25 1/27 3/26
f 1/28 12/30 10/29
f 5/31 14/33 13/32
f 14/34 5/36 6/35
f 6/37 15/39 14/38
f 15/40 6/42 8/41
f 8/43 16/45 15/44
f 16/46 8/48 7/47
f 7/49 13/51 16/50
f 13/52 7/54 5/53
f 10/55 14/57 9/56
f 14/58 10/60 13/59
f 9/61 15/63 11/62
f 15/64 9/66 14/65
f 11/67 16/69 12/68
f 16/70 11/72 15/71
f 12/73 13/75 10/74
f 13/76 12/78 16/77
