g Object
v 1.6641 -0.0742 0.9297
v 1.6641 0.0742 0.8398
v 1.6641 0.0742 1.0117
v -1.6523 -0.0742 0.9297
v -1.6523 0.0742 0.8398
v -1.6523 0.0742 1.0117
v -1.2656 -0.0742 0.9297
v -1.2656 0.0742 0.8398
v -1.2656 0.0742 1.0117
v -1.2656 -0.0742 -0.1055
v 1.6641 0.0742 -0.1953
v 0.1992 0.0000 -1.0195
v 0.1992 0.0000 0.8828
v -0.5313 -0.0352 -0.8242
v -0.5313 -0.0352 0.9063
v 0.9297 0.0352 0.8633
v 0.9297 0.0352 -0.8633
v 1.6641 0.0742 0.8398
v -1.2656 -0.0742 0.9297
v 0.1992 -0.0742 0.9297
v 0.1992 0.0742 0.8398
v 0.1992 0.0742 1.0117
v 1.6641 0.0742 0.8398
v 0.9297 0.0352 0.8633
v 0.9297 0.0352 -0.8633
v -0.5313 -0.0352 -0.8242
v -0.5313 -0.0352 0.9063
v -1.2656 -0.0742 0.9297
v -1.2656 -0.0742 -0.1055
v 0.1992 0.0000 -1.0195
v 0.1992 0.0000 0.8828
v 1.6641 0.0742 -0.1953
vt 0.4531 0.0781
vt 0.4531 0.1563
vt 0.5313 0.1094
vt 0.0000 0.2188
vt 0.0000 0.0000
vt 1.0000 0.0000
vt 1.0000 0.0000
vt 1.0000 0.2188
vt 0.0000 0.2188
vt 0.0000 0.2188
vt 0.0000 0.0000
vt 1.0000 0.0000
vt 1.0000 0.0000
vt 1.0000 0.2188
vt 0.0000 0.2188
vt 0.0000 0.2188
vt 0.0000 0.0000
vt 1.0000 0.0000
vt 1.0000 0.0000
vt 1.0000 0.2188
vt 0.0000 0.2188
vt 1.0000 0.0000
vt 1.0000 0.2188
vt 0.4844 0.2188
vt 0.4844 0.2188
vt 0.4844 0.0000
vt 1.0000 0.0000
vt 1.0000 0.0000
vt 1.0000 0.2188
vt 0.4844 0.2188
vt 0.4844 0.2188
vt 0.4844 0.0000
vt 1.0000 0.0000
vt 1.0000 0.0000
vt 1.0000 0.2188
vt 0.4844 0.2188
vt 0.4844 0.2188
vt 0.4844 0.0000
vt 1.0000 0.0000
vt 0.9844 1.0000
vt 0.7344 1.0000
vt 0.7344 0.2344
vt 0.2500 0.2344
vt 0.2500 1.0000
vt 0.0000 1.0000
vt 0.0000 1.0000
vt 0.0000 0.2344
vt 0.2500 0.2344
vt 0.4844 0.2344
vt 0.5000 1.0000
vt 0.2500 1.0000
vt 0.2500 1.0000
vt 0.2500 0.2344
vt 0.4844 0.2344
vt 0.7344 1.0000
vt 0.5000 1.0000
vt 0.4844 0.2344
vt 0.4844 0.2344
vt 0.7344 0.2344
vt 0.7344 1.0000
vt 0.9844 0.2344
vt 0.9844 1.0000
vt 0.7344 0.2344
vt 1.0000 0.0000
vt 1.0000 0.2188
vt 0.0000 0.2188
vt 0.0000 0.2188
vt 0.0000 0.0000
vt 1.0000 0.0000
vt 1.0000 0.0000
vt 1.0000 0.2188
vt 0.0000 0.2188
vt 0.0000 0.2188
vt 0.0000 0.0000
vt 1.0000 0.0000
vt 1.0000 0.0000
vt 1.0000 0.2188
vt 0.0000 0.2188
vt 0.0000 0.2188
vt 0.0000 0.0000
vt 1.0000 0.0000
vt 0.7344 1.0000
vt 0.9844 1.0000
vt 0.7344 0.2344
vt 0.2500 1.0000
vt 0.2500 0.2344
vt 0.0000 1.0000
vt 0.0000 0.2344
vt 0.0000 1.0000
vt 0.2500 0.2344
vt 0.5000 1.0000
vt 0.4844 0.2344
vt 0.2500 1.0000
vt 0.2500 0.2344
vt 0.2500 1.0000
vt 0.4844 0.2344
vt 0.5000 1.0000
vt 0.7344 1.0000
vt 0.4844 0.2344
vt 0.7344 0.2344
vt 0.4844 0.2344
vt 0.7344 1.0000
vt 0.9844 1.0000
vt 0.9844 0.2344
vt 0.7344 0.2344
f 3/1 1/3 18/2
f 20/4 8/6 21/5
f 8/7 20/9 19/8
f 21/10 9/12 22/11
f 9/13 21/15 8/14
f 22/16 19/18 20/17
f 19/19 22/21 9/20
f 5/22 19/24 4/23
f 19/25 5/27 8/26
f 6/28 8/30 5/29
f 8/31 6/33 9/32
f 4/34 9/36 6/35
f 9/37 4/39 19/38
f 2/40 17/42 16/41
f 14/43 7/45 15/44
f 7/46 14/48 10/47
f 12/49 15/51 13/50
f 15/52 12/54 14/53
f 16/55 12/57 13/56
f 12/58 16/60 17/59
f 11/61 17/63 2/62
f 1/64 21/66 18/65
f 21/67 1/69 20/68
f 18/70 22/72 3/71
f 22/73 18/75 21/74
f 3/76 20/78 1/77
f 20/79 3/81 22/80
f 24/82 25/84 23/83
f 27/85 28/87 26/86
f 29/88 26/90 28/89
f 31/91 27/93 30/92
f 26/94 30/96 27/95
f 31/97 30/99 24/98
f 25/100 24/102 30/101
f 23/103 25/105 32/104
