g Object
v 0.6094 0.0000 0.2227
v -0.6055 0.0000 0.2227
v 0.6094 0.0000 -0.2266
v -0.6055 0.0000 -0.2266
v 0.6094 1.3320 0.2227
v -0.6055 1.3320 0.2227
v 0.6094 1.3320 -0.2266
v -0.6055 1.3320 -0.2266
v -0.4883 0.2656 0.2227
v 0.4922 0.2656 0.2227
v 0.4922 1.0586 0.2227
v -0.4883 1.0586 0.2227
v 0.4922 0.2656 -0.1133
v -0.4883 0.2656 -0.1133
v 0.4922 1.0586 -0.1133
v -0.4883 1.0586 -0.1133
vt 0.6719 0.9844
vt 0.9844 0.9844
vt 0.9844 0.0000
vt 0.9844 0.0000
vt 0.6719 0.0000
vt 0.6719 0.9844
vt 0.6719 0.9844
vt 0.6719 0.0000
vt 0.9844 0.0000
vt 0.9844 0.0000
vt 0.9844 0.9844
vt 0.6719 0.9844
vt 0.6719 0.9844
vt 0.9844 0.9844
vt 0.9844 0.0000
vt 0.9844 0.0000
vt 0.6719 0.0000
vt 0.6719 0.9844
vt 0.9844 0.9844
vt 0.6719 0.9844
vt 0.6719 0.0000
vt 0.6719 0.0000
vt 0.9844 0.0000
vt 0.9844 0.9844
vt 0.6406 0.9844
vt 0.5469 0.7813
vt 0.5469 0.1875
vt 0.6406 0.0000
vt 0.6406 0.9844
vt 0.5469 0.1875
vt 0.0000 0.0000
vt 0.6406 0.0000
vt 0.5469 0.1875
vt 0.0000 0.0000
vt 0.5469 0.1875
vt 0.0938 0.1875
vt 0.0000 0.9844
vt 0.0000 0.0000
vt 0.0938 0.1875
vt 0.0000 0.9844
vt 0.0938 0.1875
vt 0.0938 0.7813
vt 0.6406 0.9844
vt 0.0000 0.9844
vt 0.0938 0.7813
vt 0.5469 0.7813
vt 0.6406 0.9844
vt 0.0938 0.7813
vt 0.6563 0.9844
vt 0.0000 0.9844
vt 0.0000 0.0000
vt 0.0000 0.0000
vt 0.6563 0.0000
vt 0.6563 0.9844
vt 0.5469 0.1875
vt 0.5469 0.7813
vt 0.0938 0.7813
vt 0.0938 0.7813
vt 0.0938 0.1875
vt 0.5469 0.1875
vt 0.6563 0.9844
vt 0.6563 0.0000
vt 0.0000 0.0000
vt 0.0000 0.0000
vt 0.0000 0.9844
vt 0.6563 0.9844
vt 0.0000 0.9844
vt 0.0000 0.0000
vt 0.6563 0.0000
vt 0.6563 0.0000
vt 0.6563 0.9844
vt 0.0000 0.9844
vt 0.6563 0.9844
vt 0.6563 0.0000
vt 0.0000 0.0000
vt 0.0000 0.0000
vt 0.0000 0.9844
vt 0.6563 0.9844
f 1/1 4/3 3/2
f 4/4 1/6 2/5
f 5/7 8/9 6/8
f 8/10 5/12 7/11
f 2/13 8/15 4/14
f 8/16 2/18 6/17
f 3/19 5/21 1/20
f 5/22 3/24 7/23
f 6/25 9/27 12/26
f 2/28 9/30 6/29
f 1/31 9/33 2/32
f 1/34 10/36 9/35
f 5/37 10/39 1/38
f 5/40 11/42 10/41
f 6/43 11/45 5/44
f 12/46 11/48 6/47
f 16/49 9/51 14/50
f 9/52 16/54 12/53
f 14/55 15/57 16/56
f 15/58 14/60 13/59
f 15/61 10/63 11/62
f 10/64 15/66 13/65
f 13/67 9/69 10/68
f 9/70 13/72 14/71
f 16/73 11/75 12/74
f 11/76 16/78 15/77
