g Object
v 0.0039 1.4453 -0.5313
v 0.3789 1.4453 -0.3789
v 0.5313 1.4453 -0.0039
v 0.3789 1.4453 0.3750
v 0.0039 1.4453 0.5273
v -0.3750 1.4453 0.3750
v -0.5273 1.4453 -0.0039
v -0.3750 1.4453 -0.3789
v 0.0039 1.8242 -0.3789
v 0.2656 1.8242 -0.2656
v 0.3789 1.8242 -0.0039
v 0.2656 1.8242 0.2617
v 0.0039 1.8242 0.3750
v -0.2617 1.8242 0.2617
v -0.3750 1.8242 -0.0039
v -0.2617 1.8242 -0.2656
v 0.0039 1.9766 -0.0039
v 0.0039 1.4453 -0.5313
v 0.3789 1.4453 -0.3789
v 0.5313 1.4453 0.0000
v 0.3789 1.4453 0.3750
v 0.0000 1.4453 0.5273
v -0.3750 1.4453 0.3750
v -0.5273 1.4453 -0.0039
v -0.3750 1.4453 -0.3789
v 0.0039 1.0703 -0.3789
v 0.2656 1.0703 -0.2656
v 0.3789 1.0703 0.0000
v 0.2656 1.0703 0.2617
v 0.0000 1.0703 0.3750
v -0.2617 1.0703 0.2617
v -0.3750 1.0703 -0.0039
v -0.2617 1.0703 -0.2656
v 0.0039 0.9102 0.0000
v 0.5078 0.0000 0.5039
v -0.5039 0.0000 0.5039
v 0.5078 0.0000 -0.5078
v -0.5039 0.0000 -0.5078
v 0.5078 1.0078 0.5039
v -0.5039 1.0078 0.5039
v 0.5078 1.0078 -0.5078
v -0.5039 1.0078 -0.5078
vt 0.8438 0.2969
vt 0.8438 0.5000
vt 0.9063 0.2969
vt 0.9063 0.2969
vt 0.8438 0.5000
vt 0.9375 0.5000
vt 0.9063 0.2969
vt 0.9375 0.5000
vt 0.9375 0.2969
vt 0.9375 0.2969
vt 0.9375 0.5000
vt 0.9844 0.5000
vt 0.7500 0.2969
vt 0.7188 0.5000
vt 0.7813 0.2969
vt 0.7813 0.2969
vt 0.7188 0.5000
vt 0.7500 0.5000
vt 0.7813 0.2969
vt 0.7500 0.5000
vt 0.8438 0.2969
vt 0.8438 0.2969
vt 0.7500 0.5000
vt 0.8438 0.5000
vt 0.8438 0.2969
vt 0.8438 0.5000
vt 0.9063 0.2969
vt 0.9063 0.2969
vt 0.8438 0.5000
vt 0.9219 0.5000
vt 0.9063 0.2969
vt 0.9219 0.5000
vt 0.9375 0.2969
vt 0.9375 0.2969
vt 0.9219 0.5000
vt 0.9688 0.5000
vt 0.7500 0.2969
vt 0.7031 0.5000
vt 0.7656 0.2969
vt 0.7656 0.2969
vt 0.7031 0.5000
vt 0.7500 0.5000
vt 0.7656 0.2969
vt 0.7500 0.5000
vt 0.8438 0.2969
vt 0.8438 0.2969
vt 0.7500 0.5000
vt 0.8438 0.5000
vt 0.9063 0.2969
vt 0.8438 0.0156
vt 0.8438 0.2969
vt 0.9375 0.2969
vt 0.8438 0.0156
vt 0.9063 0.2969
vt 0.7813 0.2969
vt 0.8438 0.0000
vt 0.7500 0.2969
vt 0.8438 0.2969
vt 0.8438 0.0000
vt 0.7813 0.2969
vt 0.9063 0.2969
vt 0.8438 0.0000
vt 0.8438 0.2969
vt 0.9375 0.2969
vt 0.8438 0.0000
vt 0.9063 0.2969
vt 0.7656 0.2969
vt 0.8438 0.0156
vt 0.7500 0.2969
vt 0.8438 0.2969
vt 0.8438 0.0156
vt 0.7656 0.2969
vt 0.8438 0.5000
vt 0.8438 0.2969
vt 0.9063 0.2969
vt 0.8438 0.5000
vt 0.9063 0.2969
vt 0.9375 0.5000
vt 0.9375 0.5000
vt 0.9063 0.2969
vt 0.9375 0.2969
vt 0.9375 0.5000
vt 0.9375 0.2969
vt 0.9844 0.5000
vt 0.7188 0.5000
vt 0.7500 0.2969
vt 0.7813 0.2969
vt 0.7188 0.5000
vt 0.7813 0.2969
vt 0.7500 0.5000
vt 0.7500 0.5000
vt 0.7813 0.2969
vt 0.8438 0.2969
vt 0.7500 0.5000
vt 0.8438 0.2969
vt 0.8438 0.5000
vt 0.8438 0.5000
vt 0.8438 0.2969
vt 0.9063 0.2969
vt 0.8438 0.5000
vt 0.9063 0.2969
vt 0.9219 0.5000
vt 0.9219 0.5000
vt 0.9063 0.2969
vt 0.9375 0.2969
vt 0.9219 0.5000
vt 0.9375 0.2969
vt 0.9688 0.5000
vt 0.7031 0.5000
vt 0.7500 0.2969
vt 0.7656 0.2969
vt 0.7031 0.5000
vt 0.7656 0.2969
vt 0.7500 0.5000
vt 0.7500 0.5000
vt 0.7656 0.2969
vt 0.8438 0.2969
vt 0.7500 0.5000
vt 0.8438 0.2969
vt 0.8438 0.5000
vt 0.8438 0.0156
vt 0.9063 0.2969
vt 0.8438 0.2969
vt 0.8438 0.0156
vt 0.9375 0.2969
vt 0.9063 0.2969
vt 0.8438 0.0000
vt 0.7813 0.2969
vt 0.7500 0.2969
vt 0.8438 0.0000
vt 0.8438 0.2969
vt 0.7813 0.2969
vt 0.8438 0.0000
vt 0.9063 0.2969
vt 0.8438 0.2969
vt 0.8438 0.0000
vt 0.9375 0.2969
vt 0.9063 0.2969
vt 0.8438 0.0156
vt 0.7656 0.2969
vt 0.7500 0.2969
vt 0.8438 0.0156
vt 0.8438 0.2969
vt 0.7656 0.2969
vt 0.5938 0.7656
vt 0.6563 0.7656
vt 0.6563 0.8125
vt 0.6563 0.8125
vt 0.5938 0.8125
vt 0.5938 0.7656
vt 0.0000 0.0000
vt 0.6719 0.0000
vt 0.6719 1.0000
vt 0.6719 1.0000
vt 0.0000 1.0000
vt 0.0000 0.0000
vt 0.0000 0.0000
vt 0.6719 0.0000
vt 0.6719 1.0000
vt 0.6719 1.0000
vt 0.0000 1.0000
vt 0.0000 0.0000
vt 0.0000 0.0000
vt 0.6719 0.0000
vt 0.6719 1.0000
vt 0.6719 1.0000
vt 0.0000 1.0000
vt 0.0000 0.0000
vt 0.0000 0.0000
vt 0.6719 0.0000
vt 0.6719 1.0000
vt 0.6719 1.0000
vt 0.0000 1.0000
vt 0.0000 0.0000
f 9/1 10/3 1/2
f 10/4 2/6 1/5
f 10/7 11/9 2/8
f 11/10 3/12 2/11
f 11/13 12/15 3/14
f 12/16 4/18 3/17
f 12/19 13/21 4/20
f 13/22 5/24 4/23
f 13/25 14/27 5/26
f 14/28 6/30 5/29
f 14/31 15/33 6/32
f 15/34 7/36 6/35
f 15/37 16/39 7/38
f 16/40 8/42 7/41
f 16/43 9/45 8/44
f 9/46 1/48 8/47
f 10/49 9/51 17/50
f 11/52 10/54 17/53
f 12/55 11/57 17/56
f 13/58 12/60 17/59
f 14/61 13/63 17/62
f 15/64 14/66 17/65
f 16/67 15/69 17/68
f 9/70 16/72 17/71
f 18/73 27/75 26/74
f 18/76 19/78 27/77
f 19/79 28/81 27/80
f 19/82 20/84 28/83
f 20/85 29/87 28/86
f 20/88 21/90 29/89
f 21/91 30/93 29/92
f 21/94 22/96 30/95
f 22/97 31/99 30/98
f 22/100 23/102 31/101
f 23/103 32/105 31/104
f 23/106 24/108 32/107
f 24/109 33/111 32/110
f 24/112 25/114 33/113
f 25/115 26/117 33/116
f 25/118 18/120 26/119
f 34/121 26/123 27/122
f 34/124 27/126 28/125
f 34/127 28/129 29/128
f 34/130 29/132 30/131
f 34/133 30/135 31/134
f 34/136 31/138 32/137
f 34/139 32/141 33/140
f 34/142 33/144 26/143
f 39/145 42/147 40/146
f 42/148 39/150 41/149
f 35/151 40/153 36/152
f 40/154 35/156 39/155
f 36/157 42/159 38/158
f 42/160 36/162 40/161
f 38/163 41/165 37/164
f 41/166 38/168 42/167
f 37/169 39/171 35/170
f 39/172 37/174 41/173
