g Object
v 1.0156 0.5195 0.5000
v -1.0039 0.5195 0.5000
v 1.0156 1.0234 0.5000
v -1.0039 1.0234 0.5000
v 1.0156 1.5313 0.5000
v -1.0039 1.5313 0.5000
v 1.0156 0.5195 0.6445
v -1.0039 0.5195 0.6445
v 1.0156 1.0234 0.7578
v -1.0039 1.0234 0.7578
v 1.0156 1.5313 0.6445
v -1.0039 1.5313 0.6445
v 1.0156 -0.5000 0.5000
v -1.0039 -0.5000 0.5000
v 1.0156 -0.5000 -0.5078
v -1.0039 -0.5000 -0.5078
v 1.0156 0.5117 0.5000
v -1.0039 0.5117 0.5000
v 1.0156 0.5117 -0.5078
v -1.0039 0.5117 -0.5078
vt 0.0000 0.0000
vt 0.0000 0.2031
vt 0.5000 0.2031
vt 0.5000 0.2031
vt 0.5000 0.0000
vt 0.0000 0.0000
vt 0.0000 0.2031
vt 0.0000 0.4063
vt 0.5000 0.4063
vt 0.5000 0.4063
vt 0.5000 0.2031
vt 0.0000 0.2031
vt 0.0000 0.4063
vt 0.5000 0.4063
vt 0.5000 0.1875
vt 0.5000 0.1875
vt 0.0000 0.1875
vt 0.0000 0.4063
vt 0.0000 0.2031
vt 0.5000 0.2031
vt 0.5000 0.4063
vt 0.5000 0.4063
vt 0.0000 0.4063
vt 0.0000 0.2031
vt 0.0000 0.2969
vt 0.4844 0.2969
vt 0.4844 0.3906
vt 0.4844 0.3906
vt 0.0000 0.3906
vt 0.0000 0.2969
vt 0.3750 0.3906
vt 0.2500 0.3906
vt 0.2500 0.1250
vt 0.2500 0.1250
vt 0.3750 0.2500
vt 0.3750 0.3906
vt 0.2500 0.3906
vt 0.1094 0.3906
vt 0.1094 0.2500
vt 0.1094 0.2500
vt 0.2500 0.1250
vt 0.2500 0.3906
vt 0.4844 0.2969
vt 0.0000 0.2969
vt 0.0000 0.3906
vt 0.0000 0.3906
vt 0.4844 0.3906
vt 0.4844 0.2969
vt 0.1094 0.3906
vt 0.2500 0.3906
vt 0.2500 0.1250
vt 0.2500 0.1250
vt 0.1094 0.2500
vt 0.1094 0.3906
vt 0.2500 0.3906
vt 0.3750 0.3906
vt 0.3750 0.2500
vt 0.3750 0.2500
vt 0.2500 0.1250
vt 0.2500 0.3906
vt 0.5000 0.0000
vt 0.5000 0.0938
vt 0.0000 0.0938
vt 0.0000 0.0938
vt 0.0000 0.0000
vt 0.5000 0.0000
vt 0.0000 0.4063
vt 0.4844 0.4063
vt 0.4844 0.4844
vt 0.4844 0.4844
vt 0.0000 0.4844
vt 0.0000 0.4063
vt 0.0000 0.0000
vt 0.5000 0.0000
vt 0.5000 0.3906
vt 0.5000 0.3906
vt 0.0000 0.3906
vt 0.0000 0.0000
vt 0.1094 0.0000
vt 0.3750 0.0000
vt 0.3750 0.3906
vt 0.3750 0.3906
vt 0.1094 0.3906
vt 0.1094 0.0000
vt 0.0000 0.0000
vt 0.5000 0.0000
vt 0.5000 0.3906
vt 0.5000 0.3906
vt 0.0000 0.3906
vt 0.0000 0.0000
vt 0.1094 0.0000
vt 0.3750 0.0000
vt 0.3750 0.3906
vt 0.3750 0.3906
vt 0.1094 0.3906
vt 0.1094 0.0000
f 1/1 4/3 3/2
f 4/4 1/6 2/5
f 3/7 6/9 5/8
f 6/10 3/12 4/11
f 7/13 10/15 8/14
f 10/16 7/18 9/17
f 9/19 12/21 10/20
f 12/22 9/24 11/23
f 1/25 8/27 2/26
f 8/28 1/30 7/29
f 2/31 10/33 4/32
f 10/34 2/36 8/35
f 4/37 12/39 6/38
f 12/40 4/42 10/41
f 6/43 11/45 5/44
f 11/46 6/48 12/47
f 5/49 9/51 3/50
f 9/52 5/54 11/53
f 3/55 7/57 1/56
f 7/58 3/60 9/59
f 13/61 16/63 15/62
f 16/64 13/66 14/65
f 17/67 20/69 18/68
f 20/70 17/72 19/71
f 13/73 18/75 14/74
f 18/76 13/78 17/77
f 14/79 20/81 16/80
f 20/82 14/84 18/83
f 16/85 19/87 15/86
f 19/88 16/90 20/89
f 15/91 17/93 13/92
f 17/94 15/96 19/95
