g Object
v 0.0078 0.0000 0.5469
v 0.0508 -0.0195 0.6094
v 0.0039 0.0508 0.6094
v -0.0313 -0.0273 0.6094
v 0.0078 -0.0078 0.4375
v 0.0156 0.0039 0.4375
v 0.0000 0.0039 0.4375
v 0.0078 0.0000 -0.8828
v 0.0078 0.0000 -0.8828
v 0.0078 0.0000 -0.8828
v 0.0078 0.0000 -0.8828
vt 0.3750 0.3750
vt 0.3750 0.0000
vt 0.7500 0.8750
vt 0.3750 0.3750
vt 0.3750 0.0000
vt 0.3750 0.0000
vt 0.3750 0.3750
vt 0.7500 0.8750
vt 0.3750 0.0000
vt 0.1250 0.0000
vt 0.0000 0.8750
vt 0.0000 0.8750
vt 0.1250 0.0000
vt 0.0000 0.0000
vt 0.0000 0.8750
vt 0.0000 0.0000
vt 0.0000 0.8750
vt 0.0000 0.8750
vt 0.0000 0.0000
vt 0.0000 0.0000
vt 0.0000 0.8750
vt 0.0000 0.0000
vt 0.0000 0.8750
vt 0.0000 0.8750
vt 0.0000 0.0000
vt 0.1250 0.0000
vt 0.0000 0.8750
vt 0.0000 0.8750
vt 0.0000 0.8750
vt 0.0000 0.8750
vt 0.0000 0.8750
vt 0.0000 0.8750
vt 0.0000 0.8750
vt 0.0000 0.8750
vt 0.0000 0.8750
vt 0.0000 0.8750
vt 0.3750 0.0000
vt 0.3750 0.3750
vt 0.7500 0.8750
vt 0.3750 0.0000
vt 0.7500 0.8750
vt 0.3750 0.3750
vt 0.3750 0.0000
vt 0.3750 0.3750
vt 0.7500 0.8750
vt 0.3750 0.0000
vt 0.7500 0.8750
vt 0.3750 0.3750
vt 0.7500 0.8750
vt 0.3750 0.3750
vt 0.7500 0.8750
vt 0.7500 0.8750
vt 0.7500 0.8750
vt 0.3750 0.3750
vt 0.7500 0.8750
vt 0.7500 0.8750
vt 0.3750 0.3750
f 2/1 5/3 6/2
f 3/4 6/6 7/5
f 4/7 7/9 5/8
f 5/10 8/12 9/11
f 5/13 9/15 6/14
f 6/16 9/18 10/17
f 6/19 10/21 7/20
f 7/22 10/24 8/23
f 7/25 8/27 5/26
f 11/28 9/30 8/29
f 11/31 10/33 9/32
f 11/34 8/36 10/35
f 7/37 1/39 3/38
f 7/40 4/42 1/41
f 6/43 1/45 2/44
f 6/46 3/48 1/47
f 5/49 1/51 4/50
f 5/52 3/54 1/53
f 5/55 2/57 1/56
