g Object
v -1.6250 0.0391 0.0430
v -1.0117 0.0391 -1.2461
v 0.3828 0.0391 -1.5547
v 1.5039 0.0391 -0.6641
v 1.5039 0.0391 0.7656
v 0.3828 0.0391 1.6563
v -1.0117 0.0391 1.3477
v -1.4492 0.2070 0.0430
v -0.8984 0.2070 -1.0898
v 0.3438 0.2070 -1.3750
v 1.3398 0.2070 -0.5859
v 1.3398 0.2070 0.6875
v 0.3438 0.2070 1.4766
v -0.8984 0.2070 1.1914
v 0.0195 0.2070 0.0430
vt 0.9844 0.4844
vt 0.7500 0.8438
vt 0.9375 0.4844
vt 0.9844 0.4844
vt 0.7969 0.8906
vt 0.7500 0.8438
vt 0.7969 0.8906
vt 0.3594 0.9375
vt 0.7500 0.8438
vt 0.7969 0.8906
vt 0.3438 0.9844
vt 0.3594 0.9375
vt 0.3438 0.9844
vt 0.0469 0.6875
vt 0.3594 0.9375
vt 0.3438 0.9844
vt 0.0000 0.7188
vt 0.0469 0.6875
vt 0.0000 0.7188
vt 0.0469 0.2969
vt 0.0469 0.6875
vt 0.0000 0.7188
vt 0.0000 0.2656
vt 0.0469 0.2969
vt 0.0000 0.2656
vt 0.3594 0.0469
vt 0.0469 0.2969
vt 0.0000 0.2656
vt 0.3438 0.0000
vt 0.3594 0.0469
vt 0.3438 0.0000
vt 0.7500 0.1406
vt 0.3594 0.0469
vt 0.3438 0.0000
vt 0.7969 0.0938
vt 0.7500 0.1406
vt 0.7969 0.0938
vt 0.9375 0.4844
vt 0.7500 0.1406
vt 0.7969 0.0938
vt 0.9844 0.4844
vt 0.9375 0.4844
vt 0.4688 0.4844
vt 0.9375 0.4844
vt 0.7500 0.8438
vt 0.4688 0.4844
vt 0.7500 0.8438
vt 0.3594 0.9375
vt 0.4688 0.4844
vt 0.3594 0.9375
vt 0.0469 0.6875
vt 0.4688 0.4844
vt 0.0469 0.6875
vt 0.0469 0.2969
vt 0.4688 0.4844
vt 0.0469 0.2969
vt 0.3594 0.0469
vt 0.4688 0.4844
vt 0.3594 0.0469
vt 0.7500 0.1406
vt 0.4688 0.4844
vt 0.7500 0.1406
vt 0.9375 0.4844
f 1/1 8/3 9/2
f 1/4 9/6 2/5
f 2/7 9/9 10/8
f 2/10 10/12 3/11
f 3/13 10/15 11/14
f 3/16 11/18 4/17
f 4/19 11/21 12/20
f 4/22 12/24 5/23
f 5/25 12/27 13/26
f 5/28 13/30 6/29
f 6/31 13/33 14/32
f 6/34 14/36 7/35
f 7/37 14/39 8/38
f 7/40 8/42 1/41
f 15/43 9/45 8/44
f 15/46 10/48 9/47
f 15/49 11/51 10/50
f 15/52 12/54 11/53
f 15/55 13/57 12/56
f 15/58 14/60 13/59
f 15/61 8/63 14/62
