g Object
v -1.3828 0.0234 -0.5898
v 1.3945 0.0234 -0.8438
v -1.3086 0.1211 -0.4648
v 1.2578 0.1211 -0.7305
v -1.3086 0.1211 0.4648
v 1.2578 0.1211 0.7266
v -1.3828 0.0234 0.5781
v 1.3945 0.0234 0.8398
v 0.0117 0.0234 -0.9688
v 0.0117 0.1211 -0.8281
v 0.0117 0.1211 0.7891
v 0.0117 0.0234 0.9414
v -0.5117 0.0234 -0.9805
v -0.6211 0.1211 -0.8281
v -0.6211 0.1211 0.8047
v -0.5117 0.0234 0.9414
v 0.4609 0.0234 -1.1055
v 0.6328 0.1211 -0.9805
v 0.6328 0.1211 0.9648
v 0.4609 0.0234 1.0781
v -1.5977 0.0234 0.0000
v 1.5820 0.0234 0.0000
v 1.4453 0.1211 0.0000
v 0.6328 0.1211 0.0000
v -0.6211 0.1211 0.0000
v 1.1445 -0.0039 -1.5234
v 1.4844 -0.0156 -1.5859
v 1.0977 0.0234 1.4844
v 1.4961 0.0156 1.6211
v -1.3984 0.0234 -1.2969
v -1.1484 0.0234 -1.2695
v -1.4102 0.0234 1.2813
v -1.1094 0.0234 1.2578
v -1.3086 0.1211 0.0000
vt 0.5469 0.8438
vt 0.5469 0.8125
vt 0.7188 0.9063
vt 0.7344 0.8750
vt 0.7031 0.1563
vt 0.7656 0.6875
vt 0.7969 0.6406
vt 0.7656 0.5156
vt 0.6719 0.1719
vt 0.7969 0.5156
vt 0.5469 0.0469
vt 0.7500 0.3594
vt 0.7656 0.6875
vt 0.7656 0.5156
vt 0.7813 0.3750
vt 0.7031 0.1563
vt 0.7969 0.6406
vt 0.7969 0.5156
vt 0.5469 0.0469
vt 0.6719 0.1719
vt 0.5469 0.6875
vt 0.5469 0.3594
vt 0.5469 0.8438
vt 0.7188 0.9063
vt 0.5469 0.8125
vt 0.7500 0.3594
vt 0.7813 0.3750
vt 0.9219 0.8906
vt 0.8750 0.8125
vt 0.8281 0.2656
vt 0.8281 0.2031
vt 0.7344 0.8750
vt 0.5469 0.1250
vt 0.5469 0.6875
vt 0.5469 0.3594
vt 0.8750 0.8125
vt 0.9219 0.8906
vt 0.8281 0.2656
vt 0.8281 0.2031
vt 0.5469 0.1250
f 2/3 23/2 22/1
f 4/4 23/2 2/3
f 21/11 3/9 1/5
f 17/17 10/14 18/13
f 10/14 17/17 9/18
f 10/14 24/21 18/13
f 24/21 10/14 25/22
f 11/8 20/7 19/6
f 20/7 11/8 12/10
f 10/14 13/27 14/26
f 10/14 9/18 13/27
f 14/26 25/22 10/14
f 16/15 11/8 15/12
f 12/10 11/8 16/15
f 4/4 24/21 23/2
f 4/4 18/13 24/21
f 5/20 21/19 7/16
f 23/25 8/24 22/23
f 6/32 8/24 23/25
f 24/34 6/32 23/25
f 6/32 24/34 19/6
f 24/34 11/8 19/6
f 24/34 25/35 11/8
f 25/35 15/12 11/8
f 5/20 15/12 25/35
f 27/28 4/4 2/3
f 4/4 26/29 18/13
f 27/28 26/29 4/4
f 26/29 17/17 18/13
f 28/36 19/6 20/7
f 28/36 6/32 19/6
f 28/36 29/37 6/32
f 29/37 8/24 6/32
f 31/30 14/26 13/27
f 31/30 3/9 14/26
f 31/30 30/31 3/9
f 30/31 1/5 3/9
f 5/20 33/38 15/12
f 32/39 33/38 5/20
f 33/38 16/15 15/12
f 32/39 5/20 7/16
f 25/22 3/9 34/33
f 3/9 25/22 14/26
f 34/33 3/9 21/11
f 25/35 34/40 5/20
f 5/20 34/40 21/19
