g Object
v -1.3828 0.0234 -0.5859
v 1.3945 0.0234 -0.8359
v -1.3086 0.1211 -0.4570
v 1.2578 0.1211 -0.7227
v -1.3086 0.1211 0.4688
v 1.2578 0.1211 0.7344
v -1.3828 0.0234 0.5820
v 1.3945 0.0234 0.8477
v 0.0117 0.0234 -0.9609
v 0.0117 0.1211 -0.8242
v 0.0117 0.1211 0.7969
v 0.0117 0.0234 0.9492
v -0.5117 0.0234 -0.9766
v -0.6211 0.1211 -0.8242
v -0.6211 0.1211 0.8086
v -0.5117 0.0234 0.9492
v 0.4609 0.0234 -1.1016
v 0.6328 0.1211 -0.9766
v 0.6328 0.1211 0.9727
v 0.4609 0.0234 1.0859
v -1.5977 0.0234 0.0039
v 1.5820 0.0234 0.0039
v 1.4453 0.1211 0.0039
v 0.6328 0.1211 0.0039
v -0.6211 0.1211 0.0039
v 1.1445 -0.0039 -1.5156
v 1.4844 -0.0156 -1.5781
v 1.0977 0.0234 1.4883
v 1.4961 0.0156 1.6289
v -1.3984 0.0234 -1.2891
v -1.1484 0.0234 -1.2656
v -1.4102 0.0234 1.2891
v -1.1094 0.0234 1.2617
v -1.3086 0.1211 0.0039
vt 0.4688 0.9375
vt 0.4688 0.8906
vt 0.2656 0.9375
vt 0.2813 0.8906
vt 0.3281 0.1406
vt 0.2344 0.6406
vt 0.2188 0.6406
vt 0.2344 0.5156
vt 0.3594 0.1563
vt 0.2031 0.5156
vt 0.4844 0.0469
vt 0.2500 0.3594
vt 0.2344 0.6406
vt 0.2344 0.5156
vt 0.2188 0.3750
vt 0.3281 0.1406
vt 0.2188 0.6406
vt 0.2031 0.5156
vt 0.4844 0.0469
vt 0.3594 0.1563
vt 0.4844 0.6875
vt 0.4844 0.3594
vt 0.4688 0.9375
vt 0.2656 0.9375
vt 0.4688 0.8906
vt 0.2500 0.3594
vt 0.2188 0.3750
vt 0.1406 0.9375
vt 0.2188 0.8125
vt 0.1875 0.2500
vt 0.1875 0.1875
vt 0.2813 0.8906
vt 0.4844 0.1250
vt 0.4844 0.6875
vt 0.4844 0.3594
vt 0.2188 0.8125
vt 0.1406 0.9375
vt 0.1875 0.2500
vt 0.1875 0.1875
vt 0.4844 0.1250
f 2/3 23/2 22/1
f 4/4 23/2 2/3
f 21/11 3/9 1/5
f 17/17 10/14 18/13
f 10/14 17/17 9/18
f 10/14 24/21 18/13
f 24/21 10/14 25/22
f 11/8 20/7 19/6
f 20/7 11/8 12/10
f 10/14 13/27 14/26
f 10/14 9/18 13/27
f 14/26 25/22 10/14
f 16/15 11/8 15/12
f 12/10 11/8 16/15
f 4/4 24/21 23/2
f 4/4 18/13 24/21
f 5/20 21/19 7/16
f 23/25 8/24 22/23
f 6/32 8/24 23/25
f 24/34 6/32 23/25
f 6/32 24/34 19/6
f 24/34 11/8 19/6
f 24/34 25/35 11/8
f 25/35 15/12 11/8
f 5/20 15/12 25/35
f 27/28 4/4 2/3
f 4/4 26/29 18/13
f 27/28 26/29 4/4
f 26/29 17/17 18/13
f 28/36 19/6 20/7
f 28/36 6/32 19/6
f 28/36 29/37 6/32
f 29/37 8/24 6/32
f 31/30 14/26 13/27
f 31/30 3/9 14/26
f 31/30 30/31 3/9
f 30/31 1/5 3/9
f 5/20 33/38 15/12
f 32/39 33/38 5/20
f 33/38 16/15 15/12
f 32/39 5/20 7/16
f 25/22 3/9 34/33
f 3/9 25/22 14/26
f 34/33 3/9 21/11
f 25/35 34/40 5/20
f 5/20 34/40 21/19
