g Object
v -0.3359 0.0000 0.3125
v -0.5859 0.0000 0.3359
v -0.6875 0.0000 0.1094
v -0.5000 0.0000 -0.0547
v -0.2813 0.0000 0.0664
v -0.3516 0.8516 0.2891
v -0.5625 0.8203 0.3047
v -0.6484 0.8203 0.1133
v -0.4883 0.8516 -0.0234
v -0.2578 0.8945 0.0547
v -0.4375 0.2852 0.1328
v -0.3008 0.5859 0.3594
v -0.2344 0.5859 0.0430
v -0.5117 0.5859 -0.1133
v -0.7500 0.5859 0.0977
v -0.6172 0.5859 0.3945
v -0.2969 0.7188 0.0742
v -0.5625 0.2617 0.1953
v -0.7734 0.6445 0.2891
v -0.7461 0.5898 0.2266
v -0.7188 0.5977 0.3086
v -0.7891 0.4336 0.2930
v -0.7188 0.4805 0.3125
v -0.7578 0.4805 0.2305
v -0.5781 0.6328 0.2031
v 0.1797 0.0000 -0.3281
v 0.0352 0.0000 -0.2695
v -0.0664 0.0000 -0.3828
v 0.0078 0.0000 -0.5195
v 0.1641 0.0000 -0.4844
v 0.1797 0.3672 -0.3281
v 0.0352 0.3672 -0.2656
v -0.0664 0.3672 -0.3828
v 0.0078 0.3672 -0.5195
v 0.1641 0.3672 -0.4883
v 0.1328 0.0859 -0.4570
v -0.0625 0.3594 -0.2852
v -0.0469 0.3203 -0.3203
v -0.0234 0.3203 -0.2930
v -0.0625 0.1445 -0.2852
v -0.0234 0.1797 -0.2930
v -0.0469 0.1797 -0.3203
v 0.1367 0.3594 -0.4609
v 0.4805 0.0000 0.1055
v 0.3516 0.0000 0.0625
v 0.3516 0.0000 -0.0664
v 0.4805 0.0000 -0.1055
v 0.5586 0.0000 0.0000
v 0.4648 0.9453 -0.0313
v 0.4648 0.9453 0.0313
v 0.4844 0.9453 0.0000
v 0.4258 0.9453 -0.0195
v 0.4258 0.9453 0.0156
v 0.4844 0.5547 0.1211
v 0.5703 0.5547 0.0000
v 0.4844 0.5547 -0.1250
v 0.3398 0.5547 -0.0781
v 0.3398 0.5547 0.0742
v 0.4648 0.6641 0.0313
v 0.4922 0.6641 0.0000
v 0.4648 0.6641 -0.0352
v 0.4219 0.6641 -0.0195
v 0.4219 0.6641 0.0195
vt 0.9063 0.2969
vt 0.9609 0.2969
vt 0.9609 0.1250
vt 0.9063 0.1250
vt 0.6016 0.1719
vt 0.6406 0.4922
vt 0.8438 0.1719
vt 0.8281 0.4922
vt 0.9922 0.1719
vt 0.9453 0.4922
vt 0.8281 0.0313
vt 0.9375 0.1016
vt 0.9688 0.0078
vt 0.6641 0.0469
vt 0.6016 0.1719
vt 0.8438 0.1719
vt 0.6406 0.4922
vt 0.8281 0.4922
vt 0.9922 0.1719
vt 0.9453 0.4922
vt 0.9375 0.1016
vt 0.7500 0.1563
vt 0.5547 0.2188
vt 0.8281 0.0313
vt 0.7422 0.3203
vt 0.5547 0.4297
vt 0.7500 0.4922
vt 0.9297 0.3203
vt 0.9688 0.0078
vt 0.6641 0.0469
vt 0.9609 0.1250
vt 0.7578 0.4688
vt 0.5938 0.1797
vt 0.8516 0.1797
vt 0.6250 0.5000
vt 0.8203 0.5000
vt 0.8047 0.0469
vt 0.5547 0.2578
vt 0.6406 0.0469
vt 0.9297 0.0234
vt 0.9063 0.1250
vt 0.5000 0.3047
vt 0.5547 0.2578
vt 0.7578 0.4688
vt 0.5000 0.3047
vt 0.9297 0.4609
vt 0.9531 0.2891
vt 0.9063 0.2891
vt 0.5000 0.0234
vt 0.5547 0.1250
vt 0.7188 0.0938
vt 0.7188 0.0938
vt 0.5547 0.1250
vt 0.5000 0.0234
vt 0.0938 0.7500
vt 0.0938 0.9688
vt 0.7031 0.7500
vt 0.7031 0.9688
vt 0.0938 0.5469
vt 0.7031 0.5469
vt 0.0938 0.8281
vt 0.0938 0.9688
vt 0.7031 0.8281
vt 0.7031 0.9688
vt 0.0938 0.6875
vt 0.7031 0.6875
vt 0.0938 0.5469
vt 0.7031 0.5469
vt 0.0313 0.7422
vt 0.0703 0.7969
vt 0.0703 0.6875
vt 0.1328 0.7734
vt 0.1328 0.7109
vt 0.6328 0.5938
vt 0.5156 0.8750
vt 0.5625 0.9141
vt 0.5156 0.8750
vt 0.8281 1.0000
vt -2.0000 0.5000
vt 1.0000 0.5000
vt 0.2969 0.9141
vt 0.3438 0.8750
vt 1.0000 0.0000
vt -2.0000 0.0000
vt 0.3438 0.8750
vt 0.2969 0.5859
vt 0.0000 1.0000
vt 1.0000 1.0000
vt 0.5000 0.0000
vt 0.1406 0.3516
vt 0.0313 0.3516
vt 0.1406 0.4766
vt 0.0313 0.4766
vt 0.2031 0.3516
vt 0.2031 0.4766
vt 0.1094 0.3516
vt 0.0234 0.3516
vt 0.1016 0.4766
vt 0.0234 0.4766
vt 0.1641 0.3516
vt 0.1563 0.4766
vt 0.2031 0.3516
vt 0.2031 0.4766
vt 0.5313 0.5938
vt 0.7969 0.6797
vt 0.3984 0.6797
vt 0.0000 0.6797
vt 0.1953 0.6797
vt 0.1641 0.2734
vt 0.2031 0.2734
vt 0.1094 0.2734
vt 0.0234 0.2734
vt 0.2031 0.2734
vt 0.1406 0.2734
vt 0.0313 0.2734
vt 0.3281 0.2891
vt 0.3906 0.2891
vt 0.3281 0.0313
vt 0.3906 0.0313
vt 0.3906 0.2891
vt 0.3906 0.0313
vt 0.3906 0.2891
vt 0.3281 0.2891
vt 0.3906 0.0313
vt 0.3281 0.0313
vt 0.3281 0.2891
vt 0.3281 0.0313
vt 0.3281 0.2891
vt 0.3281 0.0313
f 2/17 12/16 16/15
f 12/16 2/17 1/18
f 3/35 16/34 15/33
f 16/34 3/35 2/36
f 14/7 3/6 15/5
f 14/7 4/8 3/6
f 13/9 4/8 14/7
f 13/9 5/10 4/8
f 1/18 13/19 12/16
f 13/19 1/18 5/20
f 11/25 7/23 6/22
f 11/25 8/26 7/23
f 11/25 9/27 8/26
f 11/25 10/28 9/27
f 11/25 6/22 10/28
f 10/29 6/24 17/21
f 10/13 17/12 9/11
f 8/14 14/7 15/5
f 8/14 9/11 14/7
f 7/37 15/33 16/34
f 7/37 8/39 15/33
f 12/16 7/30 16/15
f 6/24 7/30 12/16
f 14/7 17/12 13/9
f 9/11 17/12 14/7
f 17/21 12/16 13/19
f 17/21 6/24 12/16
f 22/45 24/38 18/32
f 18/44 23/43 22/42
f 24/48 23/47 18/46
f 22/42 21/50 19/49
f 22/42 23/43 21/50
f 20/4 23/2 24/1
f 20/4 21/3 23/2
f 20/53 22/45 19/54
f 20/53 24/38 22/45
f 25/52 20/53 19/54
f 25/51 19/49 21/50
f 25/40 21/41 20/31
f 27/57 31/56 32/55
f 31/56 27/57 26/58
f 28/60 32/55 33/59
f 32/55 28/60 27/57
f 29/63 33/62 34/61
f 33/62 29/63 28/64
f 30/66 34/61 35/65
f 34/61 30/66 29/63
f 26/68 35/65 31/67
f 35/65 26/68 30/66
f 31/71 33/70 32/69
f 31/71 34/72 33/70
f 31/71 35/73 34/72
f 40/76 42/75 36/74
f 36/74 41/77 40/76
f 42/80 41/79 36/78
f 40/76 39/82 37/81
f 40/76 41/77 39/82
f 38/83 41/79 42/80
f 38/83 39/84 41/79
f 38/85 40/76 37/81
f 38/85 42/75 40/76
f 43/86 38/85 37/81
f 43/86 37/81 39/82
f 43/89 39/88 38/87
f 45/92 54/91 58/90
f 54/91 45/92 44/93
f 46/95 58/90 57/94
f 58/90 46/95 45/92
f 47/98 57/97 56/96
f 57/97 47/98 46/99
f 48/101 56/96 55/100
f 56/96 48/101 47/98
f 44/103 55/100 54/102
f 55/100 44/103 48/101
f 52/106 51/105 49/104
f 52/106 50/107 51/105
f 52/106 53/108 50/107
f 59/110 55/100 60/109
f 59/110 54/102 55/100
f 55/100 61/111 60/109
f 61/111 55/100 56/96
f 62/112 56/96 57/97
f 56/96 62/112 61/111
f 57/94 63/114 62/113
f 63/114 57/94 58/90
f 58/90 59/115 63/114
f 58/90 54/91 59/115
f 51/118 59/117 60/116
f 51/118 50/119 59/117
f 49/121 60/116 61/120
f 49/121 51/118 60/116
f 52/124 61/123 62/122
f 52/124 49/125 61/123
f 53/127 62/122 63/126
f 53/127 52/124 62/122
f 50/119 63/128 59/117
f 50/119 53/129 63/128
