g Object
v -0.0586 0.0000 0.2500
v -0.2891 0.0000 0.3594
v -0.4570 0.0000 0.1758
v -0.3359 0.0000 -0.0391
v -0.0898 0.0000 0.0039
v -0.0859 0.8516 0.2344
v -0.2813 0.8203 0.3242
v -0.4258 0.8203 0.1680
v -0.3203 0.8516 -0.0156
v -0.0703 0.8984 -0.0117
v -0.2148 0.2813 0.1172
v -0.0117 0.5859 0.2852
v -0.0508 0.5859 -0.0313
v -0.3672 0.5859 -0.0898
v -0.5234 0.5859 0.1875
v -0.3008 0.5859 0.4219
v -0.1016 0.7188 0.0156
v -0.3164 0.2617 0.2148
v -0.4805 0.6484 0.3750
v -0.4766 0.5898 0.3086
v -0.4258 0.5977 0.3789
v -0.4922 0.4297 0.3828
v -0.4258 0.4805 0.3789
v -0.4844 0.4805 0.3164
v -0.3242 0.6289 0.2266
v -0.0195 0.0000 -0.6172
v 0.0195 0.0000 -0.7656
v 0.1758 0.0000 -0.7695
v 0.2305 0.0000 -0.6289
v 0.1055 0.0000 -0.5273
v -0.0234 0.3672 -0.6172
v 0.0156 0.3672 -0.7695
v 0.1758 0.3672 -0.7734
v 0.2305 0.3672 -0.6211
v 0.1055 0.3672 -0.5273
v 0.1055 0.0859 -0.5664
v 0.0938 0.3594 -0.8281
v 0.1172 0.3203 -0.8008
v 0.0781 0.3203 -0.8008
v 0.0938 0.1484 -0.8281
v 0.0781 0.1797 -0.8008
v 0.1172 0.1797 -0.8008
v 0.1055 0.3555 -0.5625
v 0.5820 0.0000 -0.5078
v 0.4766 0.0000 -0.3906
v 0.3359 0.0000 -0.4531
v 0.3516 0.0000 -0.6133
v 0.5039 0.0000 -0.6406
v 0.5820 0.3672 -0.5078
v 0.4766 0.3672 -0.3906
v 0.3320 0.3672 -0.4531
v 0.3477 0.3672 -0.6133
v 0.5039 0.3672 -0.6484
v 0.4883 0.0859 -0.6094
v 0.3828 0.3594 -0.3672
v 0.3789 0.3203 -0.4063
v 0.4102 0.3203 -0.3906
v 0.3828 0.1484 -0.3672
v 0.4141 0.1797 -0.3906
v 0.3789 0.1797 -0.4063
v 0.4922 0.3555 -0.6133
vt 0.9063 0.2969
vt 0.9609 0.2969
vt 0.9609 0.1250
vt 0.9063 0.1250
vt 0.6016 0.1719
vt 0.6406 0.4922
vt 0.8438 0.1719
vt 0.8281 0.4922
vt 0.9922 0.1719
vt 0.9453 0.4922
vt 0.8281 0.0313
vt 0.9375 0.1016
vt 0.9688 0.0078
vt 0.6641 0.0469
vt 0.6016 0.1719
vt 0.8438 0.1719
vt 0.6406 0.4922
vt 0.8281 0.4922
vt 0.9922 0.1719
vt 0.9453 0.4922
vt 0.9375 0.1016
vt 0.7500 0.1563
vt 0.5547 0.2188
vt 0.8281 0.0313
vt 0.7422 0.3203
vt 0.5547 0.4297
vt 0.7500 0.4922
vt 0.9297 0.3203
vt 0.9688 0.0078
vt 0.6641 0.0469
vt 0.9609 0.1250
vt 0.7578 0.4688
vt 0.5938 0.1797
vt 0.8516 0.1797
vt 0.6250 0.5000
vt 0.8203 0.5000
vt 0.8047 0.0469
vt 0.5547 0.2578
vt 0.6406 0.0469
vt 0.9297 0.0234
vt 0.9063 0.1250
vt 0.5000 0.3047
vt 0.5547 0.2578
vt 0.7578 0.4688
vt 0.5000 0.3047
vt 0.9297 0.4609
vt 0.9531 0.2891
vt 0.9063 0.2891
vt 0.5000 0.0234
vt 0.5547 0.1250
vt 0.7188 0.0938
vt 0.7188 0.0938
vt 0.5547 0.1250
vt 0.5000 0.0234
vt 0.0938 0.7500
vt 0.0938 0.9688
vt 0.7031 0.7500
vt 0.7031 0.9688
vt 0.0938 0.5469
vt 0.7031 0.5469
vt 0.0938 0.8281
vt 0.0938 0.9688
vt 0.7031 0.8281
vt 0.7031 0.9688
vt 0.0938 0.6875
vt 0.7031 0.6875
vt 0.0938 0.5469
vt 0.7031 0.5469
vt 0.0313 0.7422
vt 0.0703 0.7969
vt 0.0703 0.6875
vt 0.1328 0.7734
vt 0.1328 0.7109
vt 0.6328 0.5938
vt 0.5156 0.8750
vt 0.5625 0.9141
vt 0.5156 0.8750
vt 0.8281 1.0000
vt -2.0000 0.5000
vt 1.0000 0.5000
vt 0.2969 0.9141
vt 0.3438 0.8750
vt 1.0000 0.0000
vt -2.0000 0.0000
vt 0.3438 0.8750
vt 0.2969 0.5859
vt 0.0000 1.0000
vt 1.0000 1.0000
vt 0.5000 0.0000
vt 0.0938 0.7500
vt 0.0938 0.9688
vt 0.7031 0.7500
vt 0.7031 0.9688
vt 0.0938 0.5469
vt 0.7031 0.5469
vt 0.0938 0.8281
vt 0.0938 0.9688
vt 0.7031 0.8281
vt 0.7031 0.9688
vt 0.0938 0.6875
vt 0.7031 0.6875
vt 0.0938 0.5469
vt 0.7031 0.5469
vt 0.0313 0.7422
vt 0.0703 0.7969
vt 0.0703 0.6875
vt 0.1328 0.7734
vt 0.1328 0.7109
vt 0.6328 0.5938
vt 0.5156 0.8750
vt 0.5625 0.9141
vt 0.5156 0.8750
vt 0.8281 1.0000
vt -2.0000 0.5000
vt 1.0000 0.5000
vt 0.2969 0.9141
vt 0.3438 0.8750
vt 1.0000 0.0000
vt -2.0000 0.0000
vt 0.3438 0.8750
vt 0.2969 0.5859
vt 0.0000 1.0000
vt 1.0000 1.0000
vt 0.5000 0.0000
f 2/17 12/16 16/15
f 12/16 2/17 1/18
f 3/35 16/34 15/33
f 16/34 3/35 2/36
f 14/7 3/6 15/5
f 14/7 4/8 3/6
f 13/9 4/8 14/7
f 13/9 5/10 4/8
f 1/18 13/19 12/16
f 13/19 1/18 5/20
f 11/25 7/23 6/22
f 11/25 8/26 7/23
f 11/25 9/27 8/26
f 11/25 10/28 9/27
f 11/25 6/22 10/28
f 10/29 6/24 17/21
f 10/13 17/12 9/11
f 8/14 14/7 15/5
f 8/14 9/11 14/7
f 7/37 15/33 16/34
f 7/37 8/39 15/33
f 12/16 7/30 16/15
f 6/24 7/30 12/16
f 14/7 17/12 13/9
f 9/11 17/12 14/7
f 17/21 12/16 13/19
f 17/21 6/24 12/16
f 22/45 24/38 18/32
f 18/44 23/43 22/42
f 24/48 23/47 18/46
f 22/42 21/50 19/49
f 22/42 23/43 21/50
f 20/4 23/2 24/1
f 20/4 21/3 23/2
f 20/53 22/45 19/54
f 20/53 24/38 22/45
f 25/52 20/53 19/54
f 25/51 19/49 21/50
f 25/40 21/41 20/31
f 27/57 31/56 32/55
f 31/56 27/57 26/58
f 28/60 32/55 33/59
f 32/55 28/60 27/57
f 29/63 33/62 34/61
f 33/62 29/63 28/64
f 30/66 34/61 35/65
f 34/61 30/66 29/63
f 26/68 35/65 31/67
f 35/65 26/68 30/66
f 31/71 33/70 32/69
f 31/71 34/72 33/70
f 31/71 35/73 34/72
f 40/76 42/75 36/74
f 36/74 41/77 40/76
f 42/80 41/79 36/78
f 40/76 39/82 37/81
f 40/76 41/77 39/82
f 38/83 41/79 42/80
f 38/83 39/84 41/79
f 38/85 40/76 37/81
f 38/85 42/75 40/76
f 43/86 38/85 37/81
f 43/86 37/81 39/82
f 43/89 39/88 38/87
f 45/92 49/91 50/90
f 49/91 45/92 44/93
f 46/95 50/90 51/94
f 50/90 46/95 45/92
f 47/98 51/97 52/96
f 51/97 47/98 46/99
f 48/101 52/96 53/100
f 52/96 48/101 47/98
f 44/103 53/100 49/102
f 53/100 44/103 48/101
f 49/106 51/105 50/104
f 49/106 52/107 51/105
f 49/106 53/108 52/107
f 58/111 60/110 54/109
f 54/109 59/112 58/111
f 60/115 59/114 54/113
f 58/111 57/117 55/116
f 58/111 59/112 57/117
f 56/118 59/114 60/115
f 56/118 57/119 59/114
f 56/120 58/111 55/116
f 56/120 60/110 58/111
f 61/121 56/120 55/116
f 61/121 55/116 57/117
f 61/124 57/123 56/122
