g Object
v 0.0000 0.0000 0.1602
v -0.1563 0.0000 0.0000
v 0.0000 0.0000 -0.1641
v 0.1523 0.0000 0.0000
v 0.0000 1.7188 0.3477
v -0.3320 1.7188 0.0000
v 0.0000 1.7188 -0.3516
v 0.3281 1.7188 0.0000
v 0.0000 1.8555 0.0000
v 0.0000 0.3242 0.5195
v 0.4883 0.3242 0.0000
v 0.0000 0.3242 -0.5195
v -0.4961 0.3242 0.0000
v 0.0000 1.6172 0.2461
v 0.2305 1.6172 0.0000
v 0.0000 1.6172 -0.2500
v -0.2383 1.6172 0.0000
v 0.0000 0.9727 0.3789
v 0.3594 0.9727 0.0000
v 0.0000 0.9727 -0.3828
v -0.3633 0.9727 0.0000
vt 0.5156 0.9844
vt 0.9844 0.5625
vt 0.9844 0.5625
vt 0.9844 0.5625
vt 0.9844 0.5625
vt 0.9844 0.3750
vt 0.7656 0.4688
vt 0.5156 0.9219
vt 0.9844 0.9219
vt 0.5156 0.9219
vt 0.5156 0.9219
vt 0.0156 0.9219
vt 0.5156 0.9219
vt 0.9844 0.0000
vt 0.5156 0.0000
vt 0.5156 0.0000
vt 0.0156 0.0000
vt 0.5156 0.0000
vt 0.0156 0.0000
vt 0.9844 0.9844
vt 0.9844 0.9219
vt 0.5156 0.9844
vt 0.5156 0.2031
vt 0.9844 0.2031
vt 0.9844 0.0000
vt 0.9844 0.9844
vt 0.0156 0.9844
vt 0.5156 0.9844
vt 0.0156 0.9219
vt 0.0156 0.2031
vt 0.5156 0.2031
vt 0.5156 0.0000
vt 0.9844 0.2031
vt 0.5156 0.2031
vt 0.5156 0.9844
vt 0.0156 0.9844
vt 0.5156 0.2031
vt 0.0156 0.2031
vt 0.9844 0.3750
vt 0.7656 0.4688
vt 0.9844 0.3750
vt 0.7656 0.4688
vt 0.9844 0.3750
vt 0.7656 0.4688
vt 0.5156 0.4688
vt 0.9844 0.4688
vt 0.9844 0.4688
vt 0.5156 0.4688
vt 0.5156 0.4688
vt 0.0156 0.4688
vt 0.0156 0.4688
vt 0.5156 0.4688
f 10/13 2/36 1/35
f 10/13 13/12 2/36
f 13/29 3/28 2/27
f 13/29 12/11 3/28
f 3/22 11/21 4/20
f 12/10 11/21 3/22
f 11/9 1/1 4/26
f 11/9 10/8 1/1
f 9/40 6/39 5/2
f 9/42 7/41 6/3
f 9/44 8/43 7/4
f 9/7 5/6 8/5
f 19/47 10/8 11/9
f 18/45 10/8 19/47
f 12/10 19/46 11/21
f 19/46 12/10 20/48
f 13/29 20/49 12/11
f 21/51 20/49 13/29
f 10/13 21/50 13/12
f 21/50 10/13 18/52
f 14/15 8/33 5/34
f 8/33 14/15 15/14
f 15/25 7/23 8/24
f 7/23 15/25 16/16
f 16/32 6/30 7/31
f 6/30 16/32 17/17
f 17/19 5/37 6/38
f 5/37 17/19 14/18
f 19/47 14/15 18/45
f 14/15 19/47 15/14
f 20/48 15/25 19/46
f 15/25 20/48 16/16
f 21/51 16/32 20/49
f 17/17 16/32 21/51
f 18/52 17/19 21/50
f 17/19 18/52 14/18
