g Object
v -1.7539 -0.3906 -0.7852
v 1.7695 -0.3906 -0.7852
v -1.7539 1.7617 -0.7852
v 1.7695 1.7617 -0.7852
v -1.7539 1.7617 0.7578
v 1.7695 1.7617 0.7578
v -1.7539 -0.3906 0.7578
v 1.7695 -0.3906 0.7578
v -0.8242 -0.3906 -0.7852
v -0.8242 1.7617 -0.7852
v 0.7422 -0.3906 -0.7852
v 0.7422 1.7617 -0.7852
v -1.7539 1.0508 -0.7852
v 1.7695 1.0508 -0.7852
v -1.7539 1.0508 0.7578
v 1.7695 1.0508 0.7578
v -0.8242 1.0508 -0.7852
v 0.7422 1.0508 -0.7852
v -0.8242 1.0508 0.3906
v 0.7422 1.0508 0.3906
v -0.8242 -0.3906 0.3906
v 0.7422 -0.3906 0.3906
v -2.0430 1.8555 0.7578
v 2.0430 1.8555 0.7578
v -2.0430 1.8555 -0.8828
v -0.9531 1.8555 -0.8828
v 0.8555 1.8555 -0.8828
v 2.0430 1.8555 -0.8828
v -0.4570 1.8359 -0.1758
v 0.4727 1.8359 -0.1758
v -0.4570 4.3672 -0.1758
v 0.4727 4.3672 -0.1758
v -0.4570 4.3672 0.7656
v 0.4727 4.3672 0.7656
v -0.4570 1.8359 0.7656
v 0.4727 1.8359 0.7656
vt -0.3594 1.0000
vt 1.6719 1.0000
vt -0.3594 -0.0156
vt 1.6719 -0.0156
vt 0.8906 0.9688
vt 0.1406 0.9688
vt -1.6094 1.0000
vt -1.6094 -0.0156
vt -1.3594 1.0000
vt -1.3594 -0.0156
vt 0.2500 1.0000
vt 0.2500 -0.0156
vt 1.0938 1.0000
vt 1.0938 -0.0156
vt -0.3594 0.3906
vt 1.6719 0.3906
vt -1.3594 0.3906
vt -1.6094 0.3906
vt 0.2500 0.3906
vt 1.0938 0.3906
vt 0.8125 0.7344
vt 0.1719 0.7344
vt 0.2031 0.2656
vt 0.2031 1.0000
vt 0.0938 0.8750
vt 0.8906 0.8750
vt 0.1406 0.9688
vt 0.1094 0.9688
vt 0.3125 0.9688
vt 0.8906 0.9688
vt 1.6719 0.8594
vt -0.3594 0.8594
vt -0.3594 0.9844
vt 0.2500 0.9844
vt 1.0938 0.9844
vt 1.6719 0.9844
vt 0.8125 0.0000
vt 0.1719 0.0000
vt 0.1719 0.5938
vt 0.8125 0.5938
vt 0.8125 1.0000
vt 0.8125 0.2656
vt 0.2031 1.0000
vt 0.2031 0.2656
vt 0.8125 0.2656
vt 0.8125 1.0000
vt 0.1719 0.2500
vt 0.8125 0.2500
vt 0.2813 0.8750
vt 0.0469 0.8750
vt 0.6563 0.9688
vt 0.6719 0.8750
vt 0.8750 0.9688
vt 0.9375 0.8750
vt 0.8906 0.8750
vt 0.0938 0.8750
vt 0.2656 1.0000
vt 0.7188 1.0000
vt 0.7188 -0.1250
vt 0.2656 -0.1250
vt 1.1563 1.0000
vt 1.1563 -0.1250
vt -0.1563 1.0000
vt -0.1563 -0.1250
f 1/1 17/19 9/11
f 13/15 17/19 1/1
f 23/32 26/34 25/33
f 24/31 26/34 23/32
f 24/31 27/35 26/34
f 28/36 27/35 24/31
f 14/16 8/7 2/2
f 14/16 16/18 8/7
f 15/17 1/1 7/9
f 15/17 13/15 1/1
f 12/14 17/19 10/12
f 12/14 18/20 17/19
f 12/14 14/16 18/20
f 4/4 14/16 12/14
f 13/15 10/12 17/19
f 3/3 10/12 13/15
f 14/16 6/8 16/18
f 4/4 6/8 14/16
f 5/10 13/15 15/17
f 5/10 3/3 13/15
f 22/40 19/38 20/37
f 22/40 21/39 19/38
f 2/2 18/20 14/16
f 2/2 11/13 18/20
f 20/48 17/22 18/21
f 20/48 19/47 17/22
f 17/23 21/41 9/24
f 19/42 21/41 17/23
f 22/46 18/44 11/43
f 22/46 20/45 18/44
f 25/25 5/5 23/26
f 25/25 3/6 5/5
f 26/49 3/28 25/50
f 26/49 10/29 3/28
f 27/52 10/29 26/49
f 27/52 12/51 10/29
f 4/53 27/52 28/54
f 27/52 4/53 12/51
f 6/30 28/56 24/55
f 28/56 6/30 4/27
f 31/60 30/58 29/57
f 31/60 32/59 30/58
f 32/59 36/61 30/58
f 32/59 34/62 36/61
f 33/64 29/57 35/63
f 33/64 31/60 29/57
