g Object
v -0.0195 -0.5000 0.1250
v -0.0938 -0.5000 0.0508
v -0.0195 -0.5000 -0.0234
v 0.0508 -0.5000 0.0508
v -0.0195 -0.3477 0.1250
v -0.0938 -0.3477 0.0508
v -0.0195 -0.3477 -0.0234
v 0.0508 -0.3477 0.0508
v -0.1211 -0.5000 0.0195
v -0.1758 -0.5000 -0.0313
v -0.1211 -0.5000 -0.0859
v -0.0664 -0.5000 -0.0313
v -0.1211 -0.4180 0.0195
v -0.1758 -0.4180 -0.0313
v -0.1211 -0.4180 -0.0859
v -0.0664 -0.4180 -0.0313
v 0.0664 -0.5000 -0.0195
v 0.0156 -0.5000 -0.0742
v 0.0664 -0.5000 -0.1250
v 0.1211 -0.5000 -0.0742
v 0.0664 -0.3984 -0.0195
v 0.0156 -0.3984 -0.0742
v 0.0664 -0.3984 -0.1250
v 0.1211 -0.3984 -0.0742
v 0.1250 -0.5000 0.0859
v 0.0781 -0.5000 0.0391
v 0.1250 -0.5000 -0.0078
v 0.1758 -0.5000 0.0391
v 0.1250 -0.3984 0.0859
v 0.0781 -0.3984 0.0391
v 0.1250 -0.3984 -0.0078
v 0.1758 -0.3984 0.0391
vt 0.1875 0.8750
vt 0.0000 0.8750
vt 0.0000 0.0625
vt 0.1875 0.0625
vt 0.1875 0.8750
vt 0.0625 0.3750
vt 0.0000 0.5000
vt 0.0625 0.5625
vt 0.1875 0.5000
vt 0.1875 0.0625
vt 0.4375 0.8750
vt 0.4375 0.0625
vt 0.1875 0.8750
vt 0.0000 0.8750
vt 0.0000 0.0625
vt 0.1875 0.0625
vt 0.1875 0.8750
vt 0.1875 0.0625
vt 0.4375 0.8750
vt 0.4375 0.0625
vt 0.0625 0.3750
vt 0.0000 0.5000
vt 0.0625 0.5625
vt 0.1875 0.5000
vt 0.6875 0.8750
vt 0.5000 0.8750
vt 0.5000 0.0625
vt 0.6875 0.0625
vt 0.6875 0.8750
vt 0.6875 0.0625
vt 0.9375 0.8750
vt 0.9375 0.0625
vt 0.5625 0.3750
vt 0.5000 0.5000
vt 0.5625 0.5625
vt 0.6875 0.5000
vt 0.1875 0.8750
vt 0.0000 0.8750
vt 0.0000 0.0625
vt 0.1875 0.0625
vt 0.1875 0.8750
vt 0.1875 0.0625
vt 0.4375 0.8750
vt 0.4375 0.0625
vt 0.0625 0.3750
vt 0.0000 0.5000
vt 0.0625 0.5625
vt 0.1875 0.5000
f 5/4 2/2 1/1
f 5/4 6/3 2/2
f 6/3 3/5 2/2
f 6/3 7/10 3/5
f 7/10 4/11 3/5
f 7/10 8/12 4/11
f 8/12 1/1 4/11
f 8/12 5/4 1/1
f 8/9 6/7 5/6
f 8/9 7/8 6/7
f 13/16 10/14 9/13
f 13/16 14/15 10/14
f 14/15 11/17 10/14
f 14/15 15/18 11/17
f 15/18 12/19 11/17
f 15/18 16/20 12/19
f 16/20 9/13 12/19
f 16/20 13/16 9/13
f 16/24 14/22 13/21
f 16/24 15/23 14/22
f 21/28 18/26 17/25
f 21/28 22/27 18/26
f 22/27 19/29 18/26
f 22/27 23/30 19/29
f 23/30 20/31 19/29
f 23/30 24/32 20/31
f 24/32 17/25 20/31
f 24/32 21/28 17/25
f 24/36 22/34 21/33
f 24/36 23/35 22/34
f 29/40 26/38 25/37
f 29/40 30/39 26/38
f 30/39 27/41 26/38
f 30/39 31/42 27/41
f 31/42 28/43 27/41
f 31/42 32/44 28/43
f 32/44 25/37 28/43
f 32/44 29/40 25/37
f 32/48 30/46 29/45
f 32/48 31/47 30/46
