g Object
v -0.6367 0.0117 -1.2188
v 1.3516 0.0117 -0.4688
v 0.0000 0.7578 0.0000
v -1.0742 0.0117 1.0469
v 0.5977 0.0117 1.0742
v 0.0000 0.0117 1.5547
v 0.7930 0.0117 0.2617
v 0.3086 0.0117 -1.6602
v -1.5664 0.0117 -0.4063
v -0.3750 1.2930 -0.6211
v -0.3164 1.3086 -0.6211
v -0.3750 1.3203 -0.4805
v -0.3164 1.3359 -0.4805
v -0.3984 1.3359 -0.5977
v -0.3281 1.3555 -0.5977
v -0.3281 1.3711 -0.5195
v -0.3984 1.3555 -0.5195
v -0.5234 1.8633 -0.6836
v -0.5234 1.8711 -0.6211
v -0.3867 1.2656 -0.8633
v -0.3281 1.2813 -0.8633
v -0.3867 1.3828 -0.2422
v -0.3281 1.3984 -0.2539
v 0.1953 -0.4297 -0.2266
v -0.9492 0.2109 0.5156
v -0.9727 0.2500 0.5156
v -0.9375 0.2031 0.5898
v -0.9609 0.2383 0.6055
v -0.9727 0.2031 0.5391
v -0.9844 0.2305 0.5391
v -0.9844 0.2305 0.5898
v -0.9609 0.1953 0.5781
v -1.2461 0.0586 0.5664
v -1.2578 0.0742 0.5781
v -1.2578 0.0742 0.6055
v -1.2461 0.0586 0.6055
v -0.9844 0.2227 0.3750
v -0.9922 0.2578 0.3906
v -0.9258 0.1836 0.7305
v -0.9492 0.2227 0.7422
v -0.3750 0.5391 0.4766
v -0.5234 0.4570 0.5391
v 0.6094 0.4102 0.5039
v 0.0469 0.6914 0.4531
v -0.2031 0.8008 -0.1133
v 0.1016 0.6289 -0.6328
v 0.6758 0.3398 -0.5820
v 0.9180 0.2305 -0.0117
v 0.6289 0.4570 0.5039
v 0.0703 0.7461 0.4531
v -0.1797 0.8555 -0.1133
v 0.1367 0.6758 -0.6484
v 0.6992 0.3828 -0.5820
v 0.9414 0.2852 -0.0117
v 0.4141 0.6367 -0.0781
vt 0.8594 0.7813
vt 0.7656 0.4531
vt 0.4844 0.6250
vt 0.1719 0.4375
vt 0.1250 0.6875
vt 0.5469 0.4531
vt 0.3594 0.3906
vt 0.3594 0.9531
vt 0.6406 0.8906
vt 0.6250 0.1563
vt 0.6250 0.0938
vt 0.6094 0.1406
vt 0.6094 0.1094
vt 0.6250 0.0938
vt 0.6250 0.1563
vt 0.6094 0.1094
vt 0.6094 0.1406
vt 0.6094 0.1406
vt 0.6094 0.1094
vt 0.4063 0.1250
vt 0.4063 0.1406
vt 0.4063 0.1094
vt 0.6094 0.1094
vt 0.6094 0.1406
vt 0.4063 0.1250
vt 0.4063 0.1094
vt 0.4063 0.1406
vt 0.6094 0.2188
vt 0.6250 0.2188
vt 0.6094 0.1563
vt 0.6250 0.1563
vt 0.6250 0.2344
vt 0.6250 0.2344
vt 0.6094 0.2344
vt 0.6250 0.1563
vt 0.6094 0.1563
vt 0.6250 0.2344
vt 0.6250 0.2188
vt 0.6094 0.2188
vt 0.6250 0.1563
vt 0.6094 0.1563
vt 0.6250 0.0156
vt 0.6094 0.2344
vt 0.6250 0.2344
vt 0.6094 0.1563
vt 0.6250 0.1563
vt 0.6250 0.0156
vt 0.9844 0.1250
vt 0.6250 0.1563
vt 0.6250 0.0938
vt 0.9844 0.1250
vt 0.9844 0.1250
vt 0.6250 0.0938
vt 0.6250 0.1563
vt 0.9844 0.1250
vt 0.3906 0.0938
vt 0.3906 0.1406
vt 0.4063 0.0938
vt 0.4063 0.1406
vt 0.6250 0.1563
vt 0.6250 0.0938
vt 0.6094 0.1406
vt 0.6094 0.1094
vt 0.6094 0.1406
vt 0.6094 0.1094
vt 0.4063 0.1406
vt 0.4063 0.1094
vt 0.4063 0.1406
vt 0.4063 0.1094
vt 0.6094 0.1094
vt 0.6094 0.1406
vt 0.4063 0.1094
vt 0.4063 0.1406
vt 0.6094 0.2188
vt 0.6250 0.2188
vt 0.6094 0.1563
vt 0.6250 0.1563
vt 0.6250 0.2344
vt 0.6250 0.2344
vt 0.6094 0.2344
vt 0.6250 0.1563
vt 0.6250 0.2188
vt 0.6094 0.2188
vt 0.6250 0.1563
vt 0.6094 0.1563
vt 0.6094 0.2344
vt 0.6250 0.2344
vt 0.6094 0.1563
vt 0.6250 0.1563
vt 0.6250 0.0156
vt 0.6250 0.1563
vt 0.6250 0.0938
vt 0.9844 0.1250
vt 0.9844 0.1094
vt 0.9844 0.1406
vt 0.6250 0.0938
vt 0.6250 0.1563
vt 0.9844 0.1250
vt 0.6094 0.2188
vt 0.6250 0.1563
vt 0.6250 0.2188
vt 0.7031 0.0313
vt 0.8125 0.0313
vt 0.8125 0.0156
vt 0.7031 0.0156
vt 0.9063 0.0313
vt 0.9063 0.0156
vt 1.0000 0.0313
vt 1.0000 0.0156
vt 0.9063 0.0313
vt 0.9063 0.0156
vt 0.8125 0.0313
vt 0.8125 0.0156
vt 0.7031 0.0313
vt 0.7031 0.0156
vt 0.1250 0.6875
vt 0.3594 0.9531
vt 0.4844 0.6250
vt 0.2813 0.0156
vt 0.0781 0.0156
vt 0.1719 0.1719
vt 0.0000 0.1719
vt 0.0781 0.3438
vt 0.2813 0.3438
vt 0.3750 0.1719
f 3/3 2/2 8/1
f 4/5 6/4 3/3
f 3/3 5/7 7/6
f 3/118 9/117 4/116
f 6/4 5/7 3/3
f 3/3 7/6 2/2
f 3/3 8/1 1/9
f 3/3 1/9 9/8
f 15/12 13/11 11/10
f 15/12 16/13 13/11
f 17/16 10/15 12/14
f 17/16 14/17 10/15
f 18/20 15/19 14/18
f 18/21 16/13 15/12
f 18/21 19/22 16/13
f 19/25 17/24 16/23
f 19/26 14/17 17/16
f 19/26 18/27 14/17
f 20/30 11/29 10/28
f 20/30 21/31 11/29
f 11/10 21/32 15/12
f 21/35 14/34 15/33
f 21/35 20/36 14/34
f 20/37 10/15 14/17
f 23/40 12/39 13/38
f 23/40 22/41 12/39
f 12/14 22/42 17/16
f 22/45 16/44 17/43
f 22/45 23/46 16/44
f 23/47 13/11 16/13
f 24/48 12/14 10/15
f 24/51 13/50 12/49
f 24/52 11/10 13/11
f 24/55 10/54 11/53
f 36/58 34/57 33/56
f 36/58 35/59 34/57
f 30/62 28/61 26/60
f 30/62 31/63 28/61
f 33/66 30/65 29/64
f 33/66 34/67 30/65
f 34/68 31/63 30/62
f 34/68 35/69 31/63
f 35/72 32/71 31/70
f 35/72 36/73 32/71
f 37/76 26/75 25/74
f 37/76 38/77 26/75
f 26/60 38/78 30/62
f 38/81 29/80 30/79
f 40/84 27/83 28/82
f 40/84 39/85 27/83
f 39/88 31/87 32/86
f 39/88 40/89 31/87
f 40/90 28/61 31/63
f 42/93 28/92 27/91
f 42/94 26/60 28/61
f 26/60 42/94 41/95
f 41/98 25/97 26/96
f 37/101 29/100 38/99
f 49/105 44/103 43/102
f 49/105 50/104 44/103
f 50/104 45/106 44/103
f 50/104 51/107 45/106
f 51/107 46/108 45/106
f 51/107 52/109 46/108
f 52/109 47/110 46/108
f 52/109 53/111 47/110
f 53/111 48/112 47/110
f 53/111 54/113 48/112
f 54/113 43/114 48/112
f 54/113 49/115 43/114
f 55/121 50/120 49/119
f 55/121 51/122 50/120
f 55/121 52/123 51/122
f 55/121 53/124 52/123
f 55/121 54/125 53/124
f 55/121 49/119 54/125
