g Object
v 0.2305 0.0000 0.0000
v -0.1016 0.0000 0.1953
v -0.1016 0.0000 -0.1953
v 0.2305 10.9727 0.0000
v -0.1016 10.9727 0.1953
v -0.1016 10.9727 -0.1953
v 0.0078 10.9727 0.0000
v 0.0078 10.6211 0.0000
v 0.0078 10.7539 0.0781
v 0.0078 10.7539 -0.0820
v 2.9844 10.6211 0.0000
v 2.9844 10.7539 0.0781
v 2.9844 10.7539 -0.0820
v 2.9844 10.7109 0.0000
v 2.6484 2.8633 0.4727
v 0.5391 2.8633 0.4727
v 2.6484 4.8008 0.2031
v 0.5391 4.8008 0.2031
v 2.6484 6.7422 0.0703
v 0.5391 6.7422 0.0703
v 2.6484 8.6797 0.0273
v 0.5391 8.6797 0.0273
v 2.6484 10.6211 -0.0195
v 0.5391 10.6211 -0.0195
v 2.6484 2.8633 0.4922
v 0.5391 2.8633 0.4922
v 2.6484 4.8008 0.2227
v 0.5391 4.8008 0.2227
v 2.6484 6.7422 0.0938
v 0.5391 6.7422 0.0938
v 2.6484 8.6797 0.0508
v 0.5391 8.6797 0.0508
v 2.6484 10.6211 0.0000
v 0.5391 10.6211 0.0000
vt 0.5313 0.0000
vt 0.9844 1.0000
vt 0.5313 1.0000
vt 0.5313 0.0000
vt 0.9844 0.0000
vt 0.9844 1.0000
vt 0.5313 0.0000
vt 0.9844 1.0000
vt 0.5313 1.0000
vt 0.5313 0.0000
vt 0.9844 0.0000
vt 0.9844 1.0000
vt 0.5313 0.0000
vt 0.9844 1.0000
vt 0.5313 1.0000
vt 0.5313 0.0000
vt 0.9844 0.0000
vt 0.9844 1.0000
vt 0.9844 1.0000
vt 0.5313 0.0000
vt 0.9844 0.0000
vt 0.9844 1.0000
vt 0.5313 0.0000
vt 0.9844 0.0000
vt 0.9844 1.0000
vt 0.5313 0.0000
vt 0.9844 0.0000
vt 0.5313 0.0000
vt 0.9844 1.0000
vt 0.5313 1.0000
vt 0.5313 0.0000
vt 0.9844 0.0000
vt 0.9844 1.0000
vt 0.5313 0.0000
vt 0.9844 1.0000
vt 0.5313 1.0000
vt 0.5313 0.0000
vt 0.9844 0.0000
vt 0.9844 1.0000
vt 0.5313 0.0000
vt 0.9844 1.0000
vt 0.5313 1.0000
vt 0.5313 0.0000
vt 0.9844 0.0000
vt 0.9844 1.0000
vt 0.9844 1.0000
vt 0.5313 0.0000
vt 0.9844 0.0000
vt 0.9844 1.0000
vt 0.5313 0.0000
vt 0.9844 0.0000
vt 0.9844 1.0000
vt 0.5313 0.0000
vt 0.9844 0.0000
vt 0.0000 0.2344
vt 0.0000 0.0000
vt 0.4844 0.2344
vt 0.4844 0.0000
vt 0.4844 0.2344
vt 0.0000 0.0000
vt 0.0000 0.4844
vt 0.0000 0.2344
vt 0.4844 0.4844
vt 0.4844 0.2344
vt 0.4844 0.4844
vt 0.0000 0.2344
vt 0.0000 0.7344
vt 0.0000 0.4844
vt 0.4844 0.7344
vt 0.4844 0.4844
vt 0.4844 0.7344
vt 0.0000 0.4844
vt 0.0000 0.9844
vt 0.0000 0.7344
vt 0.4844 0.9844
vt 0.4844 0.7344
vt 0.4844 0.9844
vt 0.0000 0.7344
vt 0.0000 0.2344
vt 0.4844 0.2344
vt 0.0000 0.0000
vt 0.4844 0.0000
vt 0.0000 0.0000
vt 0.4844 0.2344
vt 0.0000 0.4844
vt 0.4844 0.4844
vt 0.0000 0.2344
vt 0.4844 0.2344
vt 0.0000 0.2344
vt 0.4844 0.4844
vt 0.0000 0.7344
vt 0.4844 0.7344
vt 0.0000 0.4844
vt 0.4844 0.4844
vt 0.0000 0.4844
vt 0.4844 0.7344
vt 0.0000 0.9844
vt 0.4844 0.9844
vt 0.0000 0.7344
vt 0.4844 0.7344
vt 0.0000 0.7344
vt 0.4844 0.9844
f 1/1 4/3 5/2
f 1/4 5/6 2/5
f 2/7 5/9 6/8
f 2/10 6/12 3/11
f 3/13 6/15 4/14
f 3/16 4/18 1/17
f 7/19 5/21 4/20
f 7/22 6/24 5/23
f 7/25 4/27 6/26
f 8/28 11/30 12/29
f 8/31 12/33 9/32
f 9/34 12/36 13/35
f 9/37 13/39 10/38
f 10/40 13/42 11/41
f 10/43 11/45 8/44
f 14/46 12/48 11/47
f 14/49 13/51 12/50
f 14/52 11/54 13/53
f 17/55 18/57 15/56
f 16/58 15/60 18/59
f 19/61 20/63 17/62
f 18/64 17/66 20/65
f 21/67 22/69 19/68
f 20/70 19/72 22/71
f 23/73 24/75 21/74
f 22/76 21/78 24/77
f 27/79 25/81 28/80
f 26/82 28/84 25/83
f 29/85 27/87 30/86
f 28/88 30/90 27/89
f 31/91 29/93 32/92
f 30/94 32/96 29/95
f 33/97 31/99 34/98
f 32/100 34/102 31/101
