g Object
v -0.0508 1.4805 -1.5664
v -0.5039 1.3633 -0.0273
v -0.4844 1.3164 0.0117
v -0.5469 1.3203 0.0000
v -0.5039 1.2734 -0.0430
v -0.4922 1.5039 -0.0352
v -0.5156 1.3398 0.0039
v -0.6172 1.3047 0.3516
v -0.5898 1.2734 0.3516
v -0.6484 1.2813 0.3359
v -0.5039 1.1367 -0.0820
v -0.5195 1.2891 0.0039
v -0.6211 1.2500 0.3438
vt 2.3750 -3.0000
vt 2.1250 -3.0000
vt 2.3750 -0.8125
vt 2.3750 -0.8125
vt 2.1250 -3.0000
vt 2.3750 -3.0000
vt 2.3750 -3.0000
vt 2.3750 -0.8125
vt 2.6250 -3.0000
vt 2.3750 -0.8125
vt 2.3750 -3.0000
vt 2.6250 -3.0000
vt 2.3750 -0.7500
vt 2.5000 -0.9375
vt 2.3125 -2.5625
vt 0.0000 -0.6875
vt 0.1875 -0.6875
vt 0.2500 -2.0625
vt 0.2500 -2.0625
vt 0.0000 -2.0625
vt 0.0000 -0.6875
vt 2.3125 -2.5625
vt 2.5000 -0.9375
vt 2.3750 -0.7500
vt 0.0000 -0.6875
vt 0.0000 -2.0625
vt 0.2500 -2.0625
vt 0.2500 -2.0625
vt 0.1875 -0.6875
vt 0.0000 -0.6875
vt 0.0000 -2.0625
vt 0.2500 -2.0625
vt 0.2500 -2.0625
vt 2.3750 -0.7500
vt 2.3125 -2.5625
vt 2.5000 -0.9375
vt 0.5000 -0.6875
vt 0.2500 -2.0625
vt 0.1875 -0.6875
vt 0.2500 -2.0625
vt 0.5000 -0.6875
vt 0.5000 -2.0625
vt 2.3125 -2.5625
vt 2.3750 -0.7500
vt 2.5000 -0.9375
vt 0.5000 -0.6875
vt 0.2500 -2.0625
vt 0.5000 -2.0625
vt 0.2500 -2.0625
vt 0.5000 -0.6875
vt 0.1875 -0.6875
vt 0.5000 -2.0625
vt 0.2500 -2.0625
vt 0.2500 -2.0625
vt 2.3750 -0.7500
vt 2.1875 -1.1875
vt 2.3125 -2.5625
vt 2.3125 -2.5625
vt 2.1875 -1.1875
vt 2.3750 -0.7500
vt 2.1875 -1.1875
vt 2.3750 -0.7500
vt 2.3125 -2.5625
vt 2.3750 -0.7500
vt 2.1875 -1.1875
vt 2.3125 -2.5625
f 3/1 1/3 2/2
f 1/4 4/6 2/5
f 3/7 5/9 1/8
f 1/10 5/12 4/11
f 3/13 6/15 7/14
f 7/16 9/18 3/17
f 9/19 7/21 8/20
f 6/22 4/24 7/23
f 7/25 10/27 8/26
f 10/28 7/30 4/29
f 8/31 10/33 9/32
f 3/34 12/36 11/35
f 12/37 3/39 9/38
f 9/40 13/42 12/41
f 11/43 12/45 4/44
f 12/46 13/48 10/47
f 10/49 4/51 12/50
f 13/52 9/54 10/53
f 4/55 6/57 2/56
f 11/58 4/60 5/59
f 2/61 6/63 3/62
f 3/64 11/66 5/65
