g Object
v 0.0703 2.1523 0.1719
v -0.0938 2.0664 0.1602
v -0.0547 2.1406 0.2422
v -0.0273 2.1211 0.0586
v -0.0234 1.7734 0.2461
v -0.0039 1.8359 0.3398
v 0.0742 1.8047 0.3008
v 0.0352 1.7852 0.1992
v 0.1016 1.4375 0.1875
v 0.1602 1.4375 0.2188
v 0.1328 1.4688 0.1133
v 0.0156 1.7227 0.3516
v -0.2266 1.2188 -0.0469
v -0.2773 1.1641 0.3359
v -0.2656 1.6914 0.2969
v -0.2500 1.1953 0.1484
v -0.3008 2.2773 0.2773
v -0.2734 2.1953 0.0391
v -0.2188 1.6797 -0.0156
v -0.2617 2.2148 0.0234
v -0.2656 2.0664 -0.0469
v -0.2422 2.3711 -0.0586
v -0.2500 2.2266 -0.0234
v -0.2383 2.4883 -0.0664
v -0.2891 2.5625 0.1992
v -0.2578 2.5703 0.0547
v -0.1484 0.5547 0.0898
v -0.1250 0.7461 0.0586
v -0.0430 1.2383 0.0313
v 0.0195 1.2070 0.2695
v -0.1094 1.1641 0.3789
v -0.0156 1.6680 0.1523
v -0.0078 1.2070 0.2539
v -0.0469 1.2383 0.0508
v -0.1211 1.1641 0.3594
v 0.1172 2.1719 0.1797
v -0.1406 2.2891 0.1523
v -0.0586 1.6680 0.0664
v 0.1406 1.3555 0.0664
v 0.0391 1.3203 0.0039
v 0.1094 1.3555 0.0703
v 0.0977 1.1875 0.1406
v 0.0664 1.1953 0.0352
v -0.0977 0.5781 0.2539
v 0.0469 0.5664 0.1836
v 0.0078 0.5352 0.0273
v -0.0781 0.7461 0.1797
v -0.1328 0.1875 0.1953
v 0.0000 0.1875 0.2383
v -0.0469 0.1758 0.1563
v -0.1406 -0.0195 0.2969
v -0.0195 -0.0195 0.3047
v -0.1836 -0.0273 -0.0547
v 0.0195 -0.0078 -0.0664
v 0.0039 0.7539 0.1563
v 0.0078 0.7539 -0.0039
v -0.1016 1.6914 0.2852
v -0.1602 2.5313 0.1016
v -0.1602 2.5000 0.0117
v -0.1836 2.2461 0.0000
v -0.1602 2.3828 0.0273
v 0.1484 1.3125 0.1914
v 0.1836 1.3125 0.1797
v -0.6211 2.0977 0.1367
v -0.4531 2.0352 0.1953
v -0.5078 2.1094 0.2539
v -0.4883 2.0664 0.0703
v -0.5352 1.7227 0.2188
v -0.6211 1.7734 0.2813
v -0.6523 1.7422 0.1992
v -0.5625 1.7305 0.1406
v -0.5820 1.3633 0.1445
v -0.6484 1.3633 0.1484
v -0.5898 1.3867 0.0625
v -0.6328 1.6680 0.2813
v -0.2773 0.5469 0.1680
v -0.3047 0.7344 0.1133
v -0.4258 1.2070 -0.0195
v -0.5508 1.2070 0.1992
v -0.4492 1.2070 0.3398
v -0.4570 1.6797 0.0898
v -0.5156 1.2070 0.1914
v -0.4219 1.2070 0.0000
v -0.4297 1.2070 0.3242
v -0.6680 2.1211 0.1250
v -0.4180 2.2891 0.1094
v -0.3945 1.6797 0.0234
v -0.5898 1.2695 0.0195
v -0.5234 1.2695 -0.0742
v -0.5547 1.2695 0.0234
v -0.5508 1.1016 0.1055
v -0.5039 1.1016 0.0039
v -0.3633 0.5664 0.3125
v -0.4961 0.5352 0.2109
v -0.4180 0.5234 0.0703
v -0.3906 0.7461 0.2344
v -0.3125 0.1680 0.2461
v -0.4453 0.1758 0.2930
v -0.4063 0.1563 0.2109
v -0.3164 -0.0391 0.3203
v -0.4102 -0.0195 0.3945
v -0.5234 -0.0273 0.0000
v -0.6680 -0.0195 0.1445
v -0.4648 0.7344 0.1875
v -0.4258 0.7227 0.0273
v -0.4180 1.6914 0.2461
v -0.3750 2.5391 0.0586
v -0.3359 2.5078 -0.0195
v -0.3164 2.2461 -0.0273
v -0.3477 2.3828 -0.0078
v -0.5938 1.2383 0.1484
v -0.6328 1.2383 0.1328
vt 0.7500 0.3594
vt 0.7344 0.1719
vt 0.8438 0.3594
vt 0.9063 0.1875
vt 0.8906 0.3594
vt 0.9063 0.3594
vt 0.7344 0.1719
vt 0.7500 0.3594
vt 0.8438 0.3594
vt 0.9688 0.3750
vt 0.9688 0.1719
vt 0.9063 0.3594
vt 0.8438 0.1719
vt 0.8438 0.3594
vt 0.7344 0.1719
vt 0.9688 0.1719
vt 0.9063 0.1875
vt 0.9063 0.3594
vt 0.8594 0.2031
vt 0.8906 0.3594
vt 0.9063 0.1875
vt 0.8438 0.3594
vt 0.8594 0.2031
vt 0.7344 0.1719
vt 0.7656 0.0000
vt 0.7344 0.1719
vt 0.8594 0.0000
vt 0.9063 0.1875
vt 0.9844 0.0000
vt 0.9219 0.0000
vt 0.9688 0.1719
vt 0.9844 0.0000
vt 0.9063 0.1875
vt 0.8281 0.0000
vt 0.8438 0.1719
vt 0.7344 0.1719
vt 0.7344 0.1719
vt 0.7656 0.0000
vt 0.8281 0.0000
vt 0.8594 0.1563
vt 0.8594 0.0000
vt 0.7344 0.1719
vt 0.9063 0.1875
vt 0.9219 0.0000
vt 0.8594 0.1563
vt 0.9063 0.1875
vt 0.8594 0.1563
vt 0.8594 0.2031
vt 0.7344 0.1719
vt 0.8594 0.2031
vt 0.8594 0.1563
vt 0.3438 0.6094
vt 0.2344 0.3438
vt 0.2344 0.6094
vt 0.2344 0.3438
vt 0.3438 0.6094
vt 0.3438 0.3281
vt 0.3438 0.3281
vt 0.4844 0.6094
vt 0.4844 0.3281
vt 0.5469 0.9375
vt 0.5469 0.9375
vt 0.5469 0.9375
vt 0.5469 0.9375
vt 0.5469 0.9375
vt 0.5313 0.9375
vt 0.5469 0.9375
vt 0.5469 0.9375
vt 0.5469 0.9375
vt 0.5469 0.9375
vt 0.5469 0.9375
vt 0.5469 0.9375
vt 0.5313 0.9375
vt 0.5313 0.9375
vt 0.5469 0.9375
vt 0.5469 0.9375
vt 0.5469 0.9375
vt 0.5313 0.9375
vt 0.5313 0.9375
vt 0.5313 0.9375
vt 0.5469 0.9375
vt 0.0000 0.9219
vt 0.0938 0.9844
vt 0.2344 0.9844
vt 0.0000 0.9219
vt 0.2344 0.9844
vt 0.1875 0.8750
vt 0.2344 0.6094
vt 0.2344 0.8281
vt 0.3125 0.8594
vt 0.3125 0.8594
vt 0.3438 0.6094
vt 0.2344 0.6094
vt 0.3125 0.8594
vt 0.4844 0.8438
vt 0.3438 0.6094
vt 0.3438 0.3281
vt 0.3438 0.6094
vt 0.4844 0.6094
vt 0.4844 0.6094
vt 0.3438 0.6094
vt 0.4844 0.8438
vt 0.3281 0.1719
vt 0.2188 0.1563
vt 0.3125 0.1719
vt 0.3281 0.2969
vt 0.2188 0.1563
vt 0.3281 0.1719
vt 0.3125 0.1719
vt 0.3281 0.2969
vt 0.4531 0.2969
vt 0.3281 0.1719
vt 0.3438 0.0313
vt 0.4531 0.0625
vt 0.3281 0.2969
vt 0.3281 0.1719
vt 0.4531 0.2969
vt 0.4531 0.2969
vt 0.4688 0.2031
vt 0.3125 0.1719
vt 0.4688 0.2031
vt 0.4531 0.2969
vt 0.4531 0.2969
vt 0.4688 0.2031
vt 0.3281 0.1719
vt 0.4531 0.0625
vt 0.4531 0.0625
vt 0.3438 0.0313
vt 0.3125 0.1719
vt 0.3438 0.0313
vt 0.3281 0.1719
vt 0.3125 0.1719
vt 0.2188 0.1563
vt 0.3281 0.2969
vt 0.3125 0.1719
vt 0.4844 0.9844
vt 0.4844 0.9063
vt 0.3750 0.9844
vt 0.6719 0.1563
vt 0.5625 0.0000
vt 0.6406 0.0000
vt 0.5625 0.0000
vt 0.6406 0.1563
vt 0.6406 0.0000
vt 0.7188 0.0000
vt 0.7188 0.1563
vt 0.6719 0.1563
vt 0.6719 0.1563
vt 0.5625 0.1406
vt 0.5625 0.0000
vt 0.5625 0.0000
vt 0.5625 0.1406
vt 0.6406 0.1563
vt 0.5469 0.9375
vt 0.5313 0.9375
vt 0.5313 0.9375
vt 0.7188 0.1563
vt 0.6406 0.1563
vt 0.6406 0.3594
vt 0.7188 0.0000
vt 0.6719 0.1563
vt 0.6406 0.0000
vt 0.7188 0.1563
vt 0.6094 0.3594
vt 0.6719 0.1563
vt 0.6406 0.3594
vt 0.7344 0.3594
vt 0.7188 0.1563
vt 0.7188 0.1563
vt 0.7344 0.3594
vt 0.6094 0.3594
vt 0.0156 0.1406
vt 0.1094 0.3125
vt 0.0469 0.0000
vt 0.1094 0.3125
vt 0.2188 0.3125
vt 0.2031 0.1406
vt 0.0156 0.1406
vt 0.1094 0.3125
vt 0.1094 0.1406
vt 0.0000 0.3125
vt 0.1094 0.3125
vt 0.0156 0.1406
vt 0.1094 0.3125
vt 0.2188 0.3125
vt 0.2031 0.1406
vt 0.0469 0.0000
vt 0.1094 0.3125
vt 0.1719 0.0000
vt 0.1094 0.1406
vt 0.0156 0.0156
vt 0.2188 0.0156
vt 0.0156 0.0156
vt 0.1094 0.1406
vt 0.2188 0.0156
vt 0.0000 0.0000
vt 0.1094 0.1406
vt 0.1250 0.0000
vt 0.1094 0.1406
vt 0.0000 0.0000
vt 0.0313 0.1406
vt 0.0156 0.1406
vt 0.0000 0.3125
vt 0.1094 0.3125
vt 0.1094 0.3125
vt 0.2031 0.1406
vt 0.1719 0.0000
vt 0.1094 0.3125
vt 0.2031 0.1406
vt 0.1094 0.1406
vt 0.1719 0.1406
vt 0.1094 0.1406
vt 0.2031 0.0000
vt 0.0000 0.9219
vt 0.1875 0.8750
vt 0.0000 0.6094
vt 0.3125 0.8594
vt 0.4844 0.9063
vt 0.4844 0.8438
vt 0.1094 0.1406
vt 0.0000 0.0000
vt 0.2031 0.0000
vt 0.1094 0.1406
vt 0.0469 0.1406
vt 0.0000 0.0000
vt 0.7188 0.0000
vt 0.6406 0.0000
vt 0.6406 0.1563
vt 0.7188 0.0000
vt 0.6406 0.1563
vt 0.7188 0.1563
vt 0.6719 0.1563
vt 0.6094 0.3594
vt 0.5625 0.1406
vt 0.5625 0.1406
vt 0.6094 0.3594
vt 0.5469 0.3594
vt 0.5625 0.1406
vt 0.5469 0.3594
vt 0.6406 0.3594
vt 0.1094 0.6094
vt 0.2344 0.6094
vt 0.2344 0.3281
vt 0.0000 0.6094
vt 0.1094 0.6094
vt 0.0000 0.3281
vt 0.1563 0.3281
vt 0.0000 0.3281
vt 0.1094 0.6094
vt 0.1563 0.3281
vt 0.1094 0.6094
vt 0.2344 0.3281
vt 0.1094 0.6094
vt 0.0000 0.6094
vt 0.1875 0.8750
vt 0.1875 0.8750
vt 0.2344 0.8281
vt 0.1094 0.6094
vt 0.1094 0.6094
vt 0.2344 0.8281
vt 0.2344 0.6094
vt 0.6406 0.1563
vt 0.5625 0.1406
vt 0.6406 0.3594
vt 0.5625 0.9688
vt 0.5625 0.9844
vt 0.5313 0.9844
vt 0.5938 0.9688
vt 0.5625 0.9688
vt 0.5625 0.9844
vt 0.7500 0.8438
vt 0.9688 0.8438
vt 0.7500 0.5938
vt 0.9688 0.8438
vt 0.9688 0.6094
vt 0.7500 0.5938
vt 0.8438 0.4531
vt 0.9688 0.3750
vt 0.6406 0.3750
vt 0.8438 0.4531
vt 0.6406 0.3750
vt 0.7500 0.5938
vt 0.6406 0.3750
vt 0.6406 0.8438
vt 0.7500 0.5938
vt 0.7500 0.8438
vt 0.7500 0.5938
vt 0.6406 0.8438
vt 0.9688 0.4219
vt 0.8438 0.4531
vt 0.9688 0.6094
vt 0.8438 0.4531
vt 0.7500 0.5938
vt 0.9688 0.6094
vt 0.9688 0.3750
vt 0.8438 0.4531
vt 0.9688 0.4219
vt 0.5000 0.8594
vt 0.6406 0.8438
vt 0.6406 0.3750
vt 0.5000 0.3750
vt 0.5000 0.8594
vt 0.6406 0.3750
vt 0.9688 0.8438
vt 0.7500 0.8438
vt 0.6875 0.9688
vt 0.6875 0.9688
vt 0.7500 0.8438
vt 0.6406 0.8438
vt 0.5000 0.8594
vt 0.6875 0.9688
vt 0.6406 0.8438
vt 0.4531 0.0625
vt 0.4688 0.2031
vt 0.4688 0.2031
vt 0.4688 0.2031
vt 0.4531 0.0625
vt 0.3125 0.1719
vt 0.4688 0.2031
vt 0.4688 0.2031
vt 0.4531 0.2969
vt 0.4531 0.2969
vt 0.3281 0.1719
vt 0.4688 0.2031
vt 0.7500 0.3594
vt 0.8438 0.3594
vt 0.7344 0.1719
vt 0.9063 0.1875
vt 0.9063 0.3594
vt 0.8906 0.3594
vt 0.7344 0.1719
vt 0.8438 0.3594
vt 0.7500 0.3594
vt 0.9688 0.3750
vt 0.9063 0.3594
vt 0.9688 0.1719
vt 0.8438 0.1719
vt 0.7344 0.1719
vt 0.8438 0.3594
vt 0.9688 0.1719
vt 0.9063 0.3594
vt 0.9063 0.1875
vt 0.8594 0.2031
vt 0.9063 0.1875
vt 0.8906 0.3594
vt 0.8438 0.3594
vt 0.7344 0.1719
vt 0.8594 0.2031
vt 0.7656 0.0000
vt 0.8594 0.0000
vt 0.7344 0.1719
vt 0.9063 0.1875
vt 0.9219 0.0000
vt 0.9844 0.0000
vt 0.9688 0.1719
vt 0.9063 0.1875
vt 0.9844 0.0000
vt 0.8281 0.0000
vt 0.7344 0.1719
vt 0.8438 0.1719
vt 0.7344 0.1719
vt 0.8281 0.0000
vt 0.7656 0.0000
vt 0.8594 0.1563
vt 0.7344 0.1719
vt 0.8594 0.0000
vt 0.9063 0.1875
vt 0.8594 0.1563
vt 0.9219 0.0000
vt 0.9063 0.1875
vt 0.8594 0.2031
vt 0.8594 0.1563
vt 0.7344 0.1719
vt 0.8594 0.1563
vt 0.8594 0.2031
vt 0.3438 0.6094
vt 0.2344 0.6094
vt 0.2344 0.3438
vt 0.2344 0.3438
vt 0.3438 0.3281
vt 0.3438 0.6094
vt 0.3438 0.3281
vt 0.4844 0.3281
vt 0.4844 0.6094
vt 0.5469 0.9375
vt 0.5469 0.9375
vt 0.5469 0.9375
vt 0.5469 0.9375
vt 0.5313 0.9375
vt 0.5469 0.9375
vt 0.5469 0.9375
vt 0.5469 0.9375
vt 0.5469 0.9375
vt 0.5469 0.9375
vt 0.5469 0.9375
vt 0.5469 0.9375
vt 0.5313 0.9375
vt 0.5469 0.9375
vt 0.5313 0.9375
vt 0.5469 0.9375
vt 0.5313 0.9375
vt 0.5469 0.9375
vt 0.5313 0.9375
vt 0.5469 0.9375
vt 0.5313 0.9375
vt 0.0000 0.9219
vt 0.2344 0.9844
vt 0.0938 0.9844
vt 0.0000 0.9219
vt 0.1875 0.8750
vt 0.2344 0.9844
vt 0.2344 0.6094
vt 0.3125 0.8594
vt 0.2344 0.8281
vt 0.3125 0.8594
vt 0.2344 0.6094
vt 0.3438 0.6094
vt 0.3125 0.8594
vt 0.3438 0.6094
vt 0.4844 0.8438
vt 0.3438 0.3281
vt 0.4844 0.6094
vt 0.3438 0.6094
vt 0.4844 0.6094
vt 0.4844 0.8438
vt 0.3438 0.6094
vt 0.3281 0.1719
vt 0.3125 0.1719
vt 0.2188 0.1563
vt 0.3281 0.2969
vt 0.3281 0.1719
vt 0.2188 0.1563
vt 0.3125 0.1719
vt 0.4531 0.2969
vt 0.3281 0.2969
vt 0.3281 0.1719
vt 0.4531 0.0625
vt 0.3438 0.0313
vt 0.3281 0.2969
vt 0.4531 0.2969
vt 0.3281 0.1719
vt 0.4531 0.2969
vt 0.3125 0.1719
vt 0.4688 0.2031
vt 0.4688 0.2031
vt 0.4531 0.2969
vt 0.4531 0.2969
vt 0.4688 0.2031
vt 0.4531 0.0625
vt 0.3281 0.1719
vt 0.4531 0.0625
vt 0.3125 0.1719
vt 0.3438 0.0313
vt 0.3438 0.0313
vt 0.3125 0.1719
vt 0.3281 0.1719
vt 0.2188 0.1563
vt 0.3125 0.1719
vt 0.3281 0.2969
vt 0.4844 0.9844
vt 0.3750 0.9844
vt 0.4844 0.9063
vt 0.6719 0.1563
vt 0.6406 0.0000
vt 0.5625 0.0000
vt 0.5625 0.0000
vt 0.6406 0.0000
vt 0.6406 0.1563
vt 0.7188 0.0000
vt 0.6719 0.1563
vt 0.7188 0.1563
vt 0.6719 0.1563
vt 0.5625 0.0000
vt 0.5625 0.1406
vt 0.5625 0.0000
vt 0.6406 0.1563
vt 0.5625 0.1406
vt 0.5469 0.9375
vt 0.5313 0.9375
vt 0.5313 0.9375
vt 0.7188 0.1563
vt 0.6406 0.3594
vt 0.6406 0.1563
vt 0.7188 0.0000
vt 0.6406 0.0000
vt 0.6719 0.1563
vt 0.7188 0.1563
vt 0.6719 0.1563
vt 0.6094 0.3594
vt 0.6406 0.3594
vt 0.7188 0.1563
vt 0.7344 0.3594
vt 0.7188 0.1563
vt 0.6094 0.3594
vt 0.7344 0.3594
vt 0.0156 0.1406
vt 0.0469 0.0000
vt 0.1094 0.3125
vt 0.1094 0.3125
vt 0.2031 0.1406
vt 0.2188 0.3125
vt 0.0156 0.1406
vt 0.1094 0.1406
vt 0.1094 0.3125
vt 0.0000 0.3125
vt 0.0156 0.1406
vt 0.1094 0.3125
vt 0.1094 0.3125
vt 0.2031 0.1406
vt 0.2188 0.3125
vt 0.0469 0.0000
vt 0.1719 0.0000
vt 0.1094 0.3125
vt 0.1094 0.1406
vt 0.2188 0.0156
vt 0.0156 0.0156
vt 0.0156 0.0156
vt 0.2188 0.0156
vt 0.1094 0.1406
vt 0.0000 0.0000
vt 0.1250 0.0000
vt 0.1094 0.1406
vt 0.1094 0.1406
vt 0.0313 0.1406
vt 0.0000 0.0000
vt 0.0156 0.1406
vt 0.1094 0.3125
vt 0.0000 0.3125
vt 0.1094 0.3125
vt 0.1719 0.0000
vt 0.2031 0.1406
vt 0.1094 0.3125
vt 0.1094 0.1406
vt 0.2031 0.1406
vt 0.1719 0.1406
vt 0.2031 0.0000
vt 0.1094 0.1406
vt 0.0000 0.9219
vt 0.0000 0.6094
vt 0.1875 0.8750
vt 0.3125 0.8594
vt 0.4844 0.8438
vt 0.4844 0.9063
vt 0.1094 0.1406
vt 0.2031 0.0000
vt 0.0000 0.0000
vt 0.1094 0.1406
vt 0.0000 0.0000
vt 0.0469 0.1406
vt 0.7188 0.0000
vt 0.6406 0.1563
vt 0.6406 0.0000
vt 0.7188 0.0000
vt 0.7188 0.1563
vt 0.6406 0.1563
vt 0.6719 0.1563
vt 0.5625 0.1406
vt 0.6094 0.3594
vt 0.5625 0.1406
vt 0.5469 0.3594
vt 0.6094 0.3594
vt 0.5625 0.1406
vt 0.6406 0.3594
vt 0.5469 0.3594
vt 0.1094 0.6094
vt 0.2344 0.3281
vt 0.2344 0.6094
vt 0.0000 0.6094
vt 0.0000 0.3281
vt 0.1094 0.6094
vt 0.1563 0.3281
vt 0.1094 0.6094
vt 0.0000 0.3281
vt 0.1563 0.3281
vt 0.2344 0.3281
vt 0.1094 0.6094
vt 0.1094 0.6094
vt 0.1875 0.8750
vt 0.0000 0.6094
vt 0.1875 0.8750
vt 0.1094 0.6094
vt 0.2344 0.8281
vt 0.1094 0.6094
vt 0.2344 0.6094
vt 0.2344 0.8281
vt 0.6406 0.1563
vt 0.6406 0.3594
vt 0.5625 0.1406
vt 0.5625 0.9688
vt 0.5313 0.9844
vt 0.5625 0.9844
vt 0.5938 0.9688
vt 0.5625 0.9844
vt 0.5625 0.9688
vt 0.7500 0.8438
vt 0.7500 0.5938
vt 0.9688 0.8438
vt 0.9688 0.8438
vt 0.7500 0.5938
vt 0.9688 0.6094
vt 0.8438 0.4531
vt 0.6406 0.3750
vt 0.9688 0.3750
vt 0.8438 0.4531
vt 0.7500 0.5938
vt 0.6406 0.3750
vt 0.6406 0.3750
vt 0.7500 0.5938
vt 0.6406 0.8438
vt 0.7500 0.8438
vt 0.6406 0.8438
vt 0.7500 0.5938
vt 0.9688 0.4219
vt 0.9688 0.6094
vt 0.8438 0.4531
vt 0.8438 0.4531
vt 0.9688 0.6094
vt 0.7500 0.5938
vt 0.9688 0.3750
vt 0.9688 0.4219
vt 0.8438 0.4531
vt 0.5000 0.8594
vt 0.6406 0.3750
vt 0.6406 0.8438
vt 0.5000 0.3750
vt 0.6406 0.3750
vt 0.5000 0.8594
vt 0.9688 0.8438
vt 0.6875 0.9688
vt 0.7500 0.8438
vt 0.6875 0.9688
vt 0.6406 0.8438
vt 0.7500 0.8438
vt 0.5000 0.8594
vt 0.6406 0.8438
vt 0.6875 0.9688
vt 0.4531 0.0625
vt 0.4688 0.2031
vt 0.4688 0.2031
vt 0.4688 0.2031
vt 0.3125 0.1719
vt 0.4531 0.0625
vt 0.4688 0.2031
vt 0.4531 0.2969
vt 0.4688 0.2031
vt 0.4531 0.2969
vt 0.4688 0.2031
vt 0.3281 0.1719
vt 0.3750 0.9844
vt 0.2344 0.9844
vt 0.3125 0.8594
vt 0.3750 0.9844
vt 0.3125 0.8594
vt 0.4844 0.9063
vt 0.3750 0.9844
vt 0.4844 0.9063
vt 0.3125 0.8594
vt 0.3750 0.9844
vt 0.3125 0.8594
vt 0.2344 0.9844
f 2/1 4/3 5/2
f 7/4 1/6 3/5
f 5/7 3/9 2/8
f 4/10 1/12 8/11
f 8/13 5/15 4/14
f 8/16 1/18 7/17
f 6/19 7/21 3/20
f 3/22 5/24 6/23
f 9/25 10/27 5/26
f 7/28 10/30 11/29
f 8/31 7/33 11/32
f 11/34 5/36 8/35
f 5/37 11/39 9/38
f 12/40 5/42 10/41
f 7/43 12/45 10/44
f 7/46 6/48 12/47
f 5/49 12/51 6/50
f 38/52 32/54 30/53
f 30/55 29/57 38/56
f 29/58 13/60 19/59
f 33/61 34/63 30/62
f 34/64 13/66 29/65
f 30/67 34/69 29/68
f 30/70 31/72 33/71
f 35/73 33/75 31/74
f 31/76 14/78 35/77
f 16/79 35/81 14/80
f 17/82 36/84 37/83
f 17/85 3/87 36/86
f 32/88 4/90 2/89
f 4/91 32/93 38/92
f 4/94 38/96 21/95
f 29/97 19/99 38/98
f 19/100 21/102 38/101
f 39/103 41/105 40/104
f 11/106 39/108 40/107
f 41/109 9/111 11/110
f 39/112 42/114 43/113
f 11/115 10/117 39/116
f 9/118 41/120 62/119
f 62/121 10/123 9/122
f 63/124 42/126 39/125
f 42/127 41/129 43/128
f 43/130 41/132 39/131
f 40/133 41/135 11/134
f 20/136 37/138 18/137
f 47/139 44/141 45/140
f 45/142 46/144 56/143
f 27/145 47/147 28/146
f 47/148 45/150 55/149
f 45/151 56/153 55/152
f 34/154 16/156 13/155
f 28/157 34/159 56/158
f 27/160 44/162 47/161
f 28/163 47/165 35/164
f 34/166 28/168 16/167
f 28/169 35/171 16/170
f 48/172 51/174 44/173
f 44/175 49/177 45/176
f 49/178 50/180 46/179
f 45/181 49/183 46/182
f 46/184 48/186 27/185
f 51/187 52/189 44/188
f 48/190 53/192 51/191
f 52/193 54/195 49/194
f 53/196 54/198 52/197
f 52/199 51/201 53/200
f 48/202 44/204 27/203
f 44/205 52/207 49/206
f 46/208 50/210 48/209
f 49/211 54/213 50/212
f 17/214 15/216 3/215
f 4/217 21/219 18/218
f 50/220 54/222 53/221
f 50/223 53/225 48/224
f 27/226 56/228 46/227
f 27/229 28/231 56/230
f 47/232 55/234 35/233
f 55/235 33/237 35/236
f 55/238 34/240 33/239
f 57/241 30/243 32/242
f 15/244 14/246 57/245
f 31/247 57/249 14/248
f 31/250 30/252 57/251
f 57/253 3/255 15/254
f 3/256 57/258 2/257
f 57/259 32/261 2/260
f 56/262 34/264 55/263
f 36/265 3/267 1/266
f 4/268 36/270 1/269
f 59/271 61/273 24/272
f 24/274 61/276 22/275
f 60/277 37/279 20/278
f 60/280 61/282 37/281
f 37/283 61/285 58/284
f 59/286 58/288 61/287
f 23/289 22/291 60/290
f 60/292 22/294 61/293
f 20/295 23/297 60/296
f 25/298 37/300 58/299
f 17/301 37/303 25/302
f 24/304 26/306 59/305
f 26/307 58/309 59/308
f 25/310 58/312 26/311
f 42/313 63/315 62/314
f 62/316 41/318 42/317
f 63/319 10/321 62/320
f 10/322 63/324 39/323
f 65/325 68/327 67/326
f 70/328 66/330 64/329
f 68/331 65/333 66/332
f 67/334 71/336 64/335
f 71/337 67/339 68/338
f 71/340 70/342 64/341
f 69/343 66/345 70/344
f 66/346 69/348 68/347
f 72/349 68/351 73/350
f 70/352 74/354 73/353
f 71/355 74/357 70/356
f 74/358 71/360 68/359
f 68/361 72/363 74/362
f 75/364 73/366 68/365
f 70/367 73/369 75/368
f 70/370 75/372 69/371
f 68/373 69/375 75/374
f 87/376 79/378 81/377
f 79/379 87/381 78/380
f 78/382 19/384 13/383
f 82/385 79/387 83/386
f 83/388 78/390 13/389
f 79/391 78/393 83/392
f 79/394 82/396 80/395
f 84/397 80/399 82/398
f 80/400 84/402 14/401
f 16/403 14/405 84/404
f 17/406 86/408 85/407
f 17/409 85/411 66/410
f 81/412 65/414 67/413
f 67/415 87/417 81/416
f 67/418 21/420 87/419
f 78/421 87/423 19/422
f 19/424 87/426 21/425
f 88/427 89/429 90/428
f 74/430 89/432 88/431
f 90/433 74/435 72/434
f 88/436 92/438 91/437
f 74/439 88/441 73/440
f 72/442 111/444 90/443
f 111/445 72/447 73/446
f 112/448 88/450 91/449
f 91/451 92/453 90/452
f 92/454 88/456 90/455
f 89/457 74/459 90/458
f 20/460 18/462 86/461
f 96/463 94/465 93/464
f 94/466 105/468 95/467
f 76/469 77/471 96/470
f 96/472 104/474 94/473
f 94/475 104/477 105/476
f 83/478 13/480 16/479
f 77/481 105/483 83/482
f 76/484 96/486 93/485
f 77/487 84/489 96/488
f 83/490 16/492 77/491
f 77/493 16/495 84/494
f 97/496 93/498 100/497
f 93/499 94/501 98/500
f 98/502 95/504 99/503
f 94/505 95/507 98/506
f 95/508 76/510 97/509
f 100/511 93/513 101/512
f 97/514 100/516 102/515
f 101/517 98/519 103/518
f 102/520 101/522 103/521
f 101/523 102/525 100/524
f 97/526 76/528 93/527
f 93/529 98/531 101/530
f 95/532 97/534 99/533
f 98/535 99/537 103/536
f 17/538 66/540 15/539
f 67/541 18/543 21/542
f 99/544 102/546 103/545
f 99/547 97/549 102/548
f 76/550 95/552 105/551
f 76/553 105/555 77/554
f 96/556 84/558 104/557
f 104/559 84/561 82/560
f 104/562 82/564 83/563
f 106/565 81/567 79/566
f 15/568 106/570 14/569
f 80/571 14/573 106/572
f 80/574 106/576 79/575
f 106/577 15/579 66/578
f 66/580 65/582 106/581
f 106/583 65/585 81/584
f 105/586 104/588 83/587
f 85/589 64/591 66/590
f 67/592 64/594 85/593
f 108/595 24/597 110/596
f 24/598 22/600 110/599
f 109/601 20/603 86/602
f 109/604 86/606 110/605
f 86/607 107/609 110/608
f 108/610 110/612 107/611
f 23/613 109/615 22/614
f 109/616 110/618 22/617
f 20/619 109/621 23/620
f 25/622 107/624 86/623
f 17/625 25/627 86/626
f 24/628 108/630 26/629
f 26/631 108/633 107/632
f 25/634 26/636 107/635
f 91/637 111/639 112/638
f 111/640 91/642 90/641
f 112/643 111/645 73/644
f 73/646 88/648 112/647
f 86/649 67/651 85/650
f 86/652 18/654 67/653
f 37/655 4/657 18/656
f 37/658 36/660 4/659
