g Object
v -0.9727 0.1797 -0.9336
v -0.9727 0.1797 1.9141
v -0.9258 0.6836 -0.9336
v -0.9258 0.6836 1.8203
v 0.9805 0.1797 -0.9336
v 0.9805 0.1797 1.9141
v 0.9297 0.6836 -0.9336
v 0.9297 0.6836 1.8203
v -0.3750 0.6836 -0.3711
v -0.3750 0.6836 -0.8633
v 0.3828 0.6836 -0.8633
v 0.3828 0.6836 -0.3711
v -0.3750 0.8438 -0.8633
v 0.3828 0.8438 -0.8633
v 0.8438 -0.5000 -0.8633
v -0.8398 -0.5000 -0.8633
v 0.7500 0.2461 -0.8086
v -0.7461 0.2461 -0.8086
v 0.8438 -0.5000 1.8320
v -0.8398 -0.5000 1.8320
v 0.7500 0.2461 1.7539
v -0.7461 0.2461 1.7539
vt 0.3594 1.0000
vt 0.4688 1.0000
vt 0.4688 0.2500
vt 0.4688 0.2500
vt 0.3594 0.2500
vt 0.3594 1.0000
vt 0.3594 1.0000
vt 0.3594 0.2500
vt 0.4688 0.2500
vt 0.4688 0.2500
vt 0.4688 1.0000
vt 0.3594 1.0000
vt 1.0000 0.2031
vt 1.0000 0.3438
vt 0.4531 0.3438
vt 0.4531 0.3438
vt 0.4531 0.2031
vt 1.0000 0.2031
vt 0.9219 0.0000
vt 0.9844 0.2031
vt 0.4219 0.2031
vt 0.4219 0.2031
vt 0.4688 0.0000
vt 0.9219 0.0000
vt 0.4688 0.3281
vt 0.9844 0.3281
vt 0.8281 0.8438
vt 0.4688 0.3281
vt 0.8281 0.8438
vt 0.6250 0.8438
vt 0.8281 0.8438
vt 0.9844 0.3281
vt 0.9844 0.9844
vt 0.8281 0.8438
vt 0.9844 0.9844
vt 0.8281 0.9531
vt 0.4688 0.3281
vt 0.6250 0.8438
vt 0.6250 0.9531
vt 0.4688 0.3281
vt 0.6250 0.9531
vt 0.4688 0.9844
vt 0.4688 0.9844
vt 0.6250 0.9531
vt 0.8281 0.9531
vt 0.4688 0.9844
vt 0.8281 0.9531
vt 0.9844 0.9844
vt 0.9219 0.0000
vt 0.9219 0.1719
vt 0.9844 0.2031
vt 0.9219 0.1719
vt 0.4688 0.1719
vt 0.4219 0.2031
vt 0.4219 0.2031
vt 0.9844 0.2031
vt 0.9219 0.1719
vt 0.4688 0.0000
vt 0.4219 0.2031
vt 0.4688 0.1719
vt 0.0000 0.0156
vt 0.3281 0.0156
vt 0.3281 0.9844
vt 0.3281 0.9844
vt 0.0000 0.9844
vt 0.0000 0.0156
vt 0.0000 1.0000
vt 0.0000 0.0000
vt 0.3438 0.0000
vt 0.3438 0.0000
vt 0.3438 0.9844
vt 0.0000 1.0000
vt 0.0000 0.0000
vt 0.3438 0.0000
vt 0.3438 0.9844
vt 0.3438 0.9844
vt 0.0000 0.9844
vt 0.0000 0.0000
vt 0.3438 0.9844
vt 0.0000 0.9844
vt 0.0000 0.0000
vt 0.0000 0.0000
vt 0.3438 0.0000
vt 0.3438 0.9844
f 1/1 4/3 3/2
f 4/4 1/6 2/5
f 5/7 8/9 6/8
f 8/10 5/12 7/11
f 2/13 8/15 4/14
f 8/16 2/18 6/17
f 9/19 14/21 13/20
f 14/22 9/24 12/23
f 8/25 9/27 4/26
f 8/28 12/30 9/29
f 9/31 3/33 4/32
f 9/34 10/36 3/35
f 8/37 11/39 12/38
f 8/40 7/42 11/41
f 7/43 10/45 11/44
f 7/46 3/48 10/47
f 9/49 13/51 10/50
f 10/52 14/54 11/53
f 14/55 10/57 13/56
f 12/58 11/60 14/59
f 15/61 18/63 17/62
f 18/64 15/66 16/65
f 19/67 22/69 20/68
f 22/70 19/72 21/71
f 16/73 22/75 18/74
f 22/76 16/78 20/77
f 17/79 19/81 15/80
f 19/82 17/84 21/83
