g Object
v 0.6172 -0.5117 0.0000
v -0.6367 -0.5117 0.0000
v 0.7383 1.8477 0.0000
v -0.7539 1.8477 0.0000
v 0.6172 2.4453 0.0000
v -0.6367 2.4453 0.0000
v 0.3281 2.6289 0.0000
v -0.3477 2.6289 0.0000
v 0.4258 3.0586 0.0000
v -0.4414 3.0586 0.0000
v 0.2578 3.3047 0.0000
v -0.2734 3.3047 0.0000
v 0.4258 -0.5117 0.5391
v -0.4414 -0.5117 0.5391
v 0.5156 1.8477 0.7813
v -0.5352 1.8477 0.7813
v 0.4258 2.4453 0.5391
v -0.4414 2.4453 0.5391
v 0.2266 2.6289 0.5391
v -0.2461 2.6289 0.5391
v 0.2969 3.0586 0.6680
v -0.3164 3.0586 0.6680
v 0.1797 3.3047 0.5391
v -0.1953 3.3047 0.5391
vt 0.2500 0.0000
vt 0.7031 0.0000
vt 0.7656 0.5313
vt 0.7656 0.5313
vt 0.1875 0.5313
vt 0.2500 0.0000
vt 0.1875 0.5313
vt 0.7656 0.5313
vt 0.7031 0.6563
vt 0.7031 0.6563
vt 0.2500 0.6563
vt 0.1875 0.5313
vt 0.2500 0.6563
vt 0.7031 0.6563
vt 0.6875 0.7500
vt 0.6875 0.7500
vt 0.2344 0.7500
vt 0.2500 0.6563
vt 0.3125 0.7500
vt 0.6094 0.7500
vt 0.6563 0.8594
vt 0.6563 0.8594
vt 0.2656 0.8594
vt 0.3125 0.7500
vt 0.2656 0.8594
vt 0.6563 0.8594
vt 0.5781 0.9844
vt 0.5781 0.9844
vt 0.3438 0.9844
vt 0.2656 0.8594
vt 0.5938 0.3594
vt 0.7344 0.3594
vt 0.7344 0.4844
vt 0.7344 0.4844
vt 0.5938 0.4844
vt 0.5938 0.3594
vt 0.8594 0.0000
vt 0.9531 0.5313
vt 0.7656 0.5313
vt 0.7656 0.5313
vt 0.7031 0.0000
vt 0.8594 0.0000
vt 0.9531 0.5313
vt 0.8750 0.6875
vt 0.7031 0.6563
vt 0.7031 0.6563
vt 0.7656 0.5313
vt 0.9531 0.5313
vt 0.8750 0.6875
vt 0.7656 0.7813
vt 0.6875 0.7500
vt 0.6875 0.7500
vt 0.7031 0.6563
vt 0.8750 0.6875
vt 0.8125 0.7500
vt 0.7813 0.9219
vt 0.6563 0.8594
vt 0.6563 0.8594
vt 0.6563 0.7500
vt 0.8125 0.7500
vt 0.7813 0.9219
vt 0.6250 0.9688
vt 0.5938 0.9063
vt 0.5938 0.9063
vt 0.6563 0.8594
vt 0.7813 0.9219
vt 0.6250 0.9688
vt 0.3281 0.9688
vt 0.3438 0.9063
vt 0.3438 0.9063
vt 0.5938 0.9219
vt 0.6250 0.9688
vt 0.3281 0.9688
vt 0.1406 0.8906
vt 0.2656 0.8594
vt 0.2656 0.8594
vt 0.3438 0.9063
vt 0.3281 0.9688
vt 0.1406 0.8906
vt 0.1406 0.7500
vt 0.2813 0.7500
vt 0.2813 0.7500
vt 0.2656 0.8594
vt 0.1406 0.8906
vt 0.1875 0.7813
vt 0.0781 0.6719
vt 0.2500 0.6563
vt 0.2500 0.6563
vt 0.2344 0.7500
vt 0.1875 0.7813
vt 0.0781 0.6719
vt 0.0000 0.5313
vt 0.1875 0.5313
vt 0.1875 0.5313
vt 0.2500 0.6563
vt 0.0781 0.6719
vt 0.0000 0.5313
vt 0.0938 0.0000
vt 0.2500 0.0000
vt 0.2500 0.0000
vt 0.1875 0.5313
vt 0.0000 0.5313
f 13/1 16/3 14/2
f 16/4 13/6 15/5
f 15/7 18/9 16/8
f 18/10 15/12 17/11
f 17/13 20/15 18/14
f 20/16 17/18 19/17
f 19/19 22/21 20/20
f 22/22 19/24 21/23
f 21/25 24/27 22/26
f 24/28 21/30 23/29
f 1/31 14/33 2/32
f 14/34 1/36 13/35
f 2/37 16/39 4/38
f 16/40 2/42 14/41
f 4/43 18/45 6/44
f 18/46 4/48 16/47
f 6/49 20/51 8/50
f 20/52 6/54 18/53
f 8/55 22/57 10/56
f 22/58 8/60 20/59
f 10/61 24/63 12/62
f 24/64 10/66 22/65
f 12/67 23/69 11/68
f 23/70 12/72 24/71
f 11/73 21/75 9/74
f 21/76 11/78 23/77
f 9/79 19/81 7/80
f 19/82 9/84 21/83
f 7/85 17/87 5/86
f 17/88 7/90 19/89
f 5/91 15/93 3/92
f 15/94 5/96 17/95
f 3/97 13/99 1/98
f 13/100 3/102 15/101
