g Object
v 1.1445 1.0352 -0.1055
v -1.1406 1.0352 -0.1055
v 1.1445 1.0352 0.0938
v -1.1406 1.0352 0.0938
v 1.6719 -0.4922 -0.1523
v -1.6641 -0.4922 -0.1523
v 1.6719 -0.4922 0.1445
v -1.6641 -0.4922 0.1445
v 2.6172 1.1133 1.0039
v -2.6094 1.1133 1.0039
v 2.6172 1.1133 -1.0156
v -2.6094 1.1133 -1.0156
v 2.6172 1.2617 1.0039
v -2.6094 1.2617 1.0039
v 2.6172 1.2617 -1.0156
v -2.6094 1.2617 -1.0156
vt 0.1406 0.0000
vt 0.8438 0.0000
vt 0.9844 0.3438
vt 0.9844 0.3438
vt 0.0000 0.3438
vt 0.1406 0.0000
vt 0.0000 0.0000
vt 1.0000 0.0000
vt 1.0000 0.1406
vt 1.0000 0.1406
vt 0.0000 0.1406
vt 0.0000 0.0000
vt 0.8438 0.0000
vt 0.1406 0.0000
vt 0.0000 0.3438
vt 0.0000 0.3438
vt 0.9844 0.3438
vt 0.8438 0.0000
vt 0.0000 0.0000
vt 1.0000 0.0000
vt 1.0000 0.1406
vt 1.0000 0.1406
vt 0.0000 0.1406
vt 0.0000 0.0000
vt 0.0000 0.9531
vt 0.9844 0.9531
vt 0.9844 0.5156
vt 0.9844 0.5156
vt 0.0000 0.5156
vt 0.0000 0.9531
vt 0.0000 0.0000
vt 1.0000 0.0000
vt 1.0000 0.1406
vt 1.0000 0.1406
vt 0.0000 0.1406
vt 0.0000 0.0000
vt 0.0000 0.0000
vt 1.0000 0.0000
vt 1.0000 0.1406
vt 1.0000 0.1406
vt 0.0000 0.1406
vt 0.0000 0.0000
vt 0.0000 0.0000
vt 1.0000 0.0000
vt 1.0000 0.1406
vt 1.0000 0.1406
vt 0.0000 0.1406
vt 0.0000 0.0000
vt 0.0000 0.0000
vt 1.0000 0.0000
vt 1.0000 0.1406
vt 1.0000 0.1406
vt 0.0000 0.1406
vt 0.0000 0.0000
vt 0.0000 0.3438
vt 0.2656 0.1875
vt 0.9844 0.3438
vt 0.9844 0.3438
vt 0.2656 0.1875
vt 0.7188 0.1875
vt 0.0000 0.0000
vt 0.2656 0.1406
vt 0.0000 0.3438
vt 0.0000 0.3438
vt 0.2656 0.1406
vt 0.2656 0.1875
vt 0.9844 0.0000
vt 0.7188 0.1406
vt 0.0000 0.0000
vt 0.0000 0.0000
vt 0.7188 0.1406
vt 0.2656 0.1406
vt 0.7188 0.1875
vt 0.7188 0.1406
vt 0.9844 0.3438
vt 0.9844 0.3438
vt 0.7188 0.1406
vt 0.9844 0.0000
f 1/1 6/3 2/2
f 6/4 1/6 5/5
f 2/7 8/9 4/8
f 8/10 2/12 6/11
f 4/13 7/15 3/14
f 7/16 4/18 8/17
f 3/19 5/21 1/20
f 5/22 3/24 7/23
f 13/25 16/27 14/26
f 16/28 13/30 15/29
f 9/31 14/33 10/32
f 14/34 9/36 13/35
f 10/37 16/39 12/38
f 16/40 10/42 14/41
f 12/43 15/45 11/44
f 15/46 12/48 16/47
f 11/49 13/51 9/50
f 13/52 11/54 15/53
f 9/55 10/57 3/56
f 10/58 4/60 3/59
f 11/61 9/63 1/62
f 9/64 3/66 1/65
f 12/67 11/69 2/68
f 11/70 1/72 2/71
f 4/73 10/75 2/74
f 10/76 12/78 2/77
