g Object
v 0.2148 -0.4922 -0.2266
v -0.2070 -0.4922 -0.2266
v -0.2070 -0.4922 0.2227
v 0.2148 -0.4922 0.2227
v 0.1484 0.4570 -0.1563
v -0.1406 0.4570 -0.1563
v -0.1406 0.4570 0.1523
v 0.1484 0.4570 0.1523
v 0.4375 0.5273 0.4531
v -0.4297 0.5273 0.4531
v -0.4297 0.5273 -0.4570
v 0.4375 0.5273 -0.4570
v 0.4375 0.4609 0.4531
v -0.4297 0.4609 0.4531
v -0.4297 0.4609 -0.4570
v 0.4375 0.4609 -0.4570
vt 0.4688 0.0000
vt 0.9688 0.0000
vt 0.9688 0.0000
vt 0.9688 0.0000
vt 0.4688 0.0000
vt 0.4688 0.0000
vt 0.5313 0.9688
vt 0.8750 0.9688
vt 0.9688 0.0000
vt 0.9688 0.0000
vt 0.4688 0.0000
vt 0.5313 0.9688
vt 0.6250 1.0000
vt 0.8125 1.0000
vt 0.9688 0.0000
vt 0.9688 0.0000
vt 0.4688 0.0000
vt 0.6250 1.0000
vt 0.8750 0.9688
vt 0.5313 0.9688
vt 0.4688 0.0000
vt 0.4688 0.0000
vt 0.9688 0.0000
vt 0.8750 0.9688
vt 0.6563 0.9688
vt 0.8125 0.9688
vt 0.9688 0.0000
vt 0.9688 0.0000
vt 0.5000 0.0000
vt 0.6563 0.9688
vt 0.0000 0.9688
vt 0.5000 0.9688
vt 0.5000 0.5000
vt 0.5000 0.5000
vt 0.0000 0.5000
vt 0.0000 0.9688
vt 0.0000 0.4063
vt 0.4375 0.4063
vt 0.4375 0.3750
vt 0.4375 0.3750
vt 0.0000 0.3750
vt 0.0000 0.4063
vt 0.4375 0.4063
vt 0.4375 0.4063
vt 0.4375 0.3750
vt 0.4375 0.3750
vt 0.4375 0.3750
vt 0.4375 0.4063
vt 0.4375 0.4063
vt 0.0000 0.4063
vt 0.0000 0.3750
vt 0.0000 0.3750
vt 0.4375 0.3750
vt 0.4375 0.4063
vt 0.0000 0.4063
vt 0.0000 0.4063
vt 0.0000 0.3750
vt 0.0000 0.3750
vt 0.0000 0.3750
vt 0.0000 0.4063
vt 0.0000 0.9375
vt 0.1250 0.8125
vt 0.4375 0.9375
vt 0.4375 0.9375
vt 0.1250 0.8125
vt 0.2813 0.8125
vt 0.0000 0.5000
vt 0.1250 0.6563
vt 0.0000 0.9375
vt 0.0000 0.9375
vt 0.1250 0.6563
vt 0.1250 0.8125
vt 0.4375 0.5000
vt 0.2813 0.6563
vt 0.0000 0.5000
vt 0.0000 0.5000
vt 0.2813 0.6563
vt 0.1250 0.6563
vt 0.2813 0.8125
vt 0.2813 0.6563
vt 0.4375 0.9375
vt 0.4375 0.9375
vt 0.2813 0.6563
vt 0.4375 0.5000
f 1/1 3/3 2/2
f 3/4 1/6 4/5
f 5/7 2/9 6/8
f 2/10 5/12 1/11
f 6/13 3/15 7/14
f 3/16 6/18 2/17
f 7/19 4/21 8/20
f 4/22 7/24 3/23
f 8/25 1/27 5/26
f 1/28 8/30 4/29
f 9/31 11/33 10/32
f 11/34 9/36 12/35
f 13/37 10/39 14/38
f 10/40 13/42 9/41
f 14/43 11/45 15/44
f 11/46 14/48 10/47
f 15/49 12/51 16/50
f 12/52 15/54 11/53
f 16/55 9/57 13/56
f 9/58 16/60 12/59
f 13/61 14/63 8/62
f 14/64 7/66 8/65
f 16/67 13/69 5/68
f 13/70 8/72 5/71
f 15/73 16/75 6/74
f 16/76 5/78 6/77
f 7/79 14/81 6/80
f 14/82 15/84 6/83
