g Object
v 1.0117 -0.4727 -0.6602
v -1.0156 -0.4727 -0.6602
v 1.0117 0.9609 -0.6602
v 0.6758 0.5117 -0.6602
v -0.6836 0.5117 -0.6602
v -1.0156 0.9609 -0.6602
v 1.0117 -0.4727 0.5195
v -1.0156 -0.4727 0.5195
v -1.0156 0.9609 0.3008
v -0.6836 0.5117 0.3008
v 0.6758 0.5117 0.3008
v 1.0117 0.9609 0.3008
v 1.0117 2.7617 0.5195
v 0.6758 2.7617 0.5195
v -0.6836 2.7617 0.5195
v -1.0156 2.7617 0.5195
v -1.0156 2.7617 0.3008
v -0.6836 2.7617 0.3008
v 0.6758 2.7617 0.3008
v 1.0117 2.7617 0.3008
v 0.8477 3.1406 0.4102
v -0.8555 3.1406 0.4102
vt 0.9844 0.0000
vt 0.9844 0.4844
vt 0.9063 0.3750
vt 0.9844 0.0000
vt 0.9063 0.3750
vt 0.5938 0.3750
vt 0.5938 0.3750
vt 0.5000 0.0000
vt 0.9844 0.0000
vt 0.5000 0.0000
vt 0.5938 0.3750
vt 0.5000 0.4844
vt 0.9844 0.0000
vt 0.9844 0.4688
vt 0.5313 0.4688
vt 0.5313 0.4688
vt 0.4219 0.0000
vt 0.9844 0.0000
vt 0.4688 0.4844
vt 0.9844 0.4844
vt 0.9844 0.9844
vt 0.9844 0.9844
vt 0.4688 0.9844
vt 0.4688 0.4844
vt 0.0469 0.2813
vt 0.0469 0.7813
vt 0.0000 0.7813
vt 0.0000 0.7813
vt 0.0000 0.2813
vt 0.0469 0.2813
vt 0.9844 0.4844
vt 0.9844 0.0000
vt 0.4219 0.0000
vt 0.4219 0.0000
vt 0.5313 0.4844
vt 0.9844 0.4844
vt 0.9844 0.3438
vt 0.7500 0.3438
vt 0.7500 0.4531
vt 0.7500 0.4531
vt 0.9844 0.4531
vt 0.9844 0.3438
vt 0.7500 0.3438
vt 0.9844 0.3438
vt 0.9844 0.4531
vt 0.9844 0.4531
vt 0.7500 0.4531
vt 0.7500 0.3438
vt 0.0781 0.0000
vt 0.4063 0.0000
vt 0.5000 0.1875
vt 0.5000 0.1875
vt 0.0000 0.1875
vt 0.0781 0.0000
vt 0.0781 0.9844
vt 0.0000 0.9844
vt 0.0000 0.1875
vt 0.5000 0.9844
vt 0.4063 0.9844
vt 0.5000 0.1875
vt 0.4375 0.0000
vt 0.4844 0.4375
vt 0.4844 0.9844
vt 0.4844 0.9844
vt 0.4375 0.9844
vt 0.4375 0.0000
vt 0.0000 0.1875
vt 0.5000 0.1875
vt 0.4063 0.9844
vt 0.4063 0.9844
vt 0.0781 0.9844
vt 0.0000 0.1875
vt 0.4844 0.4375
vt 0.4375 0.0000
vt 0.4375 0.9844
vt 0.4375 0.9844
vt 0.4844 0.9844
vt 0.4844 0.4375
vt 0.6094 0.4375
vt 0.6406 0.4375
vt 0.6406 0.4688
vt 0.6094 0.4375
vt 0.6406 0.4375
vt 0.6406 0.4688
vt 0.6094 0.4375
vt 0.6406 0.4375
vt 0.6406 0.4688
vt 0.6094 0.4375
vt 0.6406 0.4375
vt 0.6406 0.4688
vt 0.6094 0.4375
vt 0.6406 0.4375
vt 0.6406 0.4688
vt 0.6094 0.4375
vt 0.6406 0.4375
vt 0.6406 0.4688
f 1/1 4/3 3/2
f 1/4 5/6 4/5
f 5/7 1/9 2/8
f 2/10 6/12 5/11
f 2/13 9/15 6/14
f 9/16 2/18 8/17
f 5/19 11/21 4/20
f 11/22 5/24 10/23
f 18/25 14/27 19/26
f 14/28 18/30 15/29
f 3/31 7/33 1/32
f 7/34 3/36 12/35
f 5/37 9/39 10/38
f 9/40 5/42 6/41
f 11/43 3/45 4/44
f 3/46 11/48 12/47
f 10/49 12/51 11/50
f 12/52 10/54 9/53
f 18/55 9/57 17/56
f 20/58 12/60 19/59
f 8/61 17/63 9/62
f 17/64 8/66 16/65
f 9/67 19/69 12/68
f 19/70 9/72 18/71
f 12/73 13/75 7/74
f 13/76 12/78 20/77
f 17/79 22/81 18/80
f 18/82 22/84 15/83
f 16/85 22/87 17/86
f 14/88 21/90 19/89
f 19/91 21/93 20/92
f 20/94 21/96 13/95
