g Object
v 0.4609 -0.4414 -0.3164
v -0.4570 -0.4414 -0.3164
v 0.4219 0.8945 -0.1406
v -0.4180 0.8945 -0.1406
v 0.5391 1.0508 0.0078
v -0.5352 1.0508 0.0078
v 0.4609 -0.4414 0.3203
v -0.4570 -0.4414 0.3203
v 0.4219 0.8945 0.1445
v -0.4180 0.8945 0.1445
v -0.5273 1.0508 0.0078
v -0.5000 0.8945 0.0078
v -0.5898 -0.4414 -0.0352
v 0.5313 1.0508 0.0078
v 0.5039 0.8945 0.0078
v 0.5938 -0.4414 0.0078
vt 0.0938 0.0000
vt 0.1250 0.8750
vt 0.8438 0.8750
vt 0.8438 0.8750
vt 0.8750 0.0000
vt 0.0938 0.0000
vt 0.0313 0.9688
vt 0.0313 0.9688
vt 0.9375 0.9688
vt 0.9375 0.9688
vt 0.8438 0.8750
vt 0.1250 0.8750
vt 0.0938 0.0000
vt 0.8750 0.0000
vt 0.8438 0.8750
vt 0.8438 0.8750
vt 0.1250 0.8750
vt 0.0938 0.0000
vt 0.1250 0.8750
vt 0.9375 0.9688
vt 0.9375 0.9688
vt 0.9375 0.9688
vt 0.0313 0.9688
vt 0.1250 0.8750
vt 0.8750 0.0000
vt 0.8438 0.8750
vt 0.9063 0.8750
vt 0.8438 0.8750
vt 0.8750 0.0000
vt 0.9688 0.0000
vt 0.9375 0.9688
vt 0.9375 0.9688
vt 0.8438 0.8750
vt 0.0313 0.9688
vt 0.0313 0.9688
vt 0.1250 0.8750
vt 0.1250 0.8750
vt 0.0938 0.0000
vt 0.0000 0.0000
vt 0.0938 0.0000
vt 0.1250 0.8750
vt 0.0625 0.8750
vt 0.9375 0.9688
vt 0.9063 0.8750
vt 0.8438 0.8750
vt 0.1250 0.8750
vt 0.8438 0.8750
vt 0.9375 0.9688
vt 0.9375 0.9688
vt 0.8438 0.8750
vt 0.9063 0.8750
vt 0.8750 0.0000
vt 0.9063 0.8750
vt 0.9688 0.0000
vt 0.9688 0.0000
vt 0.9063 0.8750
vt 0.8438 0.8750
vt 0.0313 0.9688
vt 0.0625 0.8750
vt 0.1250 0.8750
vt 0.1250 0.8750
vt 0.0313 0.9688
vt 0.9375 0.9688
vt 0.0313 0.9688
vt 0.1250 0.8750
vt 0.0625 0.8750
vt 0.0938 0.0000
vt 0.0625 0.8750
vt 0.0000 0.0000
vt 0.0000 0.0000
vt 0.0625 0.8750
vt 0.1250 0.8750
f 1/1 4/3 3/2
f 4/4 1/6 2/5
f 14/7 6/9 5/8
f 6/10 3/12 4/11
f 7/13 10/15 8/14
f 10/16 7/18 9/17
f 9/19 6/21 11/20
f 6/22 9/24 5/23
f 2/25 12/27 4/26
f 10/28 13/30 8/29
f 6/31 4/33 11/32
f 5/34 9/36 14/35
f 3/37 16/39 1/38
f 7/40 15/42 9/41
f 11/43 4/45 12/44
f 9/46 11/48 10/47
f 11/49 12/51 10/50
f 2/52 13/54 12/53
f 13/55 10/57 12/56
f 14/58 9/60 15/59
f 3/61 6/63 14/62
f 14/64 15/66 3/65
f 7/67 16/69 15/68
f 16/70 3/72 15/71
