g Object
v 0.0078 0.4297 -0.3203
v 0.0078 0.3828 -0.1055
v 0.0000 0.3086 0.1914
v 0.0078 -0.1055 -0.1172
v 0.0078 -0.0078 -0.5547
v 0.0000 0.8281 0.4023
v 0.0000 0.0820 0.5117
v 0.0000 0.9883 0.5977
v 0.0000 1.1211 0.9492
v 0.0000 0.1680 1.2383
v -0.0078 0.7930 1.5391
v 0.0078 0.2227 -0.5859
v 0.0000 0.4961 0.2969
v -0.0273 -0.4258 -0.7031
v -0.2656 0.2539 -0.0859
v -0.2070 0.2227 0.1914
v -0.1367 0.1094 -0.4805
v -0.1172 0.1602 -0.4805
v -0.3438 0.0742 0.0078
v -0.1875 0.2227 0.4570
v -0.2344 0.0742 0.2539
v -0.3125 -0.0820 -0.0430
v -0.2344 -0.1367 0.1055
v -0.1445 -0.1445 0.1914
v -0.1250 -0.1055 0.3594
v -0.1055 -0.1094 -0.2969
v -0.1641 0.0352 -0.2969
v -0.1758 -0.1289 -0.1602
v -0.0664 -0.2656 -0.5977
v -0.0664 0.1289 -0.7031
v -0.1953 -0.2578 -0.5977
v -0.1445 -0.2578 -0.7031
v -0.3906 0.2422 -0.5781
v -0.4336 0.3242 -0.5664
v -0.4531 0.2773 -0.5000
v -0.6992 0.2773 -0.9492
v -0.7383 0.3086 -0.9414
v -0.7461 0.2773 -0.9102
v -0.8242 -0.5352 -1.1016
v -0.6602 0.2969 -0.0742
v -0.6875 0.4414 -0.0430
v -0.6797 0.3555 0.0273
v -1.0625 0.3906 -0.0625
v -1.1406 0.4375 -0.0313
v -1.0938 0.4102 0.0273
v -1.2188 -0.5469 -0.0430
v -0.5117 0.3008 0.5313
v -0.3906 0.4102 0.5547
v -0.3906 0.3164 0.6055
v -0.7461 0.3359 0.8086
v -0.7266 0.4102 0.9063
v -0.6211 0.2070 0.8438
v -0.8047 -0.4375 1.0469
v -0.1250 0.4492 0.3711
v -0.4922 0.7383 0.6719
v -0.5000 0.1953 0.8008
v -0.4336 0.8750 1.0234
v -0.5977 0.2813 1.1953
v -0.1250 -0.0703 -0.4492
v -0.3320 0.0547 -0.6719
v -0.2656 0.0664 -0.6953
v -0.2734 -0.0156 -0.6953
v -0.3320 -0.2461 -1.0156
v -0.2734 -0.1992 -1.0273
v -0.2852 -0.2500 -0.9844
v -0.1250 -0.3516 -1.0898
v -0.0664 -0.3320 -1.0703
v -0.0781 -0.3594 -1.0586
v 0.0586 -0.4258 -0.7031
v 0.2734 0.2539 -0.0742
v 0.2148 0.2227 0.1914
v 0.1563 0.1094 -0.4805
v 0.1367 0.1602 -0.4805
v 0.3516 0.0742 0.0078
v 0.1836 0.2227 0.4570
v 0.2461 0.0742 0.2539
v 0.3242 -0.0820 -0.0430
v 0.2461 -0.1367 0.1055
v 0.1563 -0.1445 0.1914
v 0.1367 -0.1055 0.3594
v 0.1250 -0.1094 -0.2969
v 0.1836 0.0352 -0.2891
v 0.1836 -0.1289 -0.1602
v 0.0859 -0.2656 -0.5977
v 0.0859 0.1289 -0.7031
v 0.2148 -0.2578 -0.5977
v 0.1758 -0.2578 -0.7031
v 0.3242 0.2266 -0.5781
v 0.3633 0.3164 -0.5664
v 0.3906 0.2695 -0.5000
v 0.6289 0.2617 -0.9609
v 0.6797 0.2969 -0.9492
v 0.6875 0.2617 -0.9102
v 0.7852 -0.5391 -1.1211
v 0.6680 0.2969 -0.0742
v 0.6992 0.4414 -0.0430
v 0.6875 0.3555 0.0273
v 1.0703 0.3906 -0.0625
v 1.1523 0.4375 -0.0313
v 1.1016 0.4102 0.0273
v 1.2305 -0.5469 -0.0430
v 0.5195 0.3008 0.5313
v 0.4023 0.4102 0.5547
v 0.4023 0.3164 0.6055
v 0.7578 0.3359 0.8086
v 0.7383 0.4102 0.9063
v 0.6289 0.2070 0.8438
v 0.9648 -0.5391 1.1523
v 0.1250 0.4492 0.3711
v 0.4922 0.7383 0.6836
v 0.5000 0.1953 0.8008
v 0.4297 0.8750 1.0352
v 0.5977 0.2813 1.2070
v 0.1445 -0.0703 -0.4492
v 0.3516 0.0547 -0.6641
v 0.2852 0.0664 -0.6953
v 0.2930 -0.0156 -0.6836
v 0.3633 -0.2461 -1.0156
v 0.2930 -0.1992 -1.0273
v 0.3125 -0.2500 -0.9727
v 0.1563 -0.3516 -1.0898
v 0.0859 -0.3320 -1.0703
v 0.1055 -0.3594 -1.0469
vt 0.9063 0.9688
vt 0.6406 0.9531
vt 0.6094 0.8438
vt 0.9063 0.9688
vt 0.6094 0.8438
vt 0.9844 0.7813
vt 0.6406 0.9531
vt 0.4375 0.9375
vt 0.4375 0.8594
vt 0.6406 0.9531
vt 0.4375 0.8594
vt 0.6094 0.8438
vt 0.9844 0.7813
vt 0.6094 0.8438
vt 0.8750 0.7031
vt 0.8750 0.7031
vt 0.6094 0.8438
vt 0.5781 0.6563
vt 0.5781 0.6563
vt 0.4375 0.8594
vt 0.3438 0.7344
vt 0.5781 0.6563
vt 0.6094 0.8438
vt 0.4375 0.8594
vt 0.4063 0.5469
vt 0.5781 0.6563
vt 0.3438 0.7344
vt 0.7344 0.1406
vt 0.7813 0.0000
vt 0.7813 0.2656
vt 0.7813 0.0000
vt 0.7344 0.1406
vt 0.5469 0.0000
vt 0.5469 0.2500
vt 0.5469 0.0000
vt 0.7344 0.1406
vt 0.7500 0.6094
vt 0.5781 0.6563
vt 0.6719 0.5156
vt 0.5781 0.6563
vt 0.7500 0.6094
vt 0.8750 0.7031
vt 0.5625 0.5313
vt 0.6719 0.5156
vt 0.5781 0.6563
vt 0.1875 0.6563
vt 0.1875 0.9844
vt 0.0938 0.9063
vt 0.1875 0.9844
vt 0.1875 0.6563
vt 0.2031 0.8125
vt 0.0156 0.5938
vt 0.2031 0.8125
vt 0.1875 0.6563
vt 0.2031 0.8125
vt 0.0156 0.5938
vt 0.0000 0.8750
vt 0.0469 0.9688
vt 0.0938 0.9063
vt 0.1875 0.9844
vt 0.1875 0.6563
vt 0.0938 0.9063
vt 0.0781 0.5938
vt 0.0781 0.5938
vt 0.2656 0.4531
vt 0.1875 0.6563
vt 0.1875 0.6563
vt 0.2656 0.4531
vt 0.0156 0.5938
vt 0.0156 0.5938
vt 0.2656 0.4531
vt 0.0781 0.5938
vt 0.6094 0.5469
vt 0.8906 0.4375
vt 0.5938 0.4375
vt 0.8906 0.4375
vt 0.6094 0.5469
vt 0.9688 0.5469
vt 0.6094 0.3906
vt 0.9688 0.5469
vt 0.6094 0.5469
vt 0.9688 0.5469
vt 0.6094 0.3906
vt 0.9688 0.3750
vt 0.9688 0.3750
vt 0.5938 0.4375
vt 0.8906 0.4375
vt 0.6094 0.3906
vt 0.5938 0.4375
vt 0.9688 0.3750
vt 0.6094 0.5313
vt 0.9531 0.4375
vt 0.5938 0.4219
vt 0.9531 0.4375
vt 0.6094 0.5313
vt 0.9844 0.5313
vt 0.6094 0.3594
vt 0.9844 0.5313
vt 0.6094 0.5313
vt 0.9844 0.5313
vt 0.6094 0.3594
vt 0.9688 0.3750
vt 0.5938 0.4219
vt 0.9688 0.3750
vt 0.6094 0.3594
vt 0.9688 0.3750
vt 0.5938 0.4219
vt 0.9531 0.4375
vt 0.9688 0.4375
vt 0.6094 0.4375
vt 0.9688 0.3750
vt 0.9688 0.3750
vt 0.6094 0.4375
vt 0.9688 0.5469
vt 0.9688 0.5469
vt 0.6094 0.4375
vt 0.9688 0.4375
vt 0.9688 0.5469
vt 0.5938 0.4375
vt 0.9844 0.4375
vt 0.5938 0.4375
vt 0.9688 0.5469
vt 0.5938 0.5469
vt 0.9844 0.3438
vt 0.5938 0.5469
vt 0.9688 0.5469
vt 0.5938 0.5469
vt 0.9844 0.3438
vt 0.5938 0.3594
vt 0.9844 0.4375
vt 0.5938 0.3594
vt 0.9844 0.3438
vt 0.5938 0.3594
vt 0.9844 0.4375
vt 0.5938 0.4375
vt 0.9844 0.4531
vt 0.6250 0.4063
vt 0.9688 0.4219
vt 0.6250 0.4063
vt 0.9844 0.4531
vt 0.5938 0.4531
vt 0.9219 0.3750
vt 0.5938 0.4531
vt 0.9844 0.4531
vt 0.5938 0.4531
vt 0.9219 0.3750
vt 0.6094 0.3594
vt 0.9688 0.4219
vt 0.6094 0.3594
vt 0.9219 0.3750
vt 0.6094 0.3594
vt 0.9688 0.4219
vt 0.6250 0.4063
vt 0.9375 0.4375
vt 0.5938 0.4219
vt 0.9219 0.5313
vt 0.9219 0.5313
vt 0.5938 0.4219
vt 0.9219 0.3750
vt 0.9219 0.3750
vt 0.5938 0.4219
vt 0.9375 0.4375
vt 0.5938 0.5469
vt 0.9688 0.4063
vt 0.6250 0.4219
vt 0.9688 0.4063
vt 0.5938 0.5469
vt 0.9688 0.5313
vt 0.5938 0.3594
vt 0.9688 0.5313
vt 0.5938 0.5469
vt 0.9688 0.5313
vt 0.5938 0.3594
vt 0.9531 0.3438
vt 0.6250 0.4219
vt 0.9531 0.3438
vt 0.5938 0.3594
vt 0.9531 0.3438
vt 0.6250 0.4219
vt 0.9688 0.4063
vt 0.6094 0.5469
vt 0.9844 0.4219
vt 0.6094 0.4219
vt 0.9844 0.4219
vt 0.6094 0.5469
vt 0.9531 0.5313
vt 0.6250 0.3750
vt 0.9531 0.5313
vt 0.6094 0.5469
vt 0.9531 0.5313
vt 0.6250 0.3750
vt 0.9531 0.3594
vt 0.6094 0.4219
vt 0.9531 0.3594
vt 0.6250 0.3750
vt 0.9531 0.3594
vt 0.6094 0.4219
vt 0.9844 0.4219
vt 0.9844 0.4219
vt 0.6094 0.4219
vt 0.9688 0.5469
vt 0.9688 0.5469
vt 0.6094 0.4219
vt 0.9688 0.3750
vt 0.9688 0.3750
vt 0.6094 0.4219
vt 0.9844 0.4219
vt 0.2500 0.2500
vt 0.1875 0.0000
vt 0.3906 0.2656
vt 0.5469 0.0000
vt 0.3906 0.2656
vt 0.1875 0.0000
vt 0.3906 0.2656
vt 0.5469 0.0000
vt 0.5469 0.2500
vt 0.2500 0.0000
vt 0.1094 0.1875
vt 0.0000 0.0000
vt 0.1094 0.1875
vt 0.2500 0.0000
vt 0.4844 0.2500
vt 0.7656 0.2500
vt 0.7969 0.0000
vt 0.9531 0.2500
vt 0.7969 0.0000
vt 0.4844 0.2500
vt 0.2500 0.0000
vt 0.4844 0.2500
vt 0.7969 0.0000
vt 0.7656 0.2500
vt 0.3125 0.0000
vt 0.0000 0.2656
vt 0.0000 0.0000
vt 0.0000 0.2656
vt 0.3125 0.0000
vt 0.3438 0.2656
vt 0.9688 0.0000
vt 0.8438 0.2656
vt 0.7656 0.0000
vt 0.8438 0.2656
vt 0.9688 0.0000
vt 0.9844 0.3906
vt 0.7656 0.0000
vt 0.3438 0.2656
vt 0.3125 0.0000
vt 0.3438 0.2656
vt 0.7656 0.0000
vt 0.8438 0.2656
vt 0.0000 0.0000
vt 0.5156 0.4375
vt 0.3438 0.0000
vt 0.7656 0.0000
vt 0.5156 0.4375
vt 0.9531 0.0000
vt 0.3438 0.0000
vt 0.5156 0.4375
vt 0.7656 0.0000
vt 0.5781 0.6563
vt 0.4063 0.5469
vt 0.5469 0.5625
vt 0.4688 0.2500
vt 0.5938 0.1875
vt 0.4063 0.0000
vt 0.6875 0.1250
vt 0.4063 0.0000
vt 0.5938 0.1875
vt 0.9688 0.0000
vt 0.4063 0.0000
vt 0.6875 0.1250
vt 0.4688 0.2500
vt 0.4063 0.0000
vt 0.3594 0.1406
vt 0.3594 0.1406
vt 0.4063 0.0000
vt 0.2344 0.0938
vt 0.4063 0.0000
vt 0.1094 0.1094
vt 0.2344 0.0938
vt 0.0156 0.5938
vt 0.0781 0.5938
vt 0.0938 0.9063
vt 0.0156 0.5938
vt 0.0469 0.9688
vt 0.0000 0.8750
vt 0.0156 0.5938
vt 0.0938 0.9063
vt 0.0469 0.9688
vt 0.7500 0.6094
vt 0.8906 0.6406
vt 0.8750 0.7031
vt 0.1094 0.1094
vt 0.0000 0.0000
vt 0.0000 0.2031
vt 0.0000 0.0000
vt 0.1094 0.1094
vt 0.4063 0.0000
vt 0.7656 0.5469
vt 0.8281 0.5469
vt 0.7500 0.6094
vt 0.6094 0.3125
vt 0.6094 0.5469
vt 0.9844 0.4063
vt 0.9844 0.4063
vt 0.9844 0.3125
vt 0.6094 0.3125
vt 0.6094 0.5469
vt 0.6094 0.3906
vt 0.9688 0.5469
vt 0.9688 0.5469
vt 0.9844 0.4063
vt 0.6094 0.5469
vt 0.6094 0.3906
vt 0.6094 0.3125
vt 0.9844 0.3125
vt 0.9844 0.3125
vt 0.9688 0.5469
vt 0.6094 0.3906
vt 0.6094 0.3438
vt 0.5938 0.5469
vt 0.9688 0.5469
vt 0.9688 0.5469
vt 0.9688 0.3438
vt 0.6094 0.3438
vt 0.5938 0.5469
vt 0.6250 0.4219
vt 0.9688 0.4219
vt 0.9688 0.4219
vt 0.9688 0.5469
vt 0.5938 0.5469
vt 0.6250 0.4219
vt 0.6094 0.3438
vt 0.9688 0.3438
vt 0.9688 0.3438
vt 0.9688 0.4219
vt 0.6250 0.4219
vt 0.9688 0.5313
vt 0.9688 0.4063
vt 0.6875 0.4531
vt 0.6875 0.4531
vt 0.5938 0.5469
vt 0.9688 0.5313
vt 0.9688 0.4063
vt 0.9688 0.3438
vt 0.6094 0.3594
vt 0.6094 0.3594
vt 0.6875 0.4531
vt 0.9688 0.4063
vt 0.9688 0.3438
vt 0.9688 0.5313
vt 0.5938 0.5469
vt 0.5938 0.5469
vt 0.6094 0.3594
vt 0.9688 0.3438
vt 0.9688 0.4063
vt 0.9688 0.5313
vt 0.9688 0.3438
vt 0.0469 0.0000
vt 0.1875 0.0000
vt 0.2500 0.2500
vt 0.1094 0.1875
vt 0.4844 0.2500
vt 0.1719 0.2344
vt 0.9063 0.9688
vt 0.6094 0.8438
vt 0.6406 0.9531
vt 0.9063 0.9688
vt 0.9844 0.7813
vt 0.6094 0.8438
vt 0.6406 0.9531
vt 0.4375 0.8594
vt 0.4375 0.9375
vt 0.6406 0.9531
vt 0.6094 0.8438
vt 0.4375 0.8594
vt 0.9844 0.7813
vt 0.8750 0.7031
vt 0.6094 0.8438
vt 0.8750 0.7031
vt 0.5781 0.6563
vt 0.6094 0.8438
vt 0.5781 0.6563
vt 0.3438 0.7344
vt 0.4375 0.8594
vt 0.5781 0.6563
vt 0.4375 0.8594
vt 0.6094 0.8438
vt 0.4063 0.5469
vt 0.3438 0.7344
vt 0.5781 0.6563
vt 0.7344 0.1406
vt 0.7813 0.2656
vt 0.7813 0.0000
vt 0.7813 0.0000
vt 0.5469 0.0000
vt 0.7344 0.1406
vt 0.5469 0.2500
vt 0.7344 0.1406
vt 0.5469 0.0000
vt 0.7500 0.6094
vt 0.6719 0.5156
vt 0.5781 0.6563
vt 0.5781 0.6563
vt 0.8750 0.7031
vt 0.7500 0.6094
vt 0.5625 0.5313
vt 0.5781 0.6563
vt 0.6719 0.5156
vt 0.1875 0.6563
vt 0.0938 0.9063
vt 0.1875 0.9844
vt 0.1875 0.9844
vt 0.2031 0.8125
vt 0.1875 0.6563
vt 0.0156 0.5938
vt 0.1875 0.6563
vt 0.2031 0.8125
vt 0.2031 0.8125
vt 0.0000 0.8750
vt 0.0156 0.5938
vt 0.0469 0.9688
vt 0.1875 0.9844
vt 0.0938 0.9063
vt 0.1875 0.6563
vt 0.0781 0.5938
vt 0.0938 0.9063
vt 0.0781 0.5938
vt 0.1875 0.6563
vt 0.2656 0.4531
vt 0.1875 0.6563
vt 0.0156 0.5938
vt 0.2656 0.4531
vt 0.0156 0.5938
vt 0.0781 0.5938
vt 0.2656 0.4531
vt 0.6094 0.5469
vt 0.5938 0.4375
vt 0.8906 0.4375
vt 0.8906 0.4375
vt 0.9688 0.5469
vt 0.6094 0.5469
vt 0.6094 0.3906
vt 0.6094 0.5469
vt 0.9688 0.5469
vt 0.9688 0.5469
vt 0.9688 0.3750
vt 0.6094 0.3906
vt 0.9688 0.3750
vt 0.8906 0.4375
vt 0.5938 0.4375
vt 0.6094 0.3906
vt 0.9688 0.3750
vt 0.5938 0.4375
vt 0.6094 0.5313
vt 0.5938 0.4219
vt 0.9531 0.4375
vt 0.9531 0.4375
vt 0.9844 0.5313
vt 0.6094 0.5313
vt 0.6094 0.3594
vt 0.6094 0.5313
vt 0.9844 0.5313
vt 0.9844 0.5313
vt 0.9688 0.3750
vt 0.6094 0.3594
vt 0.5938 0.4219
vt 0.6094 0.3594
vt 0.9688 0.3750
vt 0.9688 0.3750
vt 0.9531 0.4375
vt 0.5938 0.4219
vt 0.9688 0.4375
vt 0.9688 0.3750
vt 0.6094 0.4375
vt 0.9688 0.3750
vt 0.9688 0.5469
vt 0.6094 0.4375
vt 0.9688 0.5469
vt 0.9688 0.4375
vt 0.6094 0.4375
vt 0.9688 0.5469
vt 0.9844 0.4375
vt 0.5938 0.4375
vt 0.5938 0.4375
vt 0.5938 0.5469
vt 0.9688 0.5469
vt 0.9844 0.3438
vt 0.9688 0.5469
vt 0.5938 0.5469
vt 0.5938 0.5469
vt 0.5938 0.3594
vt 0.9844 0.3438
vt 0.9844 0.4375
vt 0.9844 0.3438
vt 0.5938 0.3594
vt 0.5938 0.3594
vt 0.5938 0.4375
vt 0.9844 0.4375
vt 0.9844 0.4531
vt 0.9688 0.4219
vt 0.6250 0.4063
vt 0.6250 0.4063
vt 0.5938 0.4531
vt 0.9844 0.4531
vt 0.9219 0.3750
vt 0.9844 0.4531
vt 0.5938 0.4531
vt 0.5938 0.4531
vt 0.6094 0.3594
vt 0.9219 0.3750
vt 0.9688 0.4219
vt 0.9219 0.3750
vt 0.6094 0.3594
vt 0.6094 0.3594
vt 0.6250 0.4063
vt 0.9688 0.4219
vt 0.9375 0.4375
vt 0.9219 0.5313
vt 0.5938 0.4219
vt 0.9219 0.5313
vt 0.9219 0.3750
vt 0.5938 0.4219
vt 0.9219 0.3750
vt 0.9375 0.4375
vt 0.5938 0.4219
vt 0.5938 0.5469
vt 0.6250 0.4219
vt 0.9688 0.4063
vt 0.9688 0.4063
vt 0.9688 0.5313
vt 0.5938 0.5469
vt 0.5938 0.3594
vt 0.5938 0.5469
vt 0.9688 0.5313
vt 0.9688 0.5313
vt 0.9531 0.3438
vt 0.5938 0.3594
vt 0.6250 0.4219
vt 0.5938 0.3594
vt 0.9531 0.3438
vt 0.9531 0.3438
vt 0.9688 0.4063
vt 0.6250 0.4219
vt 0.6094 0.5469
vt 0.6094 0.4219
vt 0.9844 0.4219
vt 0.9844 0.4219
vt 0.9531 0.5313
vt 0.6094 0.5469
vt 0.6250 0.3750
vt 0.6094 0.5469
vt 0.9531 0.5313
vt 0.9531 0.5313
vt 0.9531 0.3594
vt 0.6250 0.3750
vt 0.6094 0.4219
vt 0.6250 0.3750
vt 0.9531 0.3594
vt 0.9531 0.3594
vt 0.9844 0.4219
vt 0.6094 0.4219
vt 0.9844 0.4219
vt 0.9688 0.5469
vt 0.6094 0.4219
vt 0.9688 0.5469
vt 0.9688 0.3750
vt 0.6094 0.4219
vt 0.9688 0.3750
vt 0.9844 0.4219
vt 0.6094 0.4219
vt 0.2500 0.2500
vt 0.3906 0.2656
vt 0.1875 0.0000
vt 0.5469 0.0000
vt 0.1875 0.0000
vt 0.3906 0.2656
vt 0.3906 0.2656
vt 0.5469 0.2500
vt 0.5469 0.0000
vt 0.2500 0.0000
vt 0.0000 0.0000
vt 0.1094 0.1875
vt 0.1094 0.1875
vt 0.4844 0.2500
vt 0.2500 0.0000
vt 0.7656 0.2500
vt 0.9531 0.2500
vt 0.7969 0.0000
vt 0.7969 0.0000
vt 0.2500 0.0000
vt 0.4844 0.2500
vt 0.4844 0.2500
vt 0.7656 0.2500
vt 0.7969 0.0000
vt 0.3125 0.0000
vt 0.0000 0.0000
vt 0.0000 0.2656
vt 0.0000 0.2656
vt 0.3438 0.2656
vt 0.3125 0.0000
vt 0.9688 0.0000
vt 0.7656 0.0000
vt 0.8438 0.2656
vt 0.8438 0.2656
vt 0.9844 0.3906
vt 0.9688 0.0000
vt 0.7656 0.0000
vt 0.3125 0.0000
vt 0.3438 0.2656
vt 0.3438 0.2656
vt 0.8438 0.2656
vt 0.7656 0.0000
vt 0.0000 0.0000
vt 0.3438 0.0000
vt 0.5156 0.4375
vt 0.7656 0.0000
vt 0.9531 0.0000
vt 0.5156 0.4375
vt 0.3438 0.0000
vt 0.7656 0.0000
vt 0.5156 0.4375
vt 0.5781 0.6563
vt 0.5469 0.5625
vt 0.4063 0.5469
vt 0.4688 0.2500
vt 0.4063 0.0000
vt 0.5938 0.1875
vt 0.6875 0.1250
vt 0.5938 0.1875
vt 0.4063 0.0000
vt 0.9688 0.0000
vt 0.6875 0.1250
vt 0.4063 0.0000
vt 0.4688 0.2500
vt 0.3594 0.1406
vt 0.4063 0.0000
vt 0.3594 0.1406
vt 0.2344 0.0938
vt 0.4063 0.0000
vt 0.4063 0.0000
vt 0.2344 0.0938
vt 0.1094 0.1094
vt 0.0156 0.5938
vt 0.0938 0.9063
vt 0.0781 0.5938
vt 0.0156 0.5938
vt 0.0000 0.8750
vt 0.0469 0.9688
vt 0.0156 0.5938
vt 0.0469 0.9688
vt 0.0938 0.9063
vt 0.7500 0.6094
vt 0.8750 0.7031
vt 0.8906 0.6406
vt 0.1094 0.1094
vt 0.0000 0.2031
vt 0.0000 0.0000
vt 0.0000 0.0000
vt 0.4063 0.0000
vt 0.1094 0.1094
vt 0.7656 0.5469
vt 0.7500 0.6094
vt 0.8281 0.5469
vt 0.6094 0.3125
vt 0.9844 0.4063
vt 0.6094 0.5469
vt 0.9844 0.4063
vt 0.6094 0.3125
vt 0.9844 0.3125
vt 0.6094 0.5469
vt 0.9688 0.5469
vt 0.6094 0.3906
vt 0.9688 0.5469
vt 0.6094 0.5469
vt 0.9844 0.4063
vt 0.6094 0.3906
vt 0.9844 0.3125
vt 0.6094 0.3125
vt 0.9844 0.3125
vt 0.6094 0.3906
vt 0.9688 0.5469
vt 0.6094 0.3438
vt 0.9688 0.5469
vt 0.5938 0.5469
vt 0.9688 0.5469
vt 0.6094 0.3438
vt 0.9688 0.3438
vt 0.5938 0.5469
vt 0.9688 0.4219
vt 0.6250 0.4219
vt 0.9688 0.4219
vt 0.5938 0.5469
vt 0.9688 0.5469
vt 0.6250 0.4219
vt 0.9688 0.3438
vt 0.6094 0.3438
vt 0.9688 0.3438
vt 0.6250 0.4219
vt 0.9688 0.4219
vt 0.9688 0.5313
vt 0.6875 0.4531
vt 0.9688 0.4063
vt 0.6875 0.4531
vt 0.9688 0.5313
vt 0.5938 0.5469
vt 0.9688 0.4063
vt 0.6094 0.3594
vt 0.9688 0.3438
vt 0.6094 0.3594
vt 0.9688 0.4063
vt 0.6875 0.4531
vt 0.9688 0.3438
vt 0.5938 0.5469
vt 0.9688 0.5313
vt 0.5938 0.5469
vt 0.9688 0.3438
vt 0.6094 0.3594
vt 0.9688 0.4063
vt 0.9688 0.3438
vt 0.9688 0.5313
vt 0.0469 0.0000
vt 0.2500 0.2500
vt 0.1875 0.0000
vt 0.1094 0.1875
vt 0.1719 0.2344
vt 0.4844 0.2500
f 1/1 15/3 2/2
f 1/4 12/6 15/5
f 2/7 16/9 3/8
f 2/10 15/12 16/11
f 12/13 18/15 15/14
f 18/16 19/18 15/17
f 19/19 21/21 16/20
f 19/22 16/24 15/23
f 24/25 21/27 19/26
f 25/28 24/30 7/29
f 7/31 20/33 25/32
f 21/34 25/36 20/35
f 27/37 28/39 19/38
f 19/40 18/42 27/41
f 22/43 19/45 28/44
f 29/46 30/48 12/47
f 12/49 5/51 29/50
f 31/52 29/54 5/53
f 5/55 17/57 31/56
f 18/58 12/60 30/59
f 29/61 32/63 30/62
f 32/64 29/66 14/65
f 29/67 31/69 14/68
f 31/70 32/72 14/71
f 33/73 34/75 27/74
f 27/76 26/78 33/77
f 35/79 33/81 26/80
f 26/82 28/84 35/83
f 28/85 27/87 34/86
f 35/88 28/90 34/89
f 36/91 37/93 34/92
f 34/94 33/96 36/95
f 38/97 36/99 33/98
f 33/100 35/102 38/101
f 37/103 38/105 35/104
f 35/106 34/108 37/107
f 37/109 36/111 39/110
f 36/112 38/114 39/113
f 38/115 37/117 39/116
f 40/118 41/120 19/119
f 19/121 22/123 40/122
f 42/124 40/126 22/125
f 22/127 23/129 42/128
f 41/130 42/132 23/131
f 23/133 19/135 41/134
f 43/136 44/138 41/137
f 41/139 40/141 43/140
f 45/142 43/144 40/143
f 40/145 42/147 45/146
f 44/148 45/150 42/149
f 42/151 41/153 44/152
f 44/154 43/156 46/155
f 43/157 45/159 46/158
f 45/160 44/162 46/161
f 47/163 48/165 21/164
f 21/166 24/168 47/167
f 49/169 47/171 24/170
f 24/172 25/174 49/173
f 48/175 49/177 25/176
f 25/178 21/180 48/179
f 50/181 51/183 48/182
f 48/184 47/186 50/185
f 52/187 50/189 47/188
f 47/190 49/192 52/191
f 51/193 52/195 49/194
f 49/196 48/198 51/197
f 51/199 50/201 53/200
f 50/202 52/204 53/203
f 52/205 51/207 53/206
f 3/208 16/210 54/209
f 20/211 54/213 16/212
f 16/214 21/216 20/215
f 55/217 8/219 6/218
f 6/220 54/222 55/221
f 20/223 7/225 56/224
f 56/226 55/228 54/227
f 54/229 20/231 56/230
f 57/232 9/234 8/233
f 8/235 55/237 57/236
f 10/238 58/240 56/239
f 56/241 7/243 10/242
f 58/244 57/246 55/245
f 55/247 56/249 58/248
f 9/250 57/252 11/251
f 58/253 10/255 11/254
f 57/256 58/258 11/257
f 19/259 23/261 24/260
f 22/262 4/264 23/263
f 24/265 23/267 4/266
f 7/268 24/270 4/269
f 22/271 28/273 4/272
f 28/274 26/276 4/275
f 4/277 26/279 59/278
f 31/280 30/282 32/281
f 31/283 17/285 18/284
f 31/286 18/288 30/287
f 27/289 18/291 17/290
f 59/292 17/294 5/293
f 5/295 4/297 59/296
f 26/298 27/300 59/299
f 60/301 17/303 61/302
f 17/304 60/306 27/305
f 61/307 59/309 62/308
f 59/310 61/312 17/311
f 62/313 27/315 60/314
f 27/316 62/318 59/317
f 63/319 61/321 64/320
f 61/322 63/324 60/323
f 64/325 62/327 65/326
f 62/328 64/330 61/329
f 65/331 60/333 63/332
f 60/334 65/336 62/335
f 66/337 64/339 67/338
f 64/340 66/342 63/341
f 67/343 65/345 68/344
f 65/346 67/348 64/347
f 68/349 63/351 66/350
f 63/352 68/354 65/353
f 67/355 68/357 66/356
f 13/358 3/360 54/359
f 6/361 13/363 54/362
f 1/364 2/366 70/365
f 1/367 70/369 12/368
f 2/370 3/372 71/371
f 2/373 71/375 70/374
f 12/376 70/378 73/377
f 73/379 70/381 74/380
f 74/382 71/384 76/383
f 74/385 70/387 71/386
f 79/388 74/390 76/389
f 80/391 7/393 79/392
f 7/394 80/396 75/395
f 76/397 75/399 80/398
f 82/400 74/402 83/401
f 74/403 82/405 73/404
f 77/406 83/408 74/407
f 84/409 12/411 85/410
f 12/412 84/414 5/413
f 86/415 5/417 84/416
f 5/418 86/420 72/419
f 73/421 85/423 12/422
f 84/424 85/426 87/425
f 87/427 69/429 84/428
f 84/430 69/432 86/431
f 86/433 69/435 87/434
f 88/436 82/438 89/437
f 82/439 88/441 81/440
f 90/442 81/444 88/443
f 81/445 90/447 83/446
f 83/448 89/450 82/449
f 90/451 89/453 83/452
f 91/454 89/456 92/455
f 89/457 91/459 88/458
f 93/460 88/462 91/461
f 88/463 93/465 90/464
f 92/466 90/468 93/467
f 90/469 92/471 89/470
f 92/472 94/474 91/473
f 91/475 94/477 93/476
f 93/478 94/480 92/479
f 95/481 74/483 96/482
f 74/484 95/486 77/485
f 97/487 77/489 95/488
f 77/490 97/492 78/491
f 96/493 78/495 97/494
f 78/496 96/498 74/497
f 98/499 96/501 99/500
f 96/502 98/504 95/503
f 100/505 95/507 98/506
f 95/508 100/510 97/509
f 99/511 97/513 100/512
f 97/514 99/516 96/515
f 99/517 101/519 98/518
f 98/520 101/522 100/521
f 100/523 101/525 99/524
f 102/526 76/528 103/527
f 76/529 102/531 79/530
f 104/532 79/534 102/533
f 79/535 104/537 80/536
f 103/538 80/540 104/539
f 80/541 103/543 76/542
f 105/544 103/546 106/545
f 103/547 105/549 102/548
f 107/550 102/552 105/551
f 102/553 107/555 104/554
f 106/556 104/558 107/557
f 104/559 106/561 103/560
f 106/562 108/564 105/563
f 105/565 108/567 107/566
f 107/568 108/570 106/569
f 3/571 109/573 71/572
f 75/574 71/576 109/575
f 71/577 75/579 76/578
f 110/580 6/582 8/581
f 6/583 110/585 109/584
f 75/586 111/588 7/587
f 111/589 109/591 110/590
f 109/592 111/594 75/593
f 112/595 8/597 9/596
f 8/598 112/600 110/599
f 10/601 111/603 113/602
f 111/604 10/606 7/605
f 113/607 110/609 112/608
f 110/610 113/612 111/611
f 9/613 11/615 112/614
f 113/616 11/618 10/617
f 112/619 11/621 113/620
f 74/622 79/624 78/623
f 77/625 78/627 4/626
f 79/628 4/630 78/629
f 7/631 4/633 79/632
f 77/634 4/636 83/635
f 83/637 4/639 81/638
f 4/640 114/642 81/641
f 86/643 87/645 85/644
f 86/646 73/648 72/647
f 86/649 85/651 73/650
f 82/652 72/654 73/653
f 114/655 5/657 72/656
f 5/658 114/660 4/659
f 81/661 114/663 82/662
f 115/664 116/666 72/665
f 72/667 82/669 115/668
f 116/670 117/672 114/671
f 114/673 72/675 116/674
f 117/676 115/678 82/677
f 82/679 114/681 117/680
f 118/682 119/684 116/683
f 116/685 115/687 118/686
f 119/688 120/690 117/689
f 117/691 116/693 119/692
f 120/694 118/696 115/695
f 115/697 117/699 120/698
f 121/700 122/702 119/701
f 119/703 118/705 121/704
f 122/706 123/708 120/707
f 120/709 119/711 122/710
f 123/712 121/714 118/713
f 118/715 120/717 123/716
f 122/718 121/720 123/719
f 13/721 109/723 3/722
f 6/724 109/726 13/725
