g Object
v 0.0156 1.8164 -1.2734
v 0.0156 1.4688 -0.7578
v 0.0156 2.3164 -0.5664
v 0.0156 2.2109 -0.1445
v 0.0156 2.4219 -0.8867
v 0.0156 2.5469 -0.9805
v 0.0156 2.2734 -1.1563
v 0.0156 2.3242 -1.3789
v 0.0156 1.8828 -1.6484
v 0.0078 2.6328 0.2266
v 0.0078 1.5195 -0.2148
v 0.0156 1.5547 -0.0156
v 0.0156 1.9570 1.1094
v 0.0078 2.4531 0.7344
v 0.0156 1.2031 0.8633
v 0.0156 1.2578 1.1680
v 0.0156 0.8008 1.2734
v 0.0078 1.3633 0.4023
v 0.0156 1.8594 -0.1797
v 0.2578 1.8711 -0.3086
v 0.1719 1.4063 0.4141
v 0.2539 2.1367 -0.2031
v 0.3594 2.0625 -0.8398
v 0.3984 1.7539 -0.7578
v 0.2148 2.2305 -1.1563
v 0.1289 1.7852 -1.3555
v 0.2422 1.8086 -1.2031
v 0.3867 2.0703 -0.6875
v 0.3047 2.1875 -0.6133
v 0.2422 2.1250 -0.4375
v 0.3672 2.0078 -0.4961
v 0.2578 2.1758 -0.9336
v 0.1641 2.2734 -0.9688
v 0.1133 2.1758 -1.2031
v 0.0781 2.3047 -1.1328
v 0.4297 1.9219 0.0156
v 0.3555 2.3477 0.1563
v 0.3867 1.6367 -0.7578
v 0.4727 1.6914 -0.5313
v 0.5000 1.6797 -0.3555
v 0.4609 1.9766 0.3555
v 0.3906 2.0508 0.6055
v 0.3672 0.7813 0.6406
v 0.2891 1.2969 0.2500
v 0.4492 1.4141 -0.0039
v 0.4492 1.5313 0.7930
v 0.4922 0.8750 0.7813
v 0.6250 0.8125 0.6523
v 0.5117 0.7578 0.5078
v 0.4609 1.2227 0.5195
v 0.4180 0.3242 0.3906
v 0.6758 0.3242 0.3906
v 0.5469 0.0898 0.2266
v 0.3867 0.0273 0.7813
v 0.7500 0.0391 0.7813
v 0.2734 0.0078 -0.7227
v 0.7930 0.0000 -0.7109
v 0.6914 1.3320 0.2969
v 0.2266 1.2578 1.0391
v 0.5977 0.1211 -0.0273
v 0.5977 0.1211 -0.0273
v 0.7617 0.1133 -0.0156
v 0.7109 0.3359 -0.0273
v 0.4727 0.1211 -0.0273
v 0.3711 0.3242 -0.0273
v 0.3242 0.1211 -0.0273
v -0.2305 1.8711 -0.3086
v -0.1445 1.4063 0.4141
v -0.2266 2.1367 -0.2031
v -0.3320 2.0625 -0.8398
v -0.3711 1.7539 -0.7578
v -0.1875 2.2305 -1.1563
v -0.1016 1.7852 -1.3555
v -0.2148 1.8086 -1.2031
v -0.3594 2.0703 -0.6875
v -0.2773 2.1875 -0.6133
v -0.2148 2.1250 -0.4375
v -0.3398 2.0078 -0.4961
v -0.2305 2.1758 -0.9336
v -0.1367 2.2734 -0.9688
v -0.0898 2.1758 -1.2031
v -0.0508 2.3047 -1.1328
v -0.4023 1.9219 0.0156
v -0.3281 2.3477 0.1563
v -0.3516 1.6367 -0.7578
v -0.4453 1.6914 -0.5313
v -0.4727 1.6797 -0.3555
v -0.4336 1.9766 0.3555
v -0.3633 2.0508 0.6055
v -0.3398 0.7891 0.6406
v -0.2656 1.2969 0.2500
v -0.4219 1.4141 -0.0039
v -0.4219 1.5313 0.7930
v -0.4648 0.8750 0.7813
v -0.5977 0.8125 0.6523
v -0.4844 0.7578 0.5078
v -0.4336 1.2227 0.5195
v -0.3906 0.3242 0.3906
v -0.6484 0.3242 0.3906
v -0.5195 0.0898 0.2266
v -0.3594 0.0273 0.7813
v -0.7227 0.0391 0.7813
v -0.2461 0.0078 -0.7227
v -0.7656 0.0000 -0.7227
v -0.6641 1.3320 0.2969
v -0.1992 1.2578 1.0391
v -0.5703 0.1211 -0.0273
v -0.5703 0.1211 -0.0273
v -0.7344 0.1211 -0.0156
v -0.6836 0.3359 -0.0273
v -0.4453 0.1211 -0.0273
v -0.3438 0.3242 -0.0273
v -0.2969 0.1211 -0.0273
vt 0.4531 0.9688
vt 0.2813 0.8594
vt 0.0938 0.9844
vt 0.2188 0.3594
vt 0.0938 0.4844
vt 0.1719 0.2813
vt 0.2031 0.3438
vt 0.0938 0.4844
vt 0.2188 0.4063
vt 0.4375 0.4063
vt 0.1719 0.2813
vt 0.2031 0.3438
vt 0.3594 0.7344
vt 0.2969 0.6563
vt 0.3594 0.6563
vt 0.2344 0.7969
vt 0.2813 0.7031
vt 0.3594 0.7344
vt 0.3594 0.6563
vt 0.4375 0.7500
vt 0.3594 0.7344
vt 0.3906 0.8906
vt 0.2344 0.7969
vt 0.4375 0.7500
vt 0.3594 0.7344
vt 0.4375 0.7500
vt 0.2344 0.7969
vt 0.2813 0.7031
vt 0.2969 0.6563
vt 0.3594 0.7344
vt 0.1563 0.6563
vt 0.2344 0.7969
vt 0.1406 0.7656
vt 0.2344 0.7969
vt 0.1563 0.6563
vt 0.2813 0.7031
vt 0.0938 0.5781
vt 0.1563 0.6563
vt 0.0938 0.6250
vt 0.1563 0.6563
vt 0.0938 0.5781
vt 0.1563 0.5938
vt 0.0938 0.6250
vt 0.1406 0.7656
vt 0.0781 0.7656
vt 0.1406 0.7656
vt 0.0938 0.6250
vt 0.1563 0.6563
vt 0.1563 0.6563
vt 0.2969 0.6563
vt 0.2813 0.7031
vt 0.1563 0.5938
vt 0.2969 0.6563
vt 0.1563 0.6563
vt 0.2344 0.6094
vt 0.2969 0.6563
vt 0.1563 0.5938
vt 0.0781 0.7656
vt 0.0000 0.5781
vt 0.0938 0.6250
vt 0.0938 0.5781
vt 0.0000 0.4063
vt 0.0938 0.6094
vt 0.6094 0.6719
vt 0.5781 0.8281
vt 0.4375 0.7500
vt 0.5781 0.8281
vt 0.5625 0.9844
vt 0.3906 0.8906
vt 0.3906 0.8906
vt 0.4375 0.7500
vt 0.5781 0.8281
vt 0.3750 0.4531
vt 0.4375 0.4063
vt 0.4219 0.5469
vt 0.4375 0.4063
vt 0.4844 0.6094
vt 0.4219 0.5469
vt 0.4219 0.5469
vt 0.4844 0.6094
vt 0.4375 0.7500
vt 0.4844 0.6094
vt 0.4375 0.4063
vt 0.5313 0.5000
vt 0.4219 0.5469
vt 0.3281 0.4844
vt 0.3750 0.4531
vt 0.1719 0.2813
vt 0.4375 0.4063
vt 0.3750 0.4531
vt 0.4375 0.7500
vt 0.4844 0.6094
vt 0.6094 0.6719
vt 0.6406 0.5625
vt 0.6094 0.6719
vt 0.4844 0.6094
vt 0.4844 0.6094
vt 0.5313 0.5000
vt 0.6406 0.5625
vt 0.2031 0.3438
vt 0.1719 0.2813
vt 0.0938 0.4844
vt 0.3281 0.4844
vt 0.4219 0.5469
vt 0.2969 0.6563
vt 0.4219 0.5469
vt 0.3594 0.6563
vt 0.2969 0.6563
vt 0.4219 0.5469
vt 0.4375 0.7500
vt 0.3594 0.6563
vt 0.3281 0.4844
vt 0.2969 0.6563
vt 0.2344 0.6094
vt 0.0938 0.9844
vt 0.2813 0.8594
vt 0.0156 0.9219
vt 0.0000 0.7813
vt 0.0156 0.9219
vt 0.1719 0.8281
vt 0.0156 0.9219
vt 0.0000 0.7813
vt 0.0938 0.9844
vt 0.2656 0.8281
vt 0.0938 0.9844
vt 0.0000 0.7656
vt 0.0938 0.9844
vt 0.2656 0.8281
vt 0.4531 0.9688
vt 0.5469 0.2344
vt 0.3750 0.1406
vt 0.3750 0.2500
vt 0.3750 0.2500
vt 0.4063 0.3750
vt 0.5313 0.2344
vt 0.3750 0.2500
vt 0.5313 0.2344
vt 0.4063 0.3906
vt 0.6719 0.1563
vt 0.3750 0.1406
vt 0.5469 0.2344
vt 0.4688 0.4375
vt 0.5469 0.2344
vt 0.7500 0.4219
vt 0.7969 0.4688
vt 0.8906 0.5938
vt 0.9531 0.5781
vt 0.8906 0.5938
vt 0.4688 0.4375
vt 0.7656 0.6094
vt 0.8906 0.5938
vt 0.6250 0.4688
vt 0.7969 0.4688
vt 0.7969 0.4688
vt 0.6250 0.4688
vt 0.8906 0.5938
vt 0.8906 0.5938
vt 0.6250 0.4688
vt 0.4688 0.4375
vt 0.8906 0.5938
vt 0.7969 0.4688
vt 0.9531 0.5781
vt 0.6250 0.4688
vt 0.8438 0.3125
vt 0.7969 0.4688
vt 0.4688 0.4375
vt 0.7500 0.4219
vt 0.6250 0.4688
vt 0.6250 0.4688
vt 0.7500 0.4219
vt 0.8438 0.3125
vt 0.7188 0.7813
vt 0.7656 0.6094
vt 0.6406 0.7813
vt 0.8906 0.5938
vt 0.7656 0.6094
vt 0.7188 0.7813
vt 0.7500 0.6094
vt 0.8906 0.5938
vt 0.7031 0.7813
vt 0.9688 0.8750
vt 0.9531 0.5781
vt 0.8906 0.8750
vt 0.3906 0.1563
vt 0.2500 0.0000
vt 0.2969 0.1563
vt 0.2969 0.1563
vt 0.3906 0.0625
vt 0.3906 0.1563
vt 0.7656 0.6094
vt 0.7188 0.7813
vt 0.6406 0.7813
vt 0.3906 0.0625
vt 0.2813 0.1094
vt 0.2969 0.1563
vt 0.4063 0.0156
vt 0.4063 0.1094
vt 0.7188 0.0000
vt 0.7031 0.9844
vt 0.7031 0.8594
vt 0.9844 0.9375
vt 0.8906 0.5938
vt 0.7656 0.6094
vt 0.4688 0.4375
vt 0.8906 0.5938
vt 0.4688 0.4375
vt 0.6250 0.4688
vt 0.7969 0.4688
vt 0.8438 0.3125
vt 0.6250 0.4688
vt 0.6250 0.4688
vt 0.8438 0.3125
vt 0.5469 0.2344
vt 0.6250 0.4688
vt 0.5469 0.2344
vt 0.4688 0.4375
vt 0.7188 0.0000
vt 0.6719 0.1563
vt 0.9688 0.1406
vt 0.8438 0.3125
vt 0.9688 0.1406
vt 0.6719 0.1563
vt 0.8438 0.3125
vt 0.6719 0.1563
vt 0.5469 0.2344
vt 0.6719 0.1563
vt 0.7188 0.0000
vt 0.4063 0.1094
vt 0.1875 0.2813
vt 0.2500 0.2031
vt 0.0625 0.1719
vt 0.0625 0.1719
vt 0.0156 0.2813
vt 0.1875 0.2813
vt 0.2500 0.2031
vt 0.2969 0.1563
vt 0.0938 0.0000
vt 0.0938 0.0000
vt 0.0625 0.1719
vt 0.2500 0.2031
vt 0.2500 0.2031
vt 0.1875 0.2813
vt 0.4063 0.3281
vt 0.2969 0.1563
vt 0.2500 0.2031
vt 0.4063 0.3281
vt 0.6094 0.7344
vt 0.6719 0.7344
vt 0.6406 0.9063
vt 0.6406 0.9063
vt 0.6719 0.7344
vt 0.6563 0.9844
vt 0.6094 0.7344
vt 0.6250 0.9844
vt 0.5938 0.9844
vt 0.0000 0.5781
vt 0.0938 0.5781
vt 0.0938 0.6250
vt 0.0000 0.5781
vt 0.0000 0.4063
vt 0.0938 0.5781
vt 0.9531 0.5781
vt 0.8906 0.5938
vt 0.8906 0.8750
vt 0.7188 0.7813
vt 0.8906 0.8750
vt 0.8906 0.5938
vt 0.8906 0.5938
vt 0.9531 0.5781
vt 0.8906 0.8750
vt 0.8906 0.5938
vt 0.8906 0.8750
vt 0.7188 0.7813
vt 0.3750 0.4531
vt 0.2188 0.3594
vt 0.1719 0.2813
vt 0.3281 0.4844
vt 0.2188 0.3594
vt 0.3750 0.4531
vt 0.0156 0.2813
vt 0.0000 0.3594
vt 0.1875 0.2813
vt 0.4375 0.2813
vt 0.3906 0.3125
vt 0.4375 0.3594
vt 0.0000 0.7656
vt 0.0938 0.9844
vt 0.0000 0.9844
vt 0.0938 0.9844
vt 0.0000 0.7813
vt 0.0000 0.9844
vt 0.7031 0.8594
vt 0.7031 0.9844
vt 0.9844 0.9375
vt 0.3906 0.0625
vt 0.2969 0.1563
vt 0.3906 0.1563
vt 0.2969 0.1563
vt 0.2813 0.1094
vt 0.2969 0.1563
vt 0.7031 0.8594
vt 0.7031 0.8594
vt 0.9844 0.9375
vt 0.6563 0.9844
vt 0.6719 0.7344
vt 0.6875 0.9688
vt 0.2500 0.0000
vt 0.3906 0.0625
vt 0.2969 0.1563
vt 0.7031 0.9844
vt 0.7031 0.8594
vt 0.9844 0.9375
vt 0.7031 0.8594
vt 0.7031 0.9844
vt 0.9844 0.9375
vt 0.6094 0.7344
vt 0.6406 0.9063
vt 0.6250 0.9844
vt 0.2813 0.1094
vt 0.3906 0.0625
vt 0.2969 0.1563
vt 0.2969 0.1563
vt 0.3906 0.0625
vt 0.3906 0.1563
vt 0.3906 0.0625
vt 0.2500 0.0000
vt 0.3906 0.1563
vt 0.7031 0.8438
vt 0.7031 0.9844
vt 0.9844 0.9375
vt 0.7031 0.9844
vt 0.7031 0.8438
vt 0.9844 0.9375
vt 0.4531 0.9688
vt 0.0938 0.9844
vt 0.2813 0.8594
vt 0.2188 0.3594
vt 0.1719 0.2813
vt 0.0938 0.4844
vt 0.2031 0.3438
vt 0.2188 0.4063
vt 0.0938 0.4844
vt 0.4375 0.4063
vt 0.2031 0.3438
vt 0.1719 0.2813
vt 0.3594 0.7344
vt 0.3594 0.6563
vt 0.2969 0.6563
vt 0.2344 0.7969
vt 0.3594 0.7344
vt 0.2813 0.7031
vt 0.3594 0.6563
vt 0.3594 0.7344
vt 0.4375 0.7500
vt 0.3906 0.8906
vt 0.4375 0.7500
vt 0.2344 0.7969
vt 0.3594 0.7344
vt 0.2344 0.7969
vt 0.4375 0.7500
vt 0.2813 0.7031
vt 0.3594 0.7344
vt 0.2969 0.6563
vt 0.1563 0.6563
vt 0.1406 0.7656
vt 0.2344 0.7969
vt 0.2344 0.7969
vt 0.2813 0.7031
vt 0.1563 0.6563
vt 0.0938 0.5781
vt 0.0938 0.6250
vt 0.1563 0.6563
vt 0.1563 0.6563
vt 0.1563 0.5938
vt 0.0938 0.5781
vt 0.0938 0.6250
vt 0.0781 0.7656
vt 0.1406 0.7656
vt 0.1406 0.7656
vt 0.1563 0.6563
vt 0.0938 0.6250
vt 0.1563 0.6563
vt 0.2813 0.7031
vt 0.2969 0.6563
vt 0.1563 0.5938
vt 0.1563 0.6563
vt 0.2969 0.6563
vt 0.2344 0.6094
vt 0.1563 0.5938
vt 0.2969 0.6563
vt 0.0781 0.7656
vt 0.0938 0.6250
vt 0.0000 0.5781
vt 0.0938 0.5781
vt 0.0938 0.6094
vt 0.0000 0.4063
vt 0.6094 0.6719
vt 0.4375 0.7500
vt 0.5781 0.8281
vt 0.5781 0.8281
vt 0.3906 0.8906
vt 0.5625 0.9844
vt 0.3906 0.8906
vt 0.5781 0.8281
vt 0.4375 0.7500
vt 0.3750 0.4531
vt 0.4219 0.5469
vt 0.4375 0.4063
vt 0.4375 0.4063
vt 0.4219 0.5469
vt 0.4844 0.6094
vt 0.4219 0.5469
vt 0.4375 0.7500
vt 0.4844 0.6094
vt 0.4844 0.6094
vt 0.5313 0.5000
vt 0.4375 0.4063
vt 0.4219 0.5469
vt 0.3750 0.4531
vt 0.3281 0.4844
vt 0.1719 0.2813
vt 0.3750 0.4531
vt 0.4375 0.4063
vt 0.4375 0.7500
vt 0.6094 0.6719
vt 0.4844 0.6094
vt 0.6406 0.5625
vt 0.4844 0.6094
vt 0.6094 0.6719
vt 0.4844 0.6094
vt 0.6406 0.5625
vt 0.5313 0.5000
vt 0.2031 0.3438
vt 0.0938 0.4844
vt 0.1719 0.2813
vt 0.3281 0.4844
vt 0.2969 0.6563
vt 0.4219 0.5469
vt 0.4219 0.5469
vt 0.2969 0.6563
vt 0.3594 0.6563
vt 0.4219 0.5469
vt 0.3594 0.6563
vt 0.4375 0.7500
vt 0.3281 0.4844
vt 0.2344 0.6094
vt 0.2969 0.6563
vt 0.0938 0.9844
vt 0.0156 0.9219
vt 0.2813 0.8594
vt 0.0000 0.7813
vt 0.1719 0.8281
vt 0.0156 0.9219
vt 0.0156 0.9219
vt 0.0938 0.9844
vt 0.0000 0.7813
vt 0.2656 0.8281
vt 0.0000 0.7656
vt 0.0938 0.9844
vt 0.0938 0.9844
vt 0.4531 0.9688
vt 0.2656 0.8281
vt 0.5469 0.2344
vt 0.3750 0.2500
vt 0.3750 0.1406
vt 0.3750 0.2500
vt 0.5313 0.2344
vt 0.4063 0.3750
vt 0.3750 0.2500
vt 0.4063 0.3906
vt 0.5313 0.2344
vt 0.6719 0.1563
vt 0.5469 0.2344
vt 0.3750 0.1406
vt 0.4688 0.4375
vt 0.7500 0.4219
vt 0.5469 0.2344
vt 0.7969 0.4688
vt 0.9531 0.5781
vt 0.8906 0.5938
vt 0.8906 0.5938
vt 0.7656 0.6094
vt 0.4688 0.4375
vt 0.8906 0.5938
vt 0.7969 0.4688
vt 0.6250 0.4688
vt 0.7969 0.4688
vt 0.8906 0.5938
vt 0.6250 0.4688
vt 0.8906 0.5938
vt 0.4688 0.4375
vt 0.6250 0.4688
vt 0.8906 0.5938
vt 0.9531 0.5781
vt 0.7969 0.4688
vt 0.6250 0.4688
vt 0.7969 0.4688
vt 0.8438 0.3125
vt 0.4688 0.4375
vt 0.6250 0.4688
vt 0.7500 0.4219
vt 0.6250 0.4688
vt 0.8438 0.3125
vt 0.7500 0.4219
vt 0.7188 0.7813
vt 0.6406 0.7813
vt 0.7656 0.6094
vt 0.8906 0.5938
vt 0.7188 0.7813
vt 0.7656 0.6094
vt 0.7500 0.6094
vt 0.7031 0.7813
vt 0.8906 0.5938
vt 0.9688 0.8750
vt 0.8906 0.8750
vt 0.9531 0.5781
vt 0.3906 0.1563
vt 0.2969 0.1563
vt 0.2500 0.0000
vt 0.2969 0.1563
vt 0.3906 0.1563
vt 0.3906 0.0625
vt 0.7656 0.6094
vt 0.6406 0.7813
vt 0.7188 0.7813
vt 0.3906 0.0625
vt 0.2969 0.1563
vt 0.2813 0.1094
vt 0.4063 0.0156
vt 0.7188 0.0000
vt 0.4063 0.1094
vt 0.7031 0.9844
vt 0.9844 0.9375
vt 0.7031 0.8594
vt 0.8906 0.5938
vt 0.4688 0.4375
vt 0.7656 0.6094
vt 0.8906 0.5938
vt 0.6250 0.4688
vt 0.4688 0.4375
vt 0.7969 0.4688
vt 0.6250 0.4688
vt 0.8438 0.3125
vt 0.6250 0.4688
vt 0.5469 0.2344
vt 0.8438 0.3125
vt 0.6250 0.4688
vt 0.4688 0.4375
vt 0.5469 0.2344
vt 0.7188 0.0000
vt 0.9688 0.1406
vt 0.6719 0.1563
vt 0.8438 0.3125
vt 0.6719 0.1563
vt 0.9688 0.1406
vt 0.8438 0.3125
vt 0.5469 0.2344
vt 0.6719 0.1563
vt 0.6719 0.1563
vt 0.4063 0.1094
vt 0.7188 0.0000
vt 0.1875 0.2813
vt 0.0625 0.1719
vt 0.2500 0.2031
vt 0.0625 0.1719
vt 0.1875 0.2813
vt 0.0156 0.2813
vt 0.2500 0.2031
vt 0.0938 0.0000
vt 0.2969 0.1563
vt 0.0938 0.0000
vt 0.2500 0.2031
vt 0.0625 0.1719
vt 0.2500 0.2031
vt 0.4063 0.3281
vt 0.1875 0.2813
vt 0.2969 0.1563
vt 0.4063 0.3281
vt 0.2500 0.2031
vt 0.6094 0.7344
vt 0.6406 0.9063
vt 0.6719 0.7344
vt 0.6406 0.9063
vt 0.6563 0.9844
vt 0.6719 0.7344
vt 0.6094 0.7344
vt 0.5938 0.9844
vt 0.6250 0.9844
vt 0.0000 0.5781
vt 0.0938 0.6250
vt 0.0938 0.5781
vt 0.0000 0.5781
vt 0.0938 0.5781
vt 0.0000 0.4063
vt 0.9531 0.5781
vt 0.8906 0.8750
vt 0.8906 0.5938
vt 0.7188 0.7813
vt 0.8906 0.5938
vt 0.8906 0.8750
vt 0.8906 0.5938
vt 0.8906 0.8750
vt 0.9531 0.5781
vt 0.8906 0.5938
vt 0.7188 0.7813
vt 0.8906 0.8750
vt 0.3750 0.4531
vt 0.1719 0.2813
vt 0.2188 0.3594
vt 0.3281 0.4844
vt 0.3750 0.4531
vt 0.2188 0.3594
vt 0.0156 0.2813
vt 0.1875 0.2813
vt 0.0000 0.3594
vt 0.4375 0.2813
vt 0.4375 0.3594
vt 0.3906 0.3125
vt 0.0000 0.7656
vt 0.0000 0.9844
vt 0.0938 0.9844
vt 0.0938 0.9844
vt 0.0000 0.9844
vt 0.0000 0.7813
vt 0.7031 0.8594
vt 0.9844 0.9375
vt 0.7031 0.9844
vt 0.3906 0.0625
vt 0.3906 0.1563
vt 0.2969 0.1563
vt 0.2969 0.1563
vt 0.2969 0.1563
vt 0.2813 0.1094
vt 0.7031 0.8594
vt 0.9844 0.9375
vt 0.7031 0.8594
vt 0.6563 0.9844
vt 0.6875 0.9688
vt 0.6719 0.7344
vt 0.2500 0.0000
vt 0.2969 0.1563
vt 0.3906 0.0625
vt 0.7031 0.9844
vt 0.9844 0.9375
vt 0.7031 0.8594
vt 0.7031 0.8594
vt 0.9844 0.9375
vt 0.7031 0.9844
vt 0.6094 0.7344
vt 0.6250 0.9844
vt 0.6406 0.9063
vt 0.2813 0.1094
vt 0.2969 0.1563
vt 0.3906 0.0625
vt 0.2969 0.1563
vt 0.3906 0.1563
vt 0.3906 0.0625
vt 0.3906 0.0625
vt 0.3906 0.1563
vt 0.2500 0.0000
vt 0.7031 0.8438
vt 0.9844 0.9375
vt 0.7031 0.9844
vt 0.7031 0.9844
vt 0.9844 0.9375
vt 0.7031 0.8438
f 24/1 20/3 23/2
f 27/4 26/6 25/5
f 1/7 27/9 25/8
f 2/10 1/12 26/11
f 30/13 31/15 28/14
f 3/16 30/18 29/17
f 31/19 30/21 22/20
f 4/22 22/24 3/23
f 30/25 3/27 22/26
f 29/28 30/30 28/29
f 33/31 5/33 3/32
f 3/34 29/36 33/35
f 34/37 35/39 33/38
f 33/40 32/42 34/41
f 35/43 6/45 5/44
f 5/46 33/48 35/47
f 33/49 29/51 28/50
f 32/52 33/54 28/53
f 23/55 32/57 28/56
f 6/58 35/60 8/59
f 34/61 7/63 9/62
f 36/64 22/66 37/65
f 37/67 4/69 10/68
f 4/70 37/72 22/71
f 38/73 39/75 2/74
f 2/76 39/78 40/77
f 39/79 22/81 40/80
f 40/82 11/84 2/83
f 39/85 38/87 24/86
f 26/88 38/90 2/89
f 22/91 36/93 40/92
f 12/94 40/96 36/95
f 40/97 12/99 11/98
f 1/100 25/102 26/101
f 24/103 28/105 39/104
f 39/106 28/108 31/107
f 39/109 31/111 22/110
f 24/112 23/114 28/113
f 20/115 32/117 23/116
f 7/118 34/120 32/119
f 32/121 20/123 7/122
f 27/124 1/126 20/125
f 20/127 24/129 27/128
f 41/130 36/132 37/131
f 36/133 41/135 12/134
f 21/136 12/138 41/137
f 42/139 41/141 37/140
f 45/142 21/144 41/143
f 50/145 47/147 48/146
f 48/148 49/150 45/149
f 43/151 50/153 44/152
f 50/154 48/156 58/155
f 48/157 45/159 58/158
f 43/160 47/162 50/161
f 44/163 50/165 46/164
f 45/166 44/168 21/167
f 44/169 46/171 21/170
f 52/172 53/174 49/173
f 48/175 52/177 49/176
f 49/178 51/180 43/179
f 54/181 55/183 47/182
f 65/184 66/186 54/185
f 62/187 63/189 52/188
f 49/190 53/192 51/191
f 52/193 61/195 53/194
f 10/196 14/198 37/197
f 64/199 56/201 65/200
f 43/202 45/204 49/203
f 43/205 44/207 45/206
f 50/208 58/210 46/209
f 58/211 41/213 46/212
f 58/214 45/216 41/215
f 14/217 13/219 42/218
f 46/220 42/222 13/221
f 46/223 41/225 42/224
f 42/226 37/228 14/227
f 15/229 46/231 59/230
f 46/232 15/234 21/233
f 59/235 13/237 16/236
f 13/238 59/240 46/239
f 59/241 17/243 15/242
f 16/244 17/246 59/245
f 54/247 53/249 55/248
f 53/250 60/252 55/251
f 54/253 66/255 64/254
f 8/256 35/258 34/257
f 8/259 34/261 9/260
f 47/262 55/264 48/263
f 52/265 48/267 55/266
f 43/268 54/270 47/269
f 43/271 51/273 54/272
f 38/274 26/276 27/275
f 24/277 38/279 27/278
f 21/280 15/282 18/281
f 21/283 18/285 12/284
f 1/286 19/288 20/287
f 20/289 19/291 7/290
f 60/292 57/294 62/293
f 52/295 63/297 61/296
f 61/298 60/300 53/299
f 61/301 57/303 60/302
f 60/304 62/306 55/305
f 55/307 62/309 52/308
f 63/310 57/312 61/311
f 62/313 57/315 63/314
f 54/316 64/318 53/317
f 53/319 64/321 51/320
f 64/322 65/324 51/323
f 51/325 65/327 54/326
f 66/328 56/330 64/329
f 65/331 56/333 66/332
f 71/334 70/336 67/335
f 74/337 72/339 73/338
f 1/340 72/342 74/341
f 2/343 73/345 1/344
f 77/346 75/348 78/347
f 3/349 76/351 77/350
f 78/352 69/354 77/353
f 4/355 3/357 69/356
f 77/358 69/360 3/359
f 76/361 75/363 77/362
f 80/364 3/366 5/365
f 3/367 80/369 76/368
f 81/370 80/372 82/371
f 80/373 81/375 79/374
f 82/376 5/378 6/377
f 5/379 82/381 80/380
f 80/382 75/384 76/383
f 79/385 75/387 80/386
f 70/388 75/390 79/389
f 6/391 8/393 82/392
f 81/394 9/396 7/395
f 83/397 84/399 69/398
f 84/400 10/402 4/401
f 4/403 69/405 84/404
f 85/406 2/408 86/407
f 2/409 87/411 86/410
f 86/412 87/414 69/413
f 87/415 2/417 11/416
f 86/418 71/420 85/419
f 73/421 2/423 85/422
f 69/424 87/426 83/425
f 12/427 83/429 87/428
f 87/430 11/432 12/431
f 1/433 73/435 72/434
f 71/436 86/438 75/437
f 86/439 78/441 75/440
f 86/442 69/444 78/443
f 71/445 75/447 70/446
f 67/448 70/450 79/449
f 7/451 79/453 81/452
f 79/454 7/456 67/455
f 74/457 67/459 1/458
f 67/460 74/462 71/461
f 88/463 84/465 83/464
f 83/466 12/468 88/467
f 68/469 88/471 12/470
f 89/472 84/474 88/473
f 92/475 88/477 68/476
f 97/478 95/480 94/479
f 95/481 92/483 96/482
f 90/484 91/486 97/485
f 97/487 105/489 95/488
f 95/490 105/492 92/491
f 90/493 97/495 94/494
f 91/496 93/498 97/497
f 92/499 68/501 91/500
f 91/502 68/504 93/503
f 99/505 96/507 100/506
f 95/508 96/510 99/509
f 96/511 90/513 98/512
f 101/514 94/516 102/515
f 112/517 101/519 113/518
f 109/520 99/522 110/521
f 96/523 98/525 100/524
f 99/526 100/528 108/527
f 10/529 84/531 14/530
f 111/532 112/534 103/533
f 90/535 96/537 92/536
f 90/538 92/540 91/539
f 97/541 93/543 105/542
f 105/544 93/546 88/545
f 105/547 88/549 92/548
f 14/550 89/552 13/551
f 93/553 13/555 89/554
f 93/556 89/558 88/557
f 89/559 14/561 84/560
f 15/562 106/564 93/563
f 93/565 68/567 15/566
f 106/568 16/570 13/569
f 13/571 93/573 106/572
f 106/574 15/576 17/575
f 16/577 106/579 17/578
f 101/580 102/582 100/581
f 100/583 102/585 107/584
f 101/586 111/588 113/587
f 8/589 81/591 82/590
f 8/592 9/594 81/593
f 94/595 95/597 102/596
f 99/598 102/600 95/599
f 90/601 94/603 101/602
f 90/604 101/606 98/605
f 85/607 74/609 73/608
f 71/610 74/612 85/611
f 68/613 18/615 15/614
f 68/616 12/618 18/617
f 1/619 67/621 19/620
f 67/622 7/624 19/623
f 107/625 109/627 104/626
f 99/628 108/630 110/629
f 108/631 100/633 107/632
f 108/634 107/636 104/635
f 107/637 102/639 109/638
f 102/640 99/642 109/641
f 110/643 108/645 104/644
f 109/646 110/648 104/647
f 101/649 100/651 111/650
f 100/652 98/654 111/653
f 111/655 98/657 112/656
f 98/658 101/660 112/659
f 113/661 111/663 103/662
f 112/664 113/666 103/665
