g Object
v 0.4219 1.0234 -0.4570
v 0.1914 1.1836 -0.1836
v 0.2422 1.1133 -0.1836
v 0.4492 1.0234 -0.4180
v 0.2422 1.1055 -0.0313
v 0.6172 1.0234 -0.0313
v 0.0078 1.1406 -0.0039
v 0.0078 1.5508 -0.0039
v 0.6172 1.0234 0.0039
v 0.8789 1.2031 0.0039
v 1.6016 1.4414 -0.0039
v 0.1914 1.4453 -0.0039
v 0.2695 1.1836 -0.0039
v 0.8633 1.2266 -0.0039
v 0.8789 1.2031 -0.0156
v 0.6289 1.2070 -0.5977
v 0.5938 1.2070 -0.6250
v 1.0313 1.4063 -0.9492
v 1.0313 1.4063 -0.9609
v 0.1523 1.4453 -0.1602
v 0.6055 1.2188 -0.6133
v 0.2148 1.1055 0.1602
v 0.4375 1.0195 0.4063
v 0.6289 1.1875 0.5898
v 0.1641 1.4453 0.1367
v 0.1914 1.1875 0.1758
v 0.2422 1.1055 0.0195
v 0.1641 1.1055 -0.2109
v 0.4102 1.1055 -0.4453
v 0.4375 1.1055 -0.4180
v 0.4219 1.1406 -0.4180
v 0.6055 1.1094 -0.0313
v 0.6055 1.1094 0.0039
v 0.6055 1.1484 -0.0039
v 0.4375 1.1055 0.4063
v 0.1914 1.1133 0.2266
v 0.4102 1.0195 0.4336
v 0.0352 1.1055 0.2383
v 0.0195 1.1133 0.6289
v 0.0078 1.5508 -0.0039
v -0.0156 1.1133 0.6289
v -0.0156 1.3320 0.8750
v 0.0078 1.6797 1.6484
v 0.0078 1.4375 0.1484
v 0.0078 1.1875 0.2500
v 0.0078 1.3555 0.8750
v 0.0195 1.3320 0.8750
v 0.6055 1.1875 0.6133
v 0.9531 1.3750 1.0273
v 0.9688 1.3750 1.0273
v 0.6055 1.1992 0.6016
v -0.1563 1.1055 0.1992
v -0.4023 1.0234 0.4336
v -0.5859 1.1875 0.6133
v -0.1289 1.4453 0.1484
v -0.1680 1.1875 0.1758
v -0.0273 1.1055 0.2383
v 0.4102 1.1055 0.4336
v 0.4219 1.1406 0.4219
v 0.0195 1.1992 0.6016
v -0.0156 1.1992 0.6016
v 0.0078 1.2383 0.5898
v -0.4023 1.1094 0.4336
v -0.2227 1.1172 0.1758
v -0.4414 1.0234 0.4063
v -0.2344 1.1055 0.0195
v -0.6094 1.0234 0.0195
v 0.0078 1.5508 -0.0039
v -0.6094 1.0234 -0.0156
v -0.8711 1.1680 -0.0156
v -1.6211 1.3164 -0.0039
v -0.1680 1.4453 -0.0039
v -0.2461 1.1875 -0.0039
v -0.8711 1.1914 -0.0039
v -0.8711 1.1680 0.0039
v -0.6094 1.1875 0.5898
v -1.0391 1.3398 0.9492
v -1.0234 1.3398 0.9648
v -0.5977 1.1992 0.6016
v -0.1953 1.1055 -0.1602
v -0.4297 1.0234 -0.4180
v -0.6250 1.1719 -0.5977
v -0.1563 1.4453 -0.1445
v -0.1680 1.1836 -0.1836
v -0.2344 1.1055 -0.0313
v -0.4297 1.1094 0.4063
v -0.4141 1.1445 0.4063
v -0.5977 1.1055 0.0195
v -0.5977 1.1055 -0.0156
v -0.5977 1.1484 -0.0039
v -0.4297 1.1055 -0.4063
v -0.1680 1.1133 -0.2383
v -0.4023 1.0234 -0.4453
v -0.0156 1.1055 -0.2500
v -0.0156 1.0234 -0.6250
v 0.0078 1.5508 -0.0039
v 0.0195 1.0234 -0.6250
v 0.0195 1.2266 -0.8711
v 0.0000 1.5313 -1.5703
v 0.0078 1.4414 -0.1836
v 0.0078 1.1836 -0.2617
v 0.0078 1.2461 -0.8594
v 0.0000 1.2266 -0.8711
v -0.5859 1.1719 -0.6250
v -0.9609 1.2969 -1.0508
v -0.9727 1.2969 -1.0508
v -0.5977 1.1836 -0.6133
v 0.0352 1.1055 -0.2500
v -0.4023 1.1055 -0.4453
v -0.4141 1.1406 -0.4180
v -0.0156 1.1055 -0.6133
v 0.0195 1.1055 -0.6133
v 0.0078 1.1445 -0.5977
vt 0.2813 0.3750
vt 0.0000 0.4063
vt 0.0469 0.4375
vt 0.6875 0.0313
vt 0.0000 0.0000
vt 0.6875 0.0000
vt 0.4844 0.4688
vt 0.0000 0.0000
vt 0.6875 0.0313
vt 0.5000 0.4375
vt 0.0000 0.0000
vt 0.4844 0.4688
vt 0.9219 0.0313
vt 0.6875 0.0000
vt 0.9219 0.0156
vt 0.6875 0.0000
vt 0.9219 0.0313
vt 0.6875 0.0313
vt 0.6406 0.6563
vt 0.6875 0.0313
vt 0.9219 0.0313
vt 0.6875 0.0313
vt 0.6406 0.6563
vt 0.4844 0.4688
vt 0.6875 0.6406
vt 0.4844 0.4688
vt 0.6406 0.6563
vt 0.4844 0.4688
vt 0.6875 0.6406
vt 0.5000 0.4375
vt 0.9219 0.0156
vt 0.9531 0.0313
vt 0.9219 0.0313
vt 0.6406 0.6563
vt 0.8438 0.8438
vt 0.6875 0.6406
vt 0.0000 0.0000
vt 0.0000 0.1563
vt 0.1250 0.1250
vt 0.1250 0.1250
vt 0.0000 0.4063
vt 0.2813 0.3125
vt 0.1250 0.1250
vt 0.0000 0.1563
vt 0.0000 0.4063
vt 0.0000 0.4063
vt 0.2813 0.3750
vt 0.2813 0.3125
vt 0.6250 0.6719
vt 0.6094 0.6719
vt 0.7969 0.8750
vt 0.0156 0.9688
vt 0.0000 0.9688
vt 0.2188 0.9688
vt 0.0000 0.9688
vt 0.0156 0.9688
vt 0.2188 0.9688
vt 0.6875 0.0000
vt 0.0000 0.0000
vt 0.5000 0.4531
vt 0.9219 0.0156
vt 0.5000 0.4531
vt 0.6875 0.6406
vt 0.5000 0.4531
vt 0.9219 0.0156
vt 0.6875 0.0000
vt 0.0000 0.0000
vt 0.1250 0.1250
vt 0.0000 0.1563
vt 0.1250 0.1250
vt 0.2813 0.3125
vt 0.0000 0.4063
vt 0.1250 0.1250
vt 0.0000 0.4063
vt 0.0000 0.1563
vt 0.2813 0.3750
vt 0.0469 0.4375
vt 0.0000 0.4063
vt 0.0000 0.4063
vt 0.2813 0.3125
vt 0.2813 0.3750
vt 0.6094 0.6719
vt 0.6250 0.6719
vt 0.7969 0.8750
vt 0.0000 0.4063
vt 0.0469 0.4375
vt 0.0313 0.6719
vt 0.0000 0.6719
vt 0.0313 0.6719
vt 0.0469 0.4375
vt 0.0469 0.4375
vt 0.0000 0.4063
vt 0.0000 0.6719
vt 0.0313 0.6719
vt 0.4531 0.5313
vt 0.2813 0.3750
vt 0.2813 0.3750
vt 0.0469 0.4375
vt 0.0313 0.6719
vt 0.4531 0.5313
vt 0.4844 0.5000
vt 0.2813 0.3125
vt 0.2813 0.3125
vt 0.2813 0.3750
vt 0.4531 0.5313
vt 0.0313 0.6719
vt 0.0000 0.6719
vt 0.0000 0.4063
vt 0.6094 0.6719
vt 0.6250 0.6719
vt 0.4844 0.5000
vt 0.4844 0.5000
vt 0.4531 0.5313
vt 0.6094 0.6719
vt 0.0000 0.9688
vt 0.0156 0.9688
vt 0.0313 0.6719
vt 0.0313 0.6719
vt 0.0000 0.6719
vt 0.0000 0.9688
vt 0.0156 0.9688
vt 0.6094 0.6719
vt 0.4531 0.5313
vt 0.4531 0.5313
vt 0.0313 0.6719
vt 0.0156 0.9688
vt 0.0156 0.9688
vt 0.0000 0.9688
vt 0.0000 0.6719
vt 0.0000 0.6719
vt 0.0313 0.6719
vt 0.0156 0.9688
vt 0.4844 0.5000
vt 0.4531 0.5313
vt 0.2813 0.3750
vt 0.2813 0.3750
vt 0.2813 0.3125
vt 0.4844 0.5000
vt 0.4531 0.5313
vt 0.0469 0.6719
vt 0.0469 0.4375
vt 0.0469 0.4375
vt 0.2813 0.3750
vt 0.4531 0.5313
vt 0.6250 0.6719
vt 0.6094 0.6719
vt 0.4531 0.5313
vt 0.4531 0.5313
vt 0.4844 0.5000
vt 0.6250 0.6719
vt 0.6094 0.6719
vt 0.0313 0.9688
vt 0.0469 0.6719
vt 0.0469 0.6719
vt 0.4531 0.5313
vt 0.6094 0.6719
vt 0.2813 0.3750
vt 0.0000 0.4063
vt 0.0469 0.4375
vt 0.6875 0.0313
vt 0.0000 0.0000
vt 0.6875 0.0000
vt 0.4844 0.4688
vt 0.0000 0.0000
vt 0.6875 0.0313
vt 0.5000 0.4375
vt 0.0000 0.0000
vt 0.4844 0.4688
vt 0.9219 0.0313
vt 0.6875 0.0000
vt 0.9219 0.0156
vt 0.6875 0.0000
vt 0.9219 0.0313
vt 0.6875 0.0313
vt 0.6406 0.6563
vt 0.6875 0.0313
vt 0.9219 0.0313
vt 0.6875 0.0313
vt 0.6406 0.6563
vt 0.4844 0.4688
vt 0.6875 0.6406
vt 0.4844 0.4688
vt 0.6406 0.6563
vt 0.4844 0.4688
vt 0.6875 0.6406
vt 0.5000 0.4375
vt 0.9219 0.0156
vt 0.9531 0.0313
vt 0.9219 0.0313
vt 0.6406 0.6563
vt 0.8438 0.8438
vt 0.6875 0.6406
vt 0.0000 0.0000
vt 0.0000 0.1563
vt 0.1250 0.1250
vt 0.1250 0.1250
vt 0.0000 0.4063
vt 0.2813 0.3125
vt 0.1250 0.1250
vt 0.0000 0.1563
vt 0.0000 0.4063
vt 0.0000 0.4063
vt 0.2813 0.3750
vt 0.2813 0.3125
vt 0.6250 0.6719
vt 0.6094 0.6719
vt 0.7969 0.8750
vt 0.0156 0.9688
vt 0.0000 0.9688
vt 0.2188 0.9688
vt 0.0000 0.9688
vt 0.0156 0.9688
vt 0.2188 0.9688
vt 0.6875 0.0000
vt 0.0000 0.0000
vt 0.5000 0.4531
vt 0.9219 0.0156
vt 0.5000 0.4531
vt 0.6875 0.6406
vt 0.5000 0.4531
vt 0.9219 0.0156
vt 0.6875 0.0000
vt 0.0000 0.0000
vt 0.1250 0.1250
vt 0.0000 0.1563
vt 0.1250 0.1250
vt 0.2813 0.3125
vt 0.0000 0.4063
vt 0.1250 0.1250
vt 0.0000 0.4063
vt 0.0000 0.1563
vt 0.2813 0.3750
vt 0.0469 0.4375
vt 0.0000 0.4063
vt 0.0000 0.4063
vt 0.2813 0.3125
vt 0.2813 0.3750
vt 0.6094 0.6719
vt 0.6250 0.6719
vt 0.7969 0.8750
vt 0.0000 0.4063
vt 0.0469 0.4375
vt 0.0313 0.6719
vt 0.0000 0.6719
vt 0.0313 0.6719
vt 0.0469 0.4375
vt 0.0469 0.4375
vt 0.0000 0.4063
vt 0.0000 0.6719
vt 0.0313 0.6719
vt 0.4531 0.5313
vt 0.2813 0.3750
vt 0.2813 0.3750
vt 0.0469 0.4375
vt 0.0313 0.6719
vt 0.4531 0.5313
vt 0.4844 0.5000
vt 0.2813 0.3125
vt 0.2813 0.3125
vt 0.2813 0.3750
vt 0.4531 0.5313
vt 0.0313 0.6719
vt 0.0000 0.6719
vt 0.0000 0.4063
vt 0.6094 0.6719
vt 0.6250 0.6719
vt 0.4844 0.5000
vt 0.4844 0.5000
vt 0.4531 0.5313
vt 0.6094 0.6719
vt 0.0000 0.9688
vt 0.0156 0.9688
vt 0.0313 0.6719
vt 0.0313 0.6719
vt 0.0000 0.6719
vt 0.0000 0.9688
vt 0.0156 0.9688
vt 0.6094 0.6719
vt 0.4531 0.5313
vt 0.4531 0.5313
vt 0.0313 0.6719
vt 0.0156 0.9688
vt 0.0156 0.9688
vt 0.0000 0.9688
vt 0.0000 0.6719
vt 0.0000 0.6719
vt 0.0313 0.6719
vt 0.0156 0.9688
vt 0.4844 0.5000
vt 0.4531 0.5313
vt 0.2813 0.3750
vt 0.2813 0.3750
vt 0.2813 0.3125
vt 0.4844 0.5000
vt 0.4531 0.5313
vt 0.0469 0.6719
vt 0.0469 0.4375
vt 0.0469 0.4375
vt 0.2813 0.3750
vt 0.4531 0.5313
vt 0.6250 0.6719
vt 0.6094 0.6719
vt 0.4531 0.5313
vt 0.4531 0.5313
vt 0.4844 0.5000
vt 0.6250 0.6719
vt 0.6094 0.6719
vt 0.0313 0.9688
vt 0.0469 0.6719
vt 0.0469 0.6719
vt 0.4531 0.5313
vt 0.6094 0.6719
vt 0.2813 0.3750
vt 0.0000 0.4063
vt 0.0469 0.4375
vt 0.6875 0.0313
vt 0.0000 0.0000
vt 0.6875 0.0000
vt 0.4844 0.4688
vt 0.0000 0.0000
vt 0.6875 0.0313
vt 0.5000 0.4375
vt 0.0000 0.0000
vt 0.4844 0.4688
vt 0.9219 0.0313
vt 0.6875 0.0000
vt 0.9219 0.0156
vt 0.6875 0.0000
vt 0.9219 0.0313
vt 0.6875 0.0313
vt 0.6406 0.6563
vt 0.6875 0.0313
vt 0.9219 0.0313
vt 0.6875 0.0313
vt 0.6406 0.6563
vt 0.4844 0.4688
vt 0.6875 0.6406
vt 0.4844 0.4688
vt 0.6406 0.6563
vt 0.4844 0.4688
vt 0.6875 0.6406
vt 0.5000 0.4375
vt 0.9219 0.0156
vt 0.9531 0.0313
vt 0.9219 0.0313
vt 0.6406 0.6563
vt 0.8438 0.8438
vt 0.6875 0.6406
vt 0.0000 0.0000
vt 0.0000 0.1563
vt 0.1250 0.1250
vt 0.1250 0.1250
vt 0.0000 0.4063
vt 0.2813 0.3125
vt 0.1250 0.1250
vt 0.0000 0.1563
vt 0.0000 0.4063
vt 0.0000 0.4063
vt 0.2813 0.3750
vt 0.2813 0.3125
vt 0.6250 0.6719
vt 0.6094 0.6719
vt 0.7969 0.8750
vt 0.0156 0.9688
vt 0.0000 0.9688
vt 0.2188 0.9688
vt 0.0000 0.9688
vt 0.0156 0.9688
vt 0.2188 0.9688
vt 0.6875 0.0000
vt 0.0000 0.0000
vt 0.5000 0.4531
vt 0.9219 0.0156
vt 0.5000 0.4531
vt 0.6875 0.6406
vt 0.5000 0.4531
vt 0.9219 0.0156
vt 0.6875 0.0000
vt 0.0000 0.0000
vt 0.1250 0.1250
vt 0.0000 0.1563
vt 0.1250 0.1250
vt 0.2813 0.3125
vt 0.0000 0.4063
vt 0.1250 0.1250
vt 0.0000 0.4063
vt 0.0000 0.1563
vt 0.2813 0.3750
vt 0.0469 0.4375
vt 0.0000 0.4063
vt 0.0000 0.4063
vt 0.2813 0.3125
vt 0.2813 0.3750
vt 0.6094 0.6719
vt 0.6250 0.6719
vt 0.7969 0.8750
vt 0.0000 0.4063
vt 0.0469 0.4375
vt 0.0313 0.6719
vt 0.0000 0.6719
vt 0.0313 0.6719
vt 0.0469 0.4375
vt 0.0469 0.4375
vt 0.0000 0.4063
vt 0.0000 0.6719
vt 0.0313 0.6719
vt 0.4531 0.5313
vt 0.2813 0.3750
vt 0.2813 0.3750
vt 0.0469 0.4375
vt 0.0313 0.6719
vt 0.4531 0.5313
vt 0.4844 0.5000
vt 0.2813 0.3125
vt 0.2813 0.3125
vt 0.2813 0.3750
vt 0.4531 0.5313
vt 0.0313 0.6719
vt 0.0000 0.6719
vt 0.0000 0.4063
vt 0.6094 0.6719
vt 0.6250 0.6719
vt 0.4844 0.5000
vt 0.4844 0.5000
vt 0.4531 0.5313
vt 0.6094 0.6719
vt 0.0000 0.9688
vt 0.0156 0.9688
vt 0.0313 0.6719
vt 0.0313 0.6719
vt 0.0000 0.6719
vt 0.0000 0.9688
vt 0.0156 0.9688
vt 0.6094 0.6719
vt 0.4531 0.5313
vt 0.4531 0.5313
vt 0.0313 0.6719
vt 0.0156 0.9688
vt 0.0156 0.9688
vt 0.0000 0.9688
vt 0.0000 0.6719
vt 0.0000 0.6719
vt 0.0313 0.6719
vt 0.0156 0.9688
vt 0.4844 0.5000
vt 0.4531 0.5313
vt 0.2813 0.3750
vt 0.2813 0.3750
vt 0.2813 0.3125
vt 0.4844 0.5000
vt 0.4531 0.5313
vt 0.0469 0.6719
vt 0.0469 0.4375
vt 0.0469 0.4375
vt 0.2813 0.3750
vt 0.4531 0.5313
vt 0.6250 0.6719
vt 0.6094 0.6719
vt 0.4531 0.5313
vt 0.4531 0.5313
vt 0.4844 0.5000
vt 0.6250 0.6719
vt 0.6094 0.6719
vt 0.0313 0.9688
vt 0.0469 0.6719
vt 0.0469 0.6719
vt 0.4531 0.5313
vt 0.6094 0.6719
vt 0.2813 0.3750
vt 0.0000 0.4063
vt 0.0469 0.4375
vt 0.6875 0.0313
vt 0.0000 0.0000
vt 0.6875 0.0000
vt 0.4844 0.4688
vt 0.0000 0.0000
vt 0.6875 0.0313
vt 0.5000 0.4375
vt 0.0000 0.0000
vt 0.4844 0.4688
vt 0.9219 0.0313
vt 0.6875 0.0000
vt 0.9219 0.0156
vt 0.6875 0.0000
vt 0.9219 0.0313
vt 0.6875 0.0313
vt 0.6406 0.6563
vt 0.6875 0.0313
vt 0.9219 0.0313
vt 0.6875 0.0313
vt 0.6406 0.6563
vt 0.4844 0.4688
vt 0.6875 0.6406
vt 0.4844 0.4688
vt 0.6406 0.6563
vt 0.4844 0.4688
vt 0.6875 0.6406
vt 0.5000 0.4375
vt 0.9219 0.0156
vt 0.9531 0.0313
vt 0.9219 0.0313
vt 0.6406 0.6563
vt 0.8438 0.8438
vt 0.6875 0.6406
vt 0.0000 0.0000
vt 0.0000 0.1563
vt 0.1250 0.1250
vt 0.1250 0.1250
vt 0.0000 0.4063
vt 0.2813 0.3125
vt 0.1250 0.1250
vt 0.0000 0.1563
vt 0.0000 0.4063
vt 0.0000 0.4063
vt 0.2813 0.3750
vt 0.2813 0.3125
vt 0.6250 0.6719
vt 0.6094 0.6719
vt 0.7969 0.8750
vt 0.0156 0.9688
vt 0.0000 0.9688
vt 0.2188 0.9688
vt 0.0000 0.9688
vt 0.0156 0.9688
vt 0.2188 0.9688
vt 0.6875 0.0000
vt 0.0000 0.0000
vt 0.5000 0.4531
vt 0.9219 0.0156
vt 0.5000 0.4531
vt 0.6875 0.6406
vt 0.5000 0.4531
vt 0.9219 0.0156
vt 0.6875 0.0000
vt 0.0000 0.0000
vt 0.1250 0.1250
vt 0.0000 0.1563
vt 0.1250 0.1250
vt 0.2813 0.3125
vt 0.0000 0.4063
vt 0.1250 0.1250
vt 0.0000 0.4063
vt 0.0000 0.1563
vt 0.2813 0.3750
vt 0.0469 0.4375
vt 0.0000 0.4063
vt 0.0000 0.4063
vt 0.2813 0.3125
vt 0.2813 0.3750
vt 0.6094 0.6719
vt 0.6250 0.6719
vt 0.7969 0.8750
vt 0.0000 0.4063
vt 0.0469 0.4375
vt 0.0313 0.6719
vt 0.0000 0.6719
vt 0.0313 0.6719
vt 0.0469 0.4375
vt 0.0469 0.4375
vt 0.0000 0.4063
vt 0.0000 0.6719
vt 0.0313 0.6719
vt 0.4531 0.5313
vt 0.2813 0.3750
vt 0.2813 0.3750
vt 0.0469 0.4375
vt 0.0313 0.6719
vt 0.4531 0.5313
vt 0.4844 0.5000
vt 0.2813 0.3125
vt 0.2813 0.3125
vt 0.2813 0.3750
vt 0.4531 0.5313
vt 0.0313 0.6719
vt 0.0000 0.6719
vt 0.0000 0.4063
vt 0.6094 0.6719
vt 0.6250 0.6719
vt 0.4844 0.5000
vt 0.4844 0.5000
vt 0.4531 0.5313
vt 0.6094 0.6719
vt 0.0000 0.9688
vt 0.0156 0.9688
vt 0.0313 0.6719
vt 0.0313 0.6719
vt 0.0000 0.6719
vt 0.0000 0.9688
vt 0.0156 0.9688
vt 0.6094 0.6719
vt 0.4531 0.5313
vt 0.4531 0.5313
vt 0.0313 0.6719
vt 0.0156 0.9688
vt 0.0156 0.9688
vt 0.0000 0.9688
vt 0.0000 0.6719
vt 0.0000 0.6719
vt 0.0313 0.6719
vt 0.0156 0.9688
vt 0.4844 0.5000
vt 0.4531 0.5313
vt 0.2813 0.3750
vt 0.2813 0.3750
vt 0.2813 0.3125
vt 0.4844 0.5000
vt 0.4531 0.5313
vt 0.0469 0.6719
vt 0.0469 0.4375
vt 0.0469 0.4375
vt 0.2813 0.3750
vt 0.4531 0.5313
vt 0.6250 0.6719
vt 0.6094 0.6719
vt 0.4531 0.5313
vt 0.4531 0.5313
vt 0.4844 0.5000
vt 0.6250 0.6719
vt 0.6094 0.6719
vt 0.0313 0.9688
vt 0.0469 0.6719
vt 0.0469 0.6719
vt 0.4531 0.5313
vt 0.6094 0.6719
f 5/1 3/3 2/2
f 6/4 9/6 7/5
f 4/7 6/9 7/8
f 1/10 4/12 7/11
f 15/13 10/15 9/14
f 9/16 6/18 15/17
f 16/19 15/21 6/20
f 6/22 4/24 16/23
f 17/25 16/27 4/26
f 4/28 1/30 17/29
f 10/31 15/33 11/32
f 16/34 17/36 18/35
f 8/37 12/39 20/38
f 12/40 13/42 2/41
f 12/43 2/45 20/44
f 2/46 13/48 5/47
f 14/49 11/51 15/50
f 16/52 18/54 21/53
f 21/55 18/57 17/56
f 9/58 23/60 7/59
f 10/61 24/63 23/62
f 23/64 9/66 10/65
f 8/67 25/69 12/68
f 12/70 26/72 13/71
f 12/73 25/75 26/74
f 27/76 26/78 22/77
f 26/79 27/81 13/80
f 10/82 11/84 14/83
f 2/85 29/87 28/86
f 31/88 3/90 30/89
f 3/91 31/93 2/92
f 30/94 5/96 32/95
f 5/97 30/99 3/98
f 32/100 13/102 34/101
f 13/103 32/105 5/104
f 29/106 2/108 31/107
f 15/109 34/111 14/110
f 34/112 15/114 32/113
f 21/115 30/117 16/116
f 30/118 21/120 31/119
f 16/121 32/123 15/122
f 32/124 16/126 30/125
f 17/127 31/129 21/128
f 31/130 17/132 29/131
f 34/133 27/135 33/134
f 27/136 34/138 13/137
f 33/139 22/141 35/140
f 22/142 33/144 27/143
f 14/145 33/147 10/146
f 33/148 14/150 34/149
f 10/151 35/153 24/152
f 35/154 10/156 33/155
f 38/157 36/159 26/158
f 39/160 41/162 7/161
f 37/163 39/165 7/164
f 23/166 37/168 7/167
f 47/169 42/171 41/170
f 41/172 39/174 47/173
f 48/175 47/177 39/176
f 39/178 37/180 48/179
f 24/181 48/183 37/182
f 37/184 23/186 24/185
f 42/187 47/189 43/188
f 48/190 24/192 49/191
f 40/193 44/195 25/194
f 44/196 45/198 26/197
f 44/199 26/201 25/200
f 26/202 45/204 38/203
f 46/205 43/207 47/206
f 48/208 49/210 51/209
f 51/211 49/213 24/212
f 41/214 53/216 7/215
f 42/217 54/219 53/218
f 53/220 41/222 42/221
f 40/223 55/225 44/224
f 44/226 56/228 45/227
f 44/229 55/231 56/230
f 57/232 56/234 52/233
f 56/235 57/237 45/236
f 42/238 43/240 46/239
f 26/241 35/243 22/242
f 59/244 36/246 58/245
f 36/247 59/249 26/248
f 58/250 38/252 60/251
f 38/253 58/255 36/254
f 60/256 45/258 62/257
f 45/259 60/261 38/260
f 35/262 26/264 59/263
f 47/265 62/267 46/266
f 62/268 47/270 60/269
f 51/271 58/273 48/272
f 58/274 51/276 59/275
f 48/277 60/279 47/278
f 60/280 48/282 58/281
f 24/283 59/285 51/284
f 59/286 24/288 35/287
f 62/289 57/291 61/290
f 57/292 62/294 45/293
f 61/295 52/297 63/296
f 52/298 61/300 57/299
f 46/301 61/303 42/302
f 61/304 46/306 62/305
f 42/307 63/309 54/308
f 63/310 42/312 61/311
f 66/313 64/315 56/314
f 67/316 69/318 7/317
f 65/319 67/321 7/320
f 53/322 65/324 7/323
f 75/325 70/327 69/326
f 69/328 67/330 75/329
f 76/331 75/333 67/332
f 67/334 65/336 76/335
f 54/337 76/339 65/338
f 65/340 53/342 54/341
f 70/343 75/345 71/344
f 76/346 54/348 77/347
f 68/349 72/351 55/350
f 72/352 73/354 56/353
f 72/355 56/357 55/356
f 56/358 73/360 66/359
f 74/361 71/363 75/362
f 76/364 77/366 79/365
f 79/367 77/369 54/368
f 69/370 81/372 7/371
f 70/373 82/375 81/374
f 81/376 69/378 70/377
f 68/379 83/381 72/380
f 72/382 84/384 73/383
f 72/385 83/387 84/386
f 85/388 84/390 80/389
f 84/391 85/393 73/392
f 70/394 71/396 74/395
f 56/397 63/399 52/398
f 87/400 64/402 86/401
f 64/403 87/405 56/404
f 86/406 66/408 88/407
f 66/409 86/411 64/410
f 88/412 73/414 90/413
f 73/415 88/417 66/416
f 63/418 56/420 87/419
f 75/421 90/423 74/422
f 90/424 75/426 88/425
f 79/427 86/429 76/428
f 86/430 79/432 87/431
f 76/433 88/435 75/434
f 88/436 76/438 86/437
f 54/439 87/441 79/440
f 87/442 54/444 63/443
f 90/445 85/447 89/446
f 85/448 90/450 73/449
f 89/451 80/453 91/452
f 80/454 89/456 85/455
f 74/457 89/459 70/458
f 89/460 74/462 90/461
f 70/463 91/465 82/464
f 91/466 70/468 89/467
f 94/469 92/471 84/470
f 95/472 97/474 7/473
f 93/475 95/477 7/476
f 81/478 93/480 7/479
f 103/481 98/483 97/482
f 97/484 95/486 103/485
f 104/487 103/489 95/488
f 95/490 93/492 104/491
f 82/493 104/495 93/494
f 93/496 81/498 82/497
f 98/499 103/501 99/500
f 104/502 82/504 105/503
f 96/505 100/507 83/506
f 100/508 101/510 84/509
f 100/511 84/513 83/512
f 84/514 101/516 94/515
f 102/517 99/519 103/518
f 104/520 105/522 107/521
f 107/523 105/525 82/524
f 97/526 1/528 7/527
f 98/529 17/531 1/530
f 1/532 97/534 98/533
f 96/535 20/537 100/536
f 100/538 2/540 101/539
f 100/541 20/543 2/542
f 108/544 2/546 28/545
f 2/547 108/549 101/548
f 98/550 99/552 102/551
f 84/553 91/555 80/554
f 110/556 92/558 109/557
f 92/559 110/561 84/560
f 109/562 94/564 111/563
f 94/565 109/567 92/566
f 111/568 101/570 113/569
f 101/571 111/573 94/572
f 91/574 84/576 110/575
f 103/577 113/579 102/578
f 113/580 103/582 111/581
f 107/583 109/585 104/584
f 109/586 107/588 110/587
f 104/589 111/591 103/590
f 111/592 104/594 109/593
f 82/595 110/597 107/596
f 110/598 82/600 91/599
f 113/601 108/603 112/602
f 108/604 113/606 101/605
f 112/607 28/609 29/608
f 28/610 112/612 108/611
f 102/613 112/615 98/614
f 112/616 102/618 113/617
f 98/619 29/621 17/620
f 29/622 98/624 112/623
