g Object
v 0.0000 1.1250 -1.1719
v -0.1523 1.3320 -1.1719
v -0.0039 1.8750 -1.0430
v -0.2188 1.6328 -1.0859
v 0.0000 1.7148 -0.4414
v -0.0039 1.6016 1.0977
v 0.0000 1.6719 0.7891
v 0.0000 0.9688 0.6211
v -0.0117 1.6250 0.3281
v 0.0000 0.7930 -0.1875
v 0.0000 0.8320 -0.8320
v 0.0000 1.7070 -0.6641
v 0.0313 1.0430 1.1563
v -0.2813 1.1563 0.6484
v -0.1406 1.4570 1.0703
v -0.2734 1.4453 0.6797
v -0.3320 1.5273 -0.7617
v -0.2305 1.5781 -0.4688
v -0.2305 1.1250 0.3398
v -0.2031 1.5508 0.2578
v -0.1953 0.9961 -0.1445
v -0.3086 1.0273 -0.4258
v -0.1367 0.6563 -0.2734
v -0.1445 0.7773 -0.6094
v -0.1445 0.2852 -0.4844
v -0.1680 0.3086 -0.3125
v -0.2500 0.2852 -0.4844
v -0.2734 0.8164 -0.5547
v -0.2930 1.1094 1.1680
v -0.1328 0.1641 -0.5391
v -0.1328 -0.0039 -0.4844
v -0.2617 0.1563 -0.5234
v -0.2656 0.0078 -0.4531
v -0.1523 0.0000 -0.6797
v -0.3359 0.0156 -0.5938
v -0.3242 1.0664 -0.6797
v -0.2852 0.1719 1.2813
v -0.3711 0.1719 1.3359
v -0.2344 0.4219 1.3516
v -0.3320 0.4453 1.4219
v -0.3125 0.0000 1.4219
v -0.2188 0.5039 1.5195
v -0.2383 0.6797 0.9023
v -0.4180 0.6953 1.0156
v -0.1953 0.8320 1.3242
v -0.4453 0.0000 1.1680
v -0.2617 0.0000 1.1406
v -0.2344 1.1406 -1.0000
v 0.0313 0.3750 1.6172
v 0.0078 0.9883 1.3672
v 0.0000 1.1484 1.6055
v -0.1406 1.0352 1.4492
v 0.0000 1.3828 1.1133
v 0.0000 1.2383 -1.3789
v 0.0000 1.4883 -1.3672
v 0.0000 1.0898 -1.6328
v 0.0000 1.1172 -1.6602
v 0.0000 1.5352 -1.8438
v 0.0000 1.7461 -1.5078
v 0.0000 1.6992 -1.8711
v 0.0000 1.8438 -1.4219
v -0.1211 1.3750 -1.4375
v -0.2539 1.5039 -1.1719
v -0.1328 1.4805 -1.4648
v -0.2031 1.7852 -1.1016
v -0.0664 1.1406 -1.6328
v -0.0391 1.5352 -1.8281
v -0.0469 1.5430 -1.8008
v -0.0625 1.4375 -1.7891
v -0.0508 1.5430 -1.8281
v -0.2578 1.6992 -1.2539
v -0.1289 1.6875 -1.4805
v -0.0625 1.6641 -1.8594
v -0.2031 1.7461 -1.3789
v -0.4453 1.8672 -1.1289
v 0.1484 1.3320 -1.1719
v 0.2109 1.6328 -1.0859
v 0.2734 1.1563 0.6484
v 0.1367 1.4570 1.0859
v 0.2695 1.4453 0.6797
v 0.3242 1.5273 -0.7617
v 0.2266 1.5781 -0.4688
v 0.2227 1.1250 0.3398
v 0.1797 1.5664 0.2578
v 0.1719 1.0039 -0.1328
v 0.2969 1.0352 -0.4258
v 0.1367 0.6484 -0.2734
v 0.1523 0.7773 -0.6094
v 0.1680 0.2852 -0.4961
v 0.1758 0.3086 -0.3281
v 0.2695 0.2930 -0.4844
v 0.2734 0.8164 -0.5547
v 0.3281 1.1016 1.0156
v 0.1602 0.1641 -0.5391
v 0.1641 -0.0039 -0.4844
v 0.2891 0.1641 -0.5234
v 0.2930 0.0078 -0.4531
v 0.1836 0.0000 -0.6797
v 0.3750 0.0156 -0.6094
v 0.3203 1.0664 -0.6797
v 0.3203 0.1719 0.8164
v 0.4102 0.1719 0.8594
v 0.2813 0.4609 0.8867
v 0.3867 0.4609 0.9570
v 0.3477 0.0000 0.9570
v 0.2813 0.4961 1.0703
v 0.2383 0.8477 0.5781
v 0.4258 0.8398 0.6484
v 0.2617 0.7695 1.0000
v 0.4844 0.0000 0.7070
v 0.3008 0.0000 0.6641
v 0.2266 1.1406 -1.0000
v 0.1602 1.0430 1.4492
v 0.1172 1.3750 -1.4375
v 0.2500 1.5039 -1.1719
v 0.1250 1.4805 -1.4648
v 0.1953 1.7930 -1.1016
v 0.0625 1.1406 -1.6328
v 0.0430 1.5352 -1.8281
v 0.0508 1.5430 -1.8008
v 0.0625 1.4453 -1.8008
v 0.0586 1.5430 -1.8281
v 0.2539 1.6992 -1.2539
v 0.1211 1.6875 -1.4805
v 0.0625 1.6641 -1.8594
v 0.1953 1.7461 -1.3789
v 0.4453 1.8672 -1.1133
vt 0.3438 0.3281
vt 0.1406 0.1406
vt 0.3125 0.1563
vt 0.1406 0.1406
vt 0.3438 0.3281
vt 0.1094 0.4063
vt 0.3125 0.1563
vt 0.2188 0.1563
vt 0.3438 0.3281
vt 0.2344 0.4063
vt 0.3438 0.3281
vt 0.2188 0.1563
vt 0.1875 0.5469
vt 0.2813 0.5156
vt 0.2344 0.4063
vt 0.0156 0.4531
vt 0.1094 0.4063
vt 0.3438 0.3281
vt 0.7031 0.5938
vt 0.7031 0.7344
vt 0.8594 0.7344
vt 0.5781 0.5625
vt 0.7031 0.7344
vt 0.7031 0.5938
vt 0.7031 0.7344
vt 0.5781 0.5625
vt 0.5469 0.7656
vt 0.7500 0.8438
vt 0.5469 0.7656
vt 0.5625 0.8750
vt 0.5625 0.8750
vt 0.5469 0.7656
vt 0.2969 0.8750
vt 0.4063 0.4844
vt 0.5469 0.7656
vt 0.5781 0.5625
vt 0.3906 0.3594
vt 0.5781 0.5625
vt 0.6094 0.4375
vt 0.5781 0.5625
vt 0.3906 0.3594
vt 0.4063 0.4844
vt 0.0313 0.8750
vt 0.2031 0.9219
vt 0.1563 0.8125
vt 0.1563 0.8125
vt 0.2813 0.8125
vt 0.1875 0.5469
vt 0.0469 0.6406
vt 0.1875 0.5469
vt 0.1094 0.4063
vt 0.2813 0.8125
vt 0.2813 0.5156
vt 0.1875 0.5469
vt 0.2813 0.8125
vt 0.2969 0.8750
vt 0.5469 0.7656
vt 0.3906 0.3594
vt 0.3438 0.3281
vt 0.4063 0.4844
vt 0.0156 0.4531
vt 0.0000 0.6406
vt 0.0469 0.6406
vt 0.2813 0.8125
vt 0.2031 0.9219
vt 0.2969 0.8750
vt 0.0000 0.6406
vt 0.0156 0.7344
vt 0.0469 0.6406
vt 0.1094 0.4063
vt 0.0156 0.4531
vt 0.0469 0.6406
vt 0.0156 0.4531
vt 0.3438 0.3281
vt 0.3906 0.3594
vt 0.8594 0.5469
vt 0.7031 0.5938
vt 0.8594 0.7344
vt 0.8594 0.5469
vt 0.8594 0.7344
vt 0.9375 0.5313
vt 0.1406 0.0781
vt 0.1250 0.0000
vt 0.2969 0.0000
vt 0.2969 0.0000
vt 0.1406 0.1406
vt 0.1406 0.0781
vt 0.1406 0.1406
vt 0.2969 0.0000
vt 0.3125 0.1563
vt 0.2188 0.0938
vt 0.3125 0.1563
vt 0.2969 0.0000
vt 0.3125 0.1563
vt 0.2188 0.0938
vt 0.2188 0.1563
vt 0.2969 0.0000
vt 0.2188 0.0000
vt 0.2969 0.0000
vt 0.2188 0.0000
vt 0.2969 0.0000
vt 0.1250 0.0000
vt 0.2344 0.4063
vt 0.1094 0.4063
vt 0.1875 0.5469
vt 0.7031 0.5938
vt 0.6094 0.4375
vt 0.5781 0.5625
vt 0.9375 0.0000
vt 0.8906 0.0781
vt 0.9375 0.2656
vt 0.9063 0.2188
vt 0.9375 0.2656
vt 0.8906 0.0781
vt 0.7031 0.3594
vt 0.9375 0.2656
vt 0.8906 0.3906
vt 0.7031 0.3594
vt 0.8281 0.2344
vt 0.9375 0.2656
vt 0.7031 0.3594
vt 0.7031 0.5938
vt 0.7813 0.3750
vt 0.7031 0.3594
vt 0.8906 0.3906
vt 0.9375 0.5313
vt 0.8281 0.0938
vt 0.8125 0.0000
vt 0.9375 0.0000
vt 0.8125 0.0000
vt 0.8906 0.0781
vt 0.8594 0.0000
vt 0.9375 0.0000
vt 0.8594 0.0000
vt 0.8906 0.0781
vt 0.7031 0.3594
vt 0.6094 0.4375
vt 0.7031 0.5938
vt 0.8594 0.5469
vt 0.7813 0.3750
vt 0.7031 0.5938
vt 0.7813 0.3750
vt 0.8594 0.5469
vt 0.8906 0.3906
vt 0.8281 0.2344
vt 0.7813 0.3750
vt 0.9063 0.2188
vt 0.7813 0.3750
vt 0.8281 0.2344
vt 0.7031 0.3594
vt 0.8281 0.2344
vt 0.9375 0.0000
vt 0.9375 0.2656
vt 0.8281 0.2344
vt 0.8281 0.0938
vt 0.9375 0.0000
vt 0.7031 0.3594
vt 0.9375 0.5313
vt 0.6094 0.4375
vt 0.9063 0.2188
vt 0.8906 0.3906
vt 0.9375 0.2656
vt 0.8906 0.3906
vt 0.9063 0.2188
vt 0.7813 0.3750
vt 0.2344 0.4063
vt 0.2188 0.1563
vt 0.1094 0.4063
vt 0.2188 0.1563
vt 0.1406 0.1406
vt 0.1094 0.4063
vt 0.2813 0.8125
vt 0.5469 0.7656
vt 0.4063 0.4844
vt 0.2969 0.0000
vt 0.2188 0.0000
vt 0.2188 0.0938
vt 0.1250 0.0000
vt 0.2188 0.0938
vt 0.2188 0.0000
vt 0.3438 0.3281
vt 0.2344 0.4063
vt 0.2813 0.5156
vt 0.1563 0.8125
vt 0.2031 0.9219
vt 0.2813 0.8125
vt 0.4063 0.4844
vt 0.3438 0.3281
vt 0.2813 0.5156
vt 0.5469 0.7656
vt 0.7500 0.8438
vt 0.7031 0.7344
vt 0.1875 0.5469
vt 0.0469 0.6406
vt 0.1563 0.8125
vt 0.0469 0.6406
vt 0.0156 0.7344
vt 0.1563 0.8125
vt 0.7500 0.8438
vt 0.8594 0.7344
vt 0.7031 0.7344
vt 0.8594 0.7344
vt 0.7500 0.8438
vt 0.8750 0.8125
vt 0.4063 0.4844
vt 0.2813 0.5156
vt 0.2813 0.8125
vt 0.1406 0.1406
vt 0.2188 0.1563
vt 0.2188 0.0938
vt 0.2188 0.0938
vt 0.1250 0.0000
vt 0.1406 0.0781
vt 0.2188 0.0938
vt 0.1406 0.0781
vt 0.1406 0.1406
vt 0.2969 0.0000
vt 0.3125 0.1563
vt 0.2969 0.0000
vt 0.8906 0.0781
vt 0.8125 0.0000
vt 0.8281 0.0938
vt 0.8281 0.0938
vt 0.8281 0.2344
vt 0.8906 0.0781
vt 0.9063 0.2188
vt 0.8906 0.0781
vt 0.8281 0.2344
vt 0.8594 0.5469
vt 0.9375 0.5313
vt 0.8906 0.3906
vt 0.8594 0.0000
vt 0.9375 0.0000
vt 0.8125 0.0000
vt 0.7188 0.8906
vt 0.9531 0.9219
vt 0.7188 0.9375
vt 0.7188 0.9375
vt 0.4688 0.9063
vt 0.7188 0.8906
vt 0.4688 0.9063
vt 0.7188 0.9375
vt 0.4688 0.9531
vt 0.9531 0.9219
vt 0.7188 0.9688
vt 0.7188 0.9375
vt 0.4844 0.9688
vt 0.7188 0.9375
vt 0.7188 0.9688
vt 0.9375 0.7031
vt 0.9375 0.5313
vt 0.8594 0.7344
vt 0.7188 0.9375
vt 0.4844 0.9688
vt 0.4688 0.9531
vt 0.5938 0.0781
vt 0.4688 0.0313
vt 0.5469 0.1406
vt 0.4844 0.0000
vt 0.4688 0.0313
vt 0.5938 0.0781
vt 0.4688 0.0313
vt 0.4844 0.0000
vt 0.4688 0.0313
vt 0.7188 0.0938
vt 0.7813 0.1875
vt 0.7656 0.0938
vt 0.7813 0.1875
vt 0.7188 0.0938
vt 0.7188 0.2344
vt 0.7969 0.1875
vt 0.7813 0.1875
vt 0.7188 0.2344
vt 0.7969 0.1875
vt 0.7188 0.0000
vt 0.7500 0.0000
vt 0.7031 0.0938
vt 0.7031 0.0469
vt 0.6719 0.0469
vt 0.6719 0.0469
vt 0.6563 0.0625
vt 0.7031 0.0938
vt 0.7031 0.0938
vt 0.6563 0.0625
vt 0.7031 0.0469
vt 0.7188 0.0000
vt 0.7969 0.1875
vt 0.7188 0.2344
vt 0.3281 0.2500
vt 0.3438 0.2031
vt 0.3750 0.2031
vt 0.3594 0.3281
vt 0.3281 0.2500
vt 0.3750 0.2031
vt 0.5625 0.3125
vt 0.5313 0.1875
vt 0.5156 0.2813
vt 0.5625 0.3125
vt 0.6563 0.2031
vt 0.5313 0.1875
vt 0.3594 0.3281
vt 0.5156 0.2813
vt 0.3281 0.2500
vt 0.5156 0.2813
vt 0.3594 0.3281
vt 0.5000 0.3594
vt 0.3281 0.2500
vt 0.5156 0.2813
vt 0.5313 0.1875
vt 0.3281 0.2500
vt 0.5313 0.1875
vt 0.3438 0.2031
vt 0.5156 0.2813
vt 0.5000 0.3594
vt 0.5625 0.3125
vt 0.5625 0.4219
vt 0.5625 0.3125
vt 0.5000 0.3594
vt 0.5625 0.3125
vt 0.5625 0.4219
vt 0.6875 0.3438
vt 0.0156 0.1875
vt 0.0000 0.2031
vt 0.0156 0.3125
vt 0.0156 0.1875
vt 0.0156 0.3125
vt 0.0625 0.2031
vt 0.6250 0.2969
vt 0.5625 0.3125
vt 0.6875 0.3438
vt 0.6875 0.3438
vt 0.5625 0.4219
vt 0.6875 0.4063
vt 0.0156 0.3125
vt 0.0000 0.2031
vt 0.0625 0.2031
vt 0.6563 0.2031
vt 0.5625 0.3125
vt 0.6250 0.2969
vt 0.6250 0.2969
vt 0.6875 0.2656
vt 0.6563 0.2031
vt 0.6563 0.2031
vt 0.6563 0.1406
vt 0.5313 0.1875
vt 0.5469 0.1406
vt 0.5313 0.1875
vt 0.6563 0.1406
vt 0.6563 0.1406
vt 0.5938 0.0781
vt 0.5469 0.1406
vt 0.6406 0.0625
vt 0.5938 0.0781
vt 0.6563 0.1406
vt 0.0313 0.9375
vt 0.2031 0.9219
vt 0.0313 0.8750
vt 0.0469 0.9844
vt 0.2031 0.9219
vt 0.0313 0.9375
vt 0.0313 0.8750
vt 0.1563 0.8125
vt 0.0156 0.8125
vt 0.0156 0.7344
vt 0.0156 0.8125
vt 0.1563 0.8125
vt 0.3438 0.3281
vt 0.3125 0.1563
vt 0.1406 0.1406
vt 0.1406 0.1406
vt 0.1094 0.4063
vt 0.3438 0.3281
vt 0.3125 0.1563
vt 0.3438 0.3281
vt 0.2188 0.1563
vt 0.2344 0.4063
vt 0.2188 0.1563
vt 0.3438 0.3281
vt 0.1875 0.5469
vt 0.2344 0.4063
vt 0.2813 0.5156
vt 0.0156 0.4531
vt 0.3438 0.3281
vt 0.1094 0.4063
vt 0.7031 0.5938
vt 0.8594 0.7344
vt 0.7031 0.7344
vt 0.5781 0.5625
vt 0.7031 0.5938
vt 0.7031 0.7344
vt 0.7031 0.7344
vt 0.5469 0.7656
vt 0.5781 0.5625
vt 0.7500 0.8438
vt 0.5625 0.8750
vt 0.5469 0.7656
vt 0.5625 0.8750
vt 0.2969 0.8750
vt 0.5469 0.7656
vt 0.4063 0.4844
vt 0.5781 0.5625
vt 0.5469 0.7656
vt 0.3906 0.3594
vt 0.6094 0.4375
vt 0.5781 0.5625
vt 0.5781 0.5625
vt 0.4063 0.4844
vt 0.3906 0.3594
vt 0.0313 0.8750
vt 0.1563 0.8125
vt 0.2031 0.9219
vt 0.1563 0.8125
vt 0.1875 0.5469
vt 0.2813 0.8125
vt 0.0469 0.6406
vt 0.1094 0.4063
vt 0.1875 0.5469
vt 0.2813 0.8125
vt 0.1875 0.5469
vt 0.2813 0.5156
vt 0.2813 0.8125
vt 0.5469 0.7656
vt 0.2969 0.8750
vt 0.3906 0.3594
vt 0.4063 0.4844
vt 0.3438 0.3281
vt 0.0156 0.4531
vt 0.0469 0.6406
vt 0.0000 0.6406
vt 0.2813 0.8125
vt 0.2969 0.8750
vt 0.2031 0.9219
vt 0.0000 0.6406
vt 0.0469 0.6406
vt 0.0156 0.7344
vt 0.1094 0.4063
vt 0.0469 0.6406
vt 0.0156 0.4531
vt 0.0156 0.4531
vt 0.3906 0.3594
vt 0.3438 0.3281
vt 0.8594 0.5469
vt 0.8594 0.7344
vt 0.7031 0.5938
vt 0.8594 0.5469
vt 0.9375 0.5313
vt 0.8594 0.7344
vt 0.1406 0.0781
vt 0.2969 0.0000
vt 0.1250 0.0000
vt 0.2969 0.0000
vt 0.1406 0.0781
vt 0.1406 0.1406
vt 0.1406 0.1406
vt 0.3125 0.1563
vt 0.2969 0.0000
vt 0.2188 0.0938
vt 0.2969 0.0000
vt 0.3125 0.1563
vt 0.3125 0.1563
vt 0.2188 0.1563
vt 0.2188 0.0938
vt 0.2969 0.0000
vt 0.2969 0.0000
vt 0.2188 0.0000
vt 0.2188 0.0000
vt 0.1250 0.0000
vt 0.2969 0.0000
vt 0.2344 0.4063
vt 0.1875 0.5469
vt 0.1094 0.4063
vt 0.7031 0.5938
vt 0.5781 0.5625
vt 0.6094 0.4375
vt 0.9375 0.0000
vt 0.9375 0.2656
vt 0.8906 0.0781
vt 0.9063 0.2188
vt 0.8906 0.0781
vt 0.9375 0.2656
vt 0.7031 0.3594
vt 0.8906 0.3906
vt 0.9375 0.2656
vt 0.7031 0.3594
vt 0.9375 0.2656
vt 0.8281 0.2344
vt 0.7031 0.3594
vt 0.7813 0.3750
vt 0.7031 0.5938
vt 0.7031 0.3594
vt 0.9375 0.5313
vt 0.8906 0.3906
vt 0.8281 0.0938
vt 0.9375 0.0000
vt 0.8125 0.0000
vt 0.8125 0.0000
vt 0.8594 0.0000
vt 0.8906 0.0781
vt 0.9375 0.0000
vt 0.8906 0.0781
vt 0.8594 0.0000
vt 0.7031 0.3594
vt 0.7031 0.5938
vt 0.6094 0.4375
vt 0.8594 0.5469
vt 0.7031 0.5938
vt 0.7813 0.3750
vt 0.7813 0.3750
vt 0.8906 0.3906
vt 0.8594 0.5469
vt 0.8281 0.2344
vt 0.9063 0.2188
vt 0.7813 0.3750
vt 0.7813 0.3750
vt 0.7031 0.3594
vt 0.8281 0.2344
vt 0.8281 0.2344
vt 0.9375 0.2656
vt 0.9375 0.0000
vt 0.8281 0.2344
vt 0.9375 0.0000
vt 0.8281 0.0938
vt 0.7031 0.3594
vt 0.6094 0.4375
vt 0.9375 0.5313
vt 0.9063 0.2188
vt 0.9375 0.2656
vt 0.8906 0.3906
vt 0.8906 0.3906
vt 0.7813 0.3750
vt 0.9063 0.2188
vt 0.2344 0.4063
vt 0.1094 0.4063
vt 0.2188 0.1563
vt 0.2188 0.1563
vt 0.1094 0.4063
vt 0.1406 0.1406
vt 0.2813 0.8125
vt 0.4063 0.4844
vt 0.5469 0.7656
vt 0.2969 0.0000
vt 0.2188 0.0938
vt 0.2188 0.0000
vt 0.1250 0.0000
vt 0.2188 0.0000
vt 0.2188 0.0938
vt 0.3438 0.3281
vt 0.2813 0.5156
vt 0.2344 0.4063
vt 0.1563 0.8125
vt 0.2813 0.8125
vt 0.2031 0.9219
vt 0.4063 0.4844
vt 0.2813 0.5156
vt 0.3438 0.3281
vt 0.5469 0.7656
vt 0.7031 0.7344
vt 0.7500 0.8438
vt 0.1875 0.5469
vt 0.1563 0.8125
vt 0.0469 0.6406
vt 0.0469 0.6406
vt 0.1563 0.8125
vt 0.0156 0.7344
vt 0.7500 0.8438
vt 0.7031 0.7344
vt 0.8594 0.7344
vt 0.8594 0.7344
vt 0.8750 0.8125
vt 0.7500 0.8438
vt 0.4063 0.4844
vt 0.2813 0.8125
vt 0.2813 0.5156
vt 0.1406 0.1406
vt 0.2188 0.0938
vt 0.2188 0.1563
vt 0.2188 0.0938
vt 0.1406 0.0781
vt 0.1250 0.0000
vt 0.2188 0.0938
vt 0.1406 0.1406
vt 0.1406 0.0781
vt 0.2969 0.0000
vt 0.2969 0.0000
vt 0.3125 0.1563
vt 0.8906 0.0781
vt 0.8281 0.0938
vt 0.8125 0.0000
vt 0.8281 0.0938
vt 0.8906 0.0781
vt 0.8281 0.2344
vt 0.9063 0.2188
vt 0.8281 0.2344
vt 0.8906 0.0781
vt 0.8594 0.5469
vt 0.8906 0.3906
vt 0.9375 0.5313
vt 0.8594 0.0000
vt 0.8125 0.0000
vt 0.9375 0.0000
vt 0.7188 0.8906
vt 0.7188 0.9375
vt 0.9531 0.9219
vt 0.7188 0.9375
vt 0.7188 0.8906
vt 0.4688 0.9063
vt 0.4688 0.9063
vt 0.4688 0.9531
vt 0.7188 0.9375
vt 0.9531 0.9219
vt 0.7188 0.9375
vt 0.7188 0.9688
vt 0.4844 0.9688
vt 0.7188 0.9688
vt 0.7188 0.9375
vt 0.9375 0.7031
vt 0.8594 0.7344
vt 0.9375 0.5313
vt 0.7188 0.9375
vt 0.4688 0.9531
vt 0.4844 0.9688
vt 0.5938 0.0781
vt 0.5469 0.1406
vt 0.4688 0.0313
vt 0.4844 0.0000
vt 0.5938 0.0781
vt 0.4688 0.0313
vt 0.4688 0.0313
vt 0.4688 0.0313
vt 0.4844 0.0000
vt 0.7188 0.0938
vt 0.7656 0.0938
vt 0.7813 0.1875
vt 0.7813 0.1875
vt 0.7188 0.2344
vt 0.7188 0.0938
vt 0.7969 0.1875
vt 0.7188 0.2344
vt 0.7813 0.1875
vt 0.7969 0.1875
vt 0.7500 0.0000
vt 0.7188 0.0000
vt 0.7031 0.0938
vt 0.6719 0.0469
vt 0.7031 0.0469
vt 0.6719 0.0469
vt 0.7031 0.0938
vt 0.6563 0.0625
vt 0.7031 0.0938
vt 0.7031 0.0469
vt 0.6563 0.0625
vt 0.7188 0.0000
vt 0.7188 0.2344
vt 0.7969 0.1875
vt 0.3281 0.2500
vt 0.3750 0.2031
vt 0.3438 0.2031
vt 0.3594 0.3281
vt 0.3750 0.2031
vt 0.3281 0.2500
vt 0.5625 0.3125
vt 0.5156 0.2813
vt 0.5313 0.1875
vt 0.5625 0.3125
vt 0.5313 0.1875
vt 0.6563 0.2031
vt 0.3594 0.3281
vt 0.3281 0.2500
vt 0.5156 0.2813
vt 0.5156 0.2813
vt 0.5000 0.3594
vt 0.3594 0.3281
vt 0.3281 0.2500
vt 0.5313 0.1875
vt 0.5156 0.2813
vt 0.3281 0.2500
vt 0.3438 0.2031
vt 0.5313 0.1875
vt 0.5156 0.2813
vt 0.5625 0.3125
vt 0.5000 0.3594
vt 0.5625 0.4219
vt 0.5000 0.3594
vt 0.5625 0.3125
vt 0.5625 0.3125
vt 0.6875 0.3438
vt 0.5625 0.4219
vt 0.0156 0.1875
vt 0.0156 0.3125
vt 0.0000 0.2031
vt 0.0156 0.1875
vt 0.0781 0.2031
vt 0.0156 0.3125
vt 0.6250 0.2969
vt 0.6875 0.3438
vt 0.5625 0.3125
vt 0.6875 0.3438
vt 0.6875 0.4063
vt 0.5625 0.4219
vt 0.0156 0.3125
vt 0.0781 0.2031
vt 0.0000 0.2031
vt 0.6563 0.2031
vt 0.6250 0.2969
vt 0.5625 0.3125
vt 0.6250 0.2969
vt 0.6563 0.2031
vt 0.6875 0.2656
vt 0.6563 0.2031
vt 0.5313 0.1875
vt 0.6563 0.1406
vt 0.5469 0.1406
vt 0.6563 0.1406
vt 0.5313 0.1875
vt 0.6563 0.1406
vt 0.5469 0.1406
vt 0.5938 0.0781
vt 0.6406 0.0625
vt 0.6563 0.1406
vt 0.5938 0.0781
vt 0.0313 0.9375
vt 0.0313 0.8750
vt 0.2031 0.9219
vt 0.0469 0.9844
vt 0.0313 0.9375
vt 0.2031 0.9219
vt 0.0313 0.8750
vt 0.0156 0.8125
vt 0.1563 0.8125
vt 0.0156 0.7344
vt 0.1563 0.8125
vt 0.0156 0.8125
f 23/1 26/3 25/2
f 25/4 24/6 23/5
f 26/7 23/9 27/8
f 28/10 27/12 23/11
f 36/13 28/15 22/14
f 11/16 23/18 24/17
f 14/19 15/21 16/20
f 19/22 14/24 16/23
f 16/25 20/27 19/26
f 7/28 9/30 20/29
f 9/31 5/33 20/32
f 21/34 19/36 20/35
f 10/37 8/39 19/38
f 19/40 21/42 10/41
f 4/43 17/45 12/44
f 17/46 36/48 18/47
f 48/49 24/51 36/50
f 18/52 36/54 22/53
f 18/55 20/57 5/56
f 10/58 21/60 23/59
f 11/61 48/63 1/62
f 18/64 5/66 12/65
f 1/67 48/69 2/68
f 24/70 48/72 11/71
f 11/73 10/75 23/74
f 29/76 15/78 14/77
f 29/79 13/81 15/80
f 30/82 31/84 34/83
f 31/85 30/87 25/86
f 25/88 26/90 31/89
f 32/91 33/93 26/92
f 26/94 27/96 32/95
f 31/97 33/99 35/98
f 35/100 34/102 31/101
f 28/103 36/105 24/104
f 14/106 19/108 8/107
f 41/109 42/111 38/110
f 40/112 38/114 42/113
f 43/115 45/117 42/116
f 43/118 42/120 39/119
f 43/121 44/123 14/122
f 43/124 13/126 45/125
f 37/127 41/129 47/128
f 47/130 46/132 38/131
f 41/133 38/135 46/134
f 43/136 14/138 8/137
f 29/139 14/141 44/140
f 44/142 45/144 29/143
f 39/145 40/147 44/146
f 44/148 43/150 39/149
f 39/151 42/153 41/152
f 39/154 41/156 37/155
f 43/157 8/159 13/158
f 40/160 42/162 45/161
f 45/163 44/165 40/164
f 28/166 24/168 27/167
f 27/169 24/171 25/170
f 18/172 21/174 20/173
f 33/175 32/177 35/176
f 34/178 35/180 32/179
f 23/181 22/183 28/182
f 17/184 18/186 12/185
f 21/187 22/189 23/188
f 20/190 16/192 7/191
f 36/193 17/195 48/194
f 48/196 17/198 2/197
f 7/199 16/201 15/200
f 15/202 6/204 7/203
f 21/205 18/207 22/206
f 25/208 32/210 27/209
f 32/211 30/213 34/212
f 32/214 25/216 30/215
f 33/217 31/219 26/218
f 38/220 37/222 47/221
f 37/223 38/225 39/224
f 40/226 39/228 38/227
f 29/229 45/231 13/230
f 46/232 47/234 41/233
f 51/235 52/237 49/236
f 52/238 51/240 6/239
f 6/241 15/243 52/242
f 49/244 52/246 50/245
f 53/247 50/249 52/248
f 53/250 15/252 13/251
f 52/253 15/255 53/254
f 54/256 62/258 66/257
f 56/259 54/261 66/260
f 66/262 57/264 56/263
f 57/265 66/267 62/266
f 62/268 55/270 57/269
f 64/271 55/273 62/272
f 64/274 67/276 58/275
f 69/277 70/279 68/278
f 70/280 69/282 67/281
f 69/283 68/285 67/284
f 58/286 55/288 64/287
f 73/289 58/291 67/290
f 60/292 58/294 73/293
f 74/295 72/297 64/296
f 74/298 64/300 63/299
f 60/301 73/303 72/302
f 72/304 59/306 60/305
f 73/307 64/309 72/308
f 73/310 67/312 64/311
f 72/313 74/315 59/314
f 61/316 59/318 74/317
f 74/319 65/321 61/320
f 65/322 75/324 4/323
f 65/325 71/327 75/326
f 71/328 65/330 74/329
f 65/331 3/333 61/332
f 75/334 71/336 4/335
f 63/337 71/339 74/338
f 71/340 63/342 4/341
f 63/343 64/345 2/344
f 62/346 2/348 64/347
f 2/349 62/351 54/350
f 1/352 2/354 54/353
f 65/355 4/357 12/356
f 3/358 65/360 12/359
f 4/361 63/363 17/362
f 2/364 17/366 63/365
f 87/367 89/369 90/368
f 89/370 87/372 88/371
f 90/373 91/375 87/374
f 92/376 87/378 91/377
f 100/379 86/381 92/380
f 11/382 88/384 87/383
f 78/385 80/387 79/386
f 83/388 80/390 78/389
f 80/391 83/393 84/392
f 7/394 84/396 9/395
f 9/397 84/399 5/398
f 85/400 84/402 83/401
f 10/403 83/405 8/404
f 83/406 10/408 85/407
f 77/409 12/411 81/410
f 81/412 82/414 100/413
f 112/415 100/417 88/416
f 82/418 86/420 100/419
f 82/421 5/423 84/422
f 10/424 87/426 85/425
f 11/427 1/429 112/428
f 82/430 12/432 5/431
f 1/433 76/435 112/434
f 88/436 11/438 112/437
f 11/439 87/441 10/440
f 93/442 78/444 79/443
f 93/445 79/447 13/446
f 94/448 98/450 95/449
f 95/451 89/453 94/452
f 89/454 95/456 90/455
f 96/457 90/459 97/458
f 90/460 96/462 91/461
f 95/463 99/465 97/464
f 99/466 95/468 98/467
f 92/469 88/471 100/470
f 78/472 8/474 83/473
f 105/475 102/477 106/476
f 104/478 106/480 102/479
f 107/481 106/483 109/482
f 107/484 103/486 106/485
f 107/487 78/489 108/488
f 107/490 109/492 13/491
f 101/493 111/495 105/494
f 111/496 102/498 110/497
f 105/499 110/501 102/500
f 107/502 8/504 78/503
f 93/505 108/507 78/506
f 108/508 93/510 109/509
f 103/511 108/513 104/512
f 108/514 103/516 107/515
f 103/517 105/519 106/518
f 103/520 101/522 105/521
f 107/523 13/525 8/524
f 104/526 109/528 106/527
f 109/529 104/531 108/530
f 92/532 91/534 88/533
f 91/535 89/537 88/536
f 82/538 84/540 85/539
f 97/541 99/543 96/542
f 98/544 96/546 99/545
f 87/547 92/549 86/548
f 81/550 12/552 82/551
f 85/553 87/555 86/554
f 84/556 7/558 80/557
f 100/559 112/561 81/560
f 112/562 76/564 81/563
f 7/565 79/567 80/566
f 79/568 7/570 6/569
f 85/571 86/573 82/572
f 89/574 91/576 96/575
f 96/577 98/579 94/578
f 96/580 94/582 89/581
f 97/583 90/585 95/584
f 102/586 111/588 101/587
f 101/589 103/591 102/590
f 104/592 102/594 103/593
f 93/595 13/597 109/596
f 110/598 105/600 111/599
f 51/601 49/603 113/602
f 113/604 6/606 51/605
f 6/607 113/609 79/608
f 49/610 50/612 113/611
f 53/613 113/615 50/614
f 53/616 13/618 79/617
f 113/619 53/621 79/620
f 54/622 118/624 114/623
f 56/625 118/627 54/626
f 118/628 56/630 57/629
f 57/631 114/633 118/632
f 114/634 57/636 55/635
f 116/637 114/639 55/638
f 116/640 58/642 119/641
f 121/643 120/645 122/644
f 122/646 119/648 121/647
f 121/649 119/651 120/650
f 58/652 116/654 55/653
f 125/655 119/657 58/656
f 60/658 125/660 58/659
f 126/661 116/663 124/662
f 126/664 115/666 116/665
f 60/667 124/669 125/668
f 124/670 60/672 59/671
f 125/673 124/675 116/674
f 125/676 116/678 119/677
f 124/679 59/681 126/680
f 61/682 126/684 59/683
f 126/685 61/687 117/686
f 117/688 77/690 127/689
f 117/691 127/693 123/692
f 123/694 126/696 117/695
f 117/697 61/699 3/698
f 127/700 77/702 123/701
f 115/703 126/705 123/704
f 123/706 77/708 115/707
f 115/709 76/711 116/710
f 114/712 116/714 76/713
f 76/715 54/717 114/716
f 1/718 54/720 76/719
f 117/721 12/723 77/722
f 3/724 12/726 117/725
f 77/727 81/729 115/728
f 76/730 115/732 81/731
