g Object
v 2.7109 -0.4141 1.5117
v 0.3633 -0.4141 3.3672
v 2.7109 0.4102 1.5117
v 0.3633 0.4102 3.3672
v 5.5703 0.4102 6.8711
v 5.5703 -0.4141 6.8711
v -2.6367 0.4102 2.6797
v -2.6367 0.4102 8.5195
v -3.8867 0.4102 -0.0664
v -9.0898 0.4102 3.7773
v -2.6367 0.4102 -2.7461
v -9.0898 0.4102 -3.8477
v 0.3633 0.4102 -3.4336
v -2.5664 0.4102 -8.5898
v 2.7109 0.4102 -1.5117
v 5.5703 0.4102 -6.9414
v 9.1641 0.4102 0.0000
v 5.7930 0.4102 -0.8242
v 5.7930 0.4102 0.7539
v 4.0313 0.4102 3.9844
v 4.0313 -0.4141 3.9844
v 2.9297 0.4102 5.0820
v 2.9297 -0.4141 5.0820
v -1.0234 0.4102 5.7031
v -2.6367 0.4102 5.4961
v -5.6445 0.4102 3.1602
v -6.5234 0.4102 1.8555
v -6.4531 0.4102 -1.8555
v -5.7930 0.4102 -3.2969
v -2.5664 0.4102 -5.4258
v -1.0977 0.4102 -6.0469
v 2.7852 0.4102 -5.0156
v 4.1055 0.4102 -4.1211
v -2.6367 -0.4141 8.5195
v -1.0234 -0.4141 5.7031
v -2.6367 -0.4141 5.4961
v -2.6367 -0.4141 2.6797
v -9.0898 -0.4141 3.7773
v -5.6445 -0.4141 3.1602
v -6.5234 -0.4141 1.8555
v -3.8867 -0.4141 -0.0664
v -9.0898 -0.4141 -3.8477
v -6.4531 -0.4141 -1.8555
v -5.7930 -0.4141 -3.2969
v -2.6367 -0.4141 -2.7461
v -2.5664 -0.4141 -8.5898
v -2.5664 -0.4141 -5.4258
v -1.0977 -0.4141 -6.0469
v 0.3633 -0.4141 -3.4336
v 5.5703 -0.4141 -6.9414
v 2.7852 -0.4141 -5.0156
v 4.1055 -0.4141 -4.1211
v 2.7109 -0.4141 -1.5117
v 9.1641 -0.4141 0.0000
v 5.7930 -0.4141 -0.8242
v 5.7930 -0.4141 0.7539
vt 0.8594 0.6953
vt 0.6328 0.9922
vt 0.3438 0.7188
vt 0.8594 0.6953
vt 0.3438 0.7188
vt 0.0000 0.3594
vt 0.8594 0.6953
vt 0.0000 0.3594
vt 0.9922 0.3594
vt 0.0000 2.0000
vt 0.0000 0.2969
vt 0.9922 2.0000
vt 0.0000 0.2969
vt 0.0000 2.0000
vt 0.9922 2.0000
vt 0.0000 0.2969
vt 0.9922 0.2969
vt 0.9922 2.0000
vt 0.0000 0.2969
vt 0.0000 2.0000
vt 0.9922 2.0000
vt 0.9922 2.0000
vt 0.9922 0.2969
vt 0.0000 0.2969
vt 0.7031 0.6406
vt 0.5703 0.9766
vt 0.3750 0.6641
vt 0.7031 0.6406
vt 0.3750 0.6641
vt 0.1641 0.3281
vt 0.7031 0.6406
vt 0.1641 0.3281
vt 0.7891 0.3516
vt 0.5000 0.6484
vt 0.0234 0.9766
vt 0.0078 0.6719
vt 0.5000 0.6484
vt 0.0078 0.6719
vt 0.0156 0.3047
vt 0.5000 0.6484
vt 0.0156 0.3047
vt 0.9375 0.3281
vt 0.7734 0.5859
vt 0.7656 0.9844
vt 0.4453 0.5938
vt 0.7734 0.5859
vt 0.4453 0.5938
vt 0.1328 0.3203
vt 0.7734 0.5859
vt 0.1328 0.3203
vt 0.7891 0.3359
vt 0.5469 0.6094
vt 0.1094 0.9844
vt 0.1250 0.6094
vt 0.5469 0.6094
vt 0.1250 0.6094
vt 0.1406 0.3281
vt 0.5469 0.6094
vt 0.1406 0.3281
vt 0.9063 0.4063
vt 0.0703 0.3906
vt 0.7891 0.3125
vt 0.7266 0.6406
vt 0.7266 0.6406
vt 0.6250 0.9844
vt 0.3516 0.6953
vt 0.0703 0.3906
vt 0.7266 0.6406
vt 0.3516 0.6953
vt 0.5703 0.6563
vt 0.3984 0.9688
vt 0.2813 0.6563
vt 0.5703 0.6563
vt 0.2813 0.6563
vt 0.1641 0.3203
vt 0.5703 0.6563
vt 0.1641 0.3203
vt 0.7188 0.3203
vt 0.8281 0.7500
vt 0.6328 0.9844
vt 0.3125 0.9844
vt 0.8281 0.7500
vt 0.3125 0.9844
vt 0.1172 0.7422
vt 0.1172 0.7422
vt 0.1875 0.4453
vt 0.4688 0.3125
vt 0.8281 0.7500
vt 0.1172 0.7422
vt 0.4688 0.3125
vt 0.8281 0.7500
vt 0.4688 0.3125
vt 0.7578 0.4453
vt 0.9922 2.0000
vt 0.0000 2.0000
vt 0.0000 0.2891
vt 0.0000 0.2891
vt 0.9922 0.2891
vt 0.9922 2.0000
vt 0.9922 0.2969
vt 0.0000 0.2969
vt 0.9922 2.0000
vt 0.0000 2.0000
vt 0.0000 0.2969
vt 0.9922 2.0000
vt 0.0000 0.2969
vt 0.9922 0.2969
vt 0.9922 2.0000
vt 0.9922 2.0000
vt 0.0000 2.0000
vt 0.0000 0.2891
vt 0.0000 0.2891
vt 0.9922 0.2891
vt 0.9922 2.0000
vt 0.0000 0.2969
vt 0.0000 2.0000
vt 0.9922 2.0000
vt 0.0000 0.2969
vt 0.0000 2.0000
vt 0.9922 2.0000
vt 0.9922 2.0000
vt 0.9922 0.2969
vt 0.0000 0.2969
vt 0.9922 0.2969
vt 0.0000 0.2969
vt 0.9922 2.0000
vt 0.0000 2.0000
vt 0.0000 0.2969
vt 0.9922 2.0000
vt 0.0000 0.2969
vt 0.9922 0.2969
vt 0.9922 2.0000
vt 0.9922 2.0000
vt 0.0000 2.0000
vt 0.0000 0.2891
vt 0.0000 0.2891
vt 0.9922 0.2891
vt 0.9922 2.0000
vt 0.0000 0.2969
vt 0.0000 2.0000
vt 0.9922 2.0000
vt 0.0000 0.2969
vt 0.0000 2.0000
vt 0.9922 2.0000
vt 0.9922 2.0000
vt 0.9922 0.2969
vt 0.0000 0.2969
vt 0.9922 0.2969
vt 0.0000 0.2969
vt 0.9922 2.0000
vt 0.0000 2.0000
vt 0.0000 0.2969
vt 0.9922 2.0000
vt 0.0000 0.2969
vt 0.9922 0.2969
vt 0.9922 2.0000
vt 0.9922 2.0000
vt 0.0000 2.0000
vt 0.0000 0.2891
vt 0.0000 0.2891
vt 0.9922 0.2891
vt 0.9922 2.0000
vt 0.0000 0.2969
vt 0.0000 2.0000
vt 0.9922 2.0000
vt 0.0000 0.2969
vt 0.0000 2.0000
vt 0.9922 2.0000
vt 0.9922 2.0000
vt 0.9922 0.2969
vt 0.0000 0.2969
vt 0.9922 0.2969
vt 0.0000 0.2969
vt 0.9922 2.0000
vt 0.0000 2.0000
vt 0.0000 0.2969
vt 0.9922 2.0000
vt 0.0000 0.2969
vt 0.9922 0.2969
vt 0.9922 2.0000
vt 0.9922 2.0000
vt 0.0000 2.0000
vt 0.0000 0.2891
vt 0.0000 0.2891
vt 0.9922 0.2891
vt 0.9922 2.0000
vt 0.0000 0.2969
vt 0.0000 2.0000
vt 0.9922 2.0000
vt 0.0000 0.2969
vt 0.0000 2.0000
vt 0.9922 2.0000
vt 0.9922 2.0000
vt 0.9922 0.2969
vt 0.0000 0.2969
vt 0.9922 0.2969
vt 0.0000 0.2969
vt 0.9922 2.0000
vt 0.0000 2.0000
vt 0.0000 0.2969
vt 0.9922 2.0000
vt 0.0000 0.2969
vt 0.9922 0.2969
vt 0.9922 2.0000
vt 0.9922 2.0000
vt 0.0000 2.0000
vt 0.0000 0.2891
vt 0.0000 0.2891
vt 0.9922 0.2891
vt 0.9922 2.0000
vt 0.0000 0.2969
vt 0.0000 2.0000
vt 0.9922 2.0000
vt 0.0000 0.2969
vt 0.0000 2.0000
vt 0.9922 2.0000
vt 0.9922 2.0000
vt 0.9922 0.2969
vt 0.0000 0.2969
vt 0.9922 0.2969
vt 0.0000 0.2969
vt 0.9922 2.0000
vt 0.0000 2.0000
vt 0.0000 0.2969
vt 0.9922 2.0000
vt 0.0000 0.2969
vt 0.9922 0.2969
vt 0.9922 2.0000
vt 0.9922 2.0000
vt 0.0000 2.0000
vt 0.0000 0.2891
vt 0.0000 0.2891
vt 0.9922 0.2891
vt 0.9922 2.0000
vt 0.0000 2.0000
vt 0.0000 0.2969
vt 0.9922 2.0000
vt 0.0000 0.2969
vt 0.9922 0.2969
vt 0.9922 2.0000
vt 0.9922 2.0000
vt 0.0000 2.0000
vt 0.0000 0.2891
vt 0.0000 0.2891
vt 0.9922 0.2891
vt 0.9922 2.0000
f 20/1 22/3 5/2
f 20/4 4/6 22/5
f 20/7 3/9 4/8
f 6/10 21/12 5/11
f 5/13 23/15 6/14
f 5/16 21/18 20/17
f 22/19 2/21 23/20
f 2/22 22/24 4/23
f 24/25 25/27 8/26
f 24/28 7/30 25/29
f 24/31 4/33 7/32
f 26/34 27/36 10/35
f 26/37 9/39 27/38
f 26/40 7/42 9/41
f 28/43 29/45 12/44
f 28/46 11/48 29/47
f 28/49 9/51 11/50
f 30/52 31/54 14/53
f 30/55 13/57 31/56
f 30/58 11/60 13/59
f 15/61 32/63 13/62
f 32/64 33/66 16/65
f 15/67 33/69 32/68
f 18/70 19/72 17/71
f 18/73 3/75 19/74
f 18/76 15/78 3/77
f 11/79 15/81 13/80
f 11/82 3/84 15/83
f 3/85 7/87 4/86
f 11/88 7/90 3/89
f 11/91 9/93 7/92
f 1/94 20/96 21/95
f 20/97 1/99 3/98
f 22/100 23/102 5/101
f 34/103 35/105 8/104
f 8/106 35/108 24/107
f 2/109 24/111 35/110
f 24/112 2/114 4/113
f 8/115 36/117 34/116
f 25/118 37/120 36/119
f 37/121 25/123 7/122
f 25/124 36/126 8/125
f 38/127 39/129 10/128
f 10/130 39/132 26/131
f 37/133 26/135 39/134
f 26/136 37/138 7/137
f 10/139 40/141 38/140
f 27/142 41/144 40/143
f 41/145 27/147 9/146
f 27/148 40/150 10/149
f 42/151 43/153 12/152
f 12/154 43/156 28/155
f 41/157 28/159 43/158
f 28/160 41/162 9/161
f 12/163 44/165 42/164
f 29/166 45/168 44/167
f 45/169 29/171 11/170
f 29/172 44/174 12/173
f 46/175 47/177 14/176
f 14/178 47/180 30/179
f 45/181 30/183 47/182
f 30/184 45/186 11/185
f 14/187 48/189 46/188
f 31/190 49/192 48/191
f 49/193 31/195 13/194
f 31/196 48/198 14/197
f 50/199 51/201 16/200
f 16/202 51/204 32/203
f 49/205 32/207 51/206
f 32/208 49/210 13/209
f 16/211 52/213 50/212
f 33/214 53/216 52/215
f 53/217 33/219 15/218
f 33/220 52/222 16/221
f 54/223 55/225 17/224
f 17/226 55/228 18/227
f 53/229 18/231 55/230
f 18/232 53/234 15/233
f 1/235 56/237 3/236
f 3/238 56/240 19/239
f 54/241 19/243 56/242
f 19/244 54/246 17/245
