g Object
v 0.3828 1.3594 0.0000
v 0.3828 2.0586 0.0000
v -0.3789 2.0586 0.0000
v -0.3789 1.3594 0.0000
v -0.3789 2.0586 0.0000
v -0.3789 1.3594 0.0000
v 0.3828 1.3594 0.0000
v 0.3828 2.0586 0.0000
v 0.0000 1.3594 -0.3828
v 0.0000 2.0586 -0.3828
v 0.0000 2.0586 0.3789
v 0.0000 1.3594 0.3789
v 0.0000 2.0586 0.3789
v 0.0000 1.3594 0.3789
v 0.0000 1.3594 -0.3828
v 0.0000 2.0586 -0.3828
v 0.1094 0.8789 -0.1563
v 0.1094 0.8789 0.1563
v -0.1680 0.8789 0.0000
v 0.0625 1.0352 -0.0977
v 0.0625 1.0352 0.0977
v -0.0781 1.0352 0.0000
v 0.1094 2.5000 0.1563
v 0.1094 0.0508 -0.1563
v 0.1094 0.0508 0.1563
v -0.1680 0.0508 0.0000
v 0.1094 2.5000 -0.1563
v -0.1680 2.5000 0.0000
v 0.1094 2.2344 0.1563
v 0.1094 2.2344 -0.1563
v -0.1680 2.2344 0.0000
v 0.0625 2.1641 -0.0977
v 0.0625 2.1641 0.0977
v -0.0781 2.1641 0.0000
vt 0.0000 0.9844
vt 0.0000 0.0000
vt 0.7344 0.0000
vt 0.7344 0.0000
vt 0.7344 0.9844
vt 0.0000 0.9844
vt 0.0000 0.0000
vt 0.0000 0.9844
vt 0.7344 0.0000
vt 0.7344 0.9844
vt 0.7344 0.0000
vt 0.0000 0.9844
vt 0.0000 0.9844
vt 0.0000 0.0000
vt 0.7344 0.0000
vt 0.7344 0.0000
vt 0.7344 0.9844
vt 0.0000 0.9844
vt 0.0000 0.0000
vt 0.0000 0.9844
vt 0.7344 0.0000
vt 0.7344 0.9844
vt 0.7344 0.0000
vt 0.0000 0.9844
vt 0.7656 0.3281
vt 0.9688 0.3281
vt 0.9688 0.3906
vt 0.9688 0.3906
vt 0.7656 0.3906
vt 0.7656 0.3281
vt 0.7656 0.3281
vt 0.9688 0.3281
vt 0.9688 0.3906
vt 0.9688 0.3906
vt 0.7656 0.3906
vt 0.7656 0.3281
vt 0.7656 0.3281
vt 0.9688 0.3281
vt 0.9688 0.3906
vt 0.9688 0.3906
vt 0.7656 0.3906
vt 0.7656 0.3281
vt 0.7656 0.8750
vt 0.7656 0.8594
vt 0.9688 0.8594
vt 0.9688 0.8594
vt 0.9688 0.8750
vt 0.7656 0.8750
vt 0.7656 0.8750
vt 0.7656 0.8594
vt 0.9688 0.8594
vt 0.9688 0.8594
vt 0.9688 0.8750
vt 0.7656 0.8750
vt 0.7656 0.8750
vt 0.7656 0.8594
vt 0.9688 0.8594
vt 0.9688 0.8594
vt 0.9688 0.8750
vt 0.7656 0.8750
vt 0.7656 0.0000
vt 0.9688 0.0000
vt 0.9688 0.3281
vt 0.9688 0.3281
vt 0.7656 0.3281
vt 0.7656 0.0000
vt 0.7656 0.0000
vt 0.9688 0.0000
vt 0.9688 0.3281
vt 0.9688 0.3281
vt 0.7656 0.3281
vt 0.7656 0.0000
vt 0.7656 0.0000
vt 0.9688 0.0000
vt 0.9688 0.3281
vt 0.9688 0.3281
vt 0.7656 0.3281
vt 0.7656 0.0000
vt 0.2969 0.5938
vt 0.4531 0.6250
vt 0.3594 0.7656
vt 0.7656 0.8750
vt 0.9688 0.8750
vt 0.9688 0.9844
vt 0.9688 0.9844
vt 0.7656 0.9844
vt 0.7656 0.8750
vt 0.7656 0.8750
vt 0.9688 0.8750
vt 0.9688 0.9844
vt 0.9688 0.9844
vt 0.7656 0.9844
vt 0.7656 0.8750
vt 0.7656 0.8750
vt 0.9688 0.8750
vt 0.9688 0.9844
vt 0.9688 0.9844
vt 0.7656 0.9844
vt 0.7656 0.8750
vt 0.7656 0.3906
vt 0.9688 0.3906
vt 0.9688 0.8594
vt 0.9688 0.8594
vt 0.7656 0.8594
vt 0.7656 0.3906
vt 0.7656 0.3906
vt 0.9688 0.3906
vt 0.9688 0.8594
vt 0.9688 0.8594
vt 0.7656 0.8594
vt 0.7656 0.3906
vt 0.7656 0.3906
vt 0.9688 0.3906
vt 0.9688 0.8594
vt 0.9688 0.8594
vt 0.7656 0.8594
vt 0.7656 0.3906
f 3/1 1/3 4/2
f 1/4 3/6 2/5
f 6/7 7/9 5/8
f 8/10 5/12 7/11
f 11/13 9/15 12/14
f 9/16 11/18 10/17
f 14/19 15/21 13/20
f 16/22 13/24 15/23
f 17/25 21/27 18/26
f 21/28 17/30 20/29
f 18/31 22/33 19/32
f 22/34 18/36 21/35
f 19/37 20/39 17/38
f 20/40 19/42 22/41
f 30/43 33/45 32/44
f 33/46 30/48 29/47
f 29/49 34/51 33/50
f 34/52 29/54 31/53
f 31/55 32/57 34/56
f 32/58 31/60 30/59
f 24/61 18/63 25/62
f 18/64 24/66 17/65
f 25/67 19/69 26/68
f 19/70 25/72 18/71
f 26/73 17/75 24/74
f 17/76 26/78 19/77
f 28/79 23/81 27/80
f 30/82 23/84 29/83
f 23/85 30/87 27/86
f 29/88 28/90 31/89
f 28/91 29/93 23/92
f 31/94 27/96 30/95
f 27/97 31/99 28/98
f 20/100 33/102 21/101
f 33/103 20/105 32/104
f 21/106 34/108 22/107
f 34/109 21/111 33/110
f 22/112 32/114 20/113
f 32/115 22/117 34/116
