g Object
v 0.4805 -0.4102 -0.2773
v 0.4258 0.0703 -0.1523
v 0.2695 0.0195 -0.1563
v 0.3477 0.0703 -0.2930
v 0.0000 -0.4102 0.5508
v -0.0742 0.0703 0.4375
v 0.0000 0.0195 0.3047
v 0.0820 0.0703 0.4375
v -0.4727 -0.4102 -0.2773
v -0.3398 0.0703 -0.2930
v -0.2617 0.0195 -0.1563
v -0.4180 0.0703 -0.1523
v -0.4141 0.2617 -0.5703
v 0.4180 0.2617 -0.5703
v 0.6680 0.2617 0.2148
v 0.0000 0.2617 0.6992
v -0.6719 0.2617 0.2148
v -0.2539 -0.1016 -0.3555
v 0.2539 -0.1016 -0.3555
v 0.4180 -0.1016 0.1328
v 0.0000 -0.1016 0.4336
v -0.4141 -0.1016 0.1328
v 0.0000 -0.2461 -0.0039
v 0.0000 0.0820 -0.0039
vt 0.0000 0.6563
vt 0.2500 0.8750
vt 0.1250 0.8750
vt 0.0000 0.6563
vt 0.0313 0.9063
vt 0.2500 0.8750
vt 0.0000 0.6563
vt 0.1250 0.8750
vt 0.0313 0.9063
vt 0.0625 0.6875
vt 0.2500 0.8438
vt 0.1563 0.8750
vt 0.0625 0.6875
vt 0.0313 0.8750
vt 0.2500 0.8438
vt 0.0625 0.6875
vt 0.1563 0.8750
vt 0.0313 0.8750
vt 0.9688 0.5313
vt 0.6250 0.8438
vt 0.8750 0.8750
vt 0.9688 0.5313
vt 0.7500 0.8438
vt 0.6250 0.8438
vt 0.9688 0.5313
vt 0.8750 0.8750
vt 0.7500 0.8438
vt 0.9688 0.9688
vt 0.6875 0.7500
vt 0.0625 0.7500
vt 0.9688 0.9688
vt 0.0625 0.7500
vt 0.0000 0.9688
vt 0.8438 0.7500
vt 0.7813 0.8750
vt 0.9375 0.8750
vt 0.8438 0.7500
vt 0.7188 0.6875
vt 0.7813 0.8750
vt 0.8438 0.7500
vt 0.8438 0.5938
vt 0.7188 0.6875
vt 0.8438 0.7500
vt 0.9688 0.6875
vt 0.8438 0.5938
vt 0.8438 0.7500
vt 0.9375 0.8750
vt 0.9688 0.6875
vt 0.0625 0.5938
vt 0.0625 0.1250
vt 0.4063 0.3750
vt 0.0625 0.1250
vt 0.5000 0.0000
vt 0.4063 0.3750
vt 0.5000 0.0000
vt 0.7813 0.3438
vt 0.4063 0.3750
vt 0.7813 0.3438
vt 0.5000 0.7188
vt 0.4063 0.3750
vt 0.5000 0.7188
vt 0.0625 0.5938
vt 0.4063 0.3750
vt 0.9688 0.9688
vt 0.6875 0.7500
vt 0.0625 0.7500
vt 0.9688 0.9688
vt 0.0625 0.7500
vt 0.0000 0.9688
vt 0.9688 0.9688
vt 0.6875 0.7500
vt 0.0625 0.7500
vt 0.9688 0.9688
vt 0.0625 0.7500
vt 0.0000 0.9688
vt 0.9688 0.9688
vt 0.6875 0.7500
vt 0.0625 0.7500
vt 0.9688 0.9688
vt 0.0625 0.7500
vt 0.0000 0.9688
vt 0.9688 0.9688
vt 0.6875 0.7500
vt 0.0625 0.7500
vt 0.9688 0.9688
vt 0.0625 0.7500
vt 0.0000 0.9688
f 1/1 2/3 3/2
f 1/4 3/6 4/5
f 1/7 4/9 2/8
f 5/10 6/12 7/11
f 5/13 7/15 8/14
f 5/16 8/18 6/17
f 9/19 10/21 11/20
f 9/22 11/24 12/23
f 9/25 12/27 10/26
f 16/28 22/30 21/29
f 16/31 17/33 22/32
f 23/34 18/36 19/35
f 23/37 19/39 20/38
f 23/40 20/42 21/41
f 23/43 21/45 22/44
f 23/46 22/48 18/47
f 13/49 24/51 14/50
f 14/52 24/54 15/53
f 15/55 24/57 16/56
f 16/58 24/60 17/59
f 17/61 24/63 13/62
f 15/64 21/66 20/65
f 15/67 16/69 21/68
f 14/70 20/72 19/71
f 14/73 15/75 20/74
f 13/76 19/78 18/77
f 13/79 14/81 19/80
f 17/82 18/84 22/83
f 17/85 13/87 18/86
