g Object
v -0.0078 1.1211 0.0703
v -0.2109 1.1563 0.0703
v -0.0664 2.1367 -0.3164
v 0.1328 2.1016 -0.3164
v -0.7305 2.7461 -0.3047
v -0.5273 2.7461 -0.3047
v -0.5273 1.6992 -0.3047
v -0.7305 1.6992 -0.3047
v -1.0195 3.6133 -0.3047
v -0.8203 3.6133 -0.3047
v -0.8203 1.2188 -0.3047
v -1.0195 1.2188 -0.3047
v 0.5273 1.1406 0.0703
v 0.3242 1.1406 0.0703
v 0.3242 2.1172 -0.3164
v 0.5273 2.1172 -0.3164
v 0.6289 2.7461 -0.3047
v 0.8320 2.7461 -0.3047
v 0.8320 1.6992 -0.3047
v 0.6289 1.6992 -0.3047
v 0.8984 3.6133 -0.3047
v 1.1016 3.6133 -0.3047
v 1.1016 1.2188 -0.3047
v 0.8984 1.2188 -0.3047
v -1.3906 0.0000 -0.4375
v 1.4023 0.0000 -0.4375
v -1.3906 0.0000 0.4336
v 1.4023 0.0000 0.4336
v -1.3906 4.0000 -0.4375
v 1.4023 4.0000 -0.4375
v -1.3906 4.0000 0.4336
v 1.4023 4.0000 0.4336
v -1.2930 1.1406 0.4336
v 1.3008 1.1406 0.4336
v 1.3008 3.7578 0.4336
v -1.2930 3.7578 0.4336
v -1.2930 1.1406 -0.3125
v 1.3008 1.1406 -0.3125
v -1.2930 3.7578 -0.3125
v 1.3008 3.7578 -0.3125
v 1.3008 1.1406 0.4336
v 1.3008 3.7578 0.4336
v -1.2930 1.1406 0.4336
v -1.2930 3.7578 0.4336
vt 0.9453 0.0000
vt 0.9922 0.0000
vt 0.9922 0.3438
vt 0.9922 0.3438
vt 0.9453 0.3438
vt 0.9453 0.0000
vt 0.9375 0.3438
vt 0.9922 0.3438
vt 0.9922 0.9844
vt 0.9922 0.9844
vt 0.9375 0.9844
vt 0.9375 0.3438
vt 0.9063 0.0000
vt 0.9531 0.0000
vt 0.9531 0.9844
vt 0.9531 0.9844
vt 0.9063 0.9844
vt 0.9063 0.0000
vt 0.9453 0.0000
vt 0.9922 0.0000
vt 0.9922 0.3438
vt 0.9922 0.3438
vt 0.9453 0.3438
vt 0.9453 0.0000
vt 0.9375 0.3438
vt 0.9922 0.3438
vt 0.9922 0.9844
vt 0.9922 0.9844
vt 0.9375 0.9844
vt 0.9375 0.3438
vt 0.9063 0.0000
vt 0.9531 0.0000
vt 0.9531 0.9844
vt 0.9531 0.9844
vt 0.9063 0.9844
vt 0.9063 0.0000
vt 0.3516 0.9844
vt 0.4922 0.9844
vt 0.4922 0.0000
vt 0.4922 0.0000
vt 0.3516 0.0000
vt 0.3516 0.9844
vt 0.4922 0.9844
vt 0.3516 0.9844
vt 0.3516 0.0000
vt 0.3516 0.0000
vt 0.4922 0.0000
vt 0.4922 0.9844
vt 0.0000 0.9844
vt 0.3281 0.9219
vt 0.0156 0.9219
vt 0.3203 0.9219
vt 0.3203 0.2969
vt 0.0234 0.2969
vt 0.0234 0.2969
vt 0.0234 0.9219
vt 0.3203 0.9219
vt 0.3516 0.2813
vt 0.4922 0.2813
vt 0.4922 0.9219
vt 0.4922 0.9219
vt 0.3516 0.9219
vt 0.3516 0.2813
vt 0.3516 0.2813
vt 0.3516 0.9219
vt 0.4922 0.9219
vt 0.4922 0.9219
vt 0.4922 0.2813
vt 0.3516 0.2813
vt 0.3594 0.3125
vt 0.4844 0.3125
vt 0.4844 0.8750
vt 0.4844 0.8750
vt 0.3594 0.8750
vt 0.3594 0.3125
vt 0.3594 0.8750
vt 0.4844 0.8750
vt 0.4844 0.3125
vt 0.4844 0.3125
vt 0.3594 0.3125
vt 0.3594 0.8750
vt 0.0156 0.2813
vt 0.0000 0.0000
vt 0.0000 0.9844
vt 0.0000 0.9844
vt 0.0156 0.9219
vt 0.0156 0.2813
vt 0.0156 0.2813
vt 0.3281 0.2813
vt 0.3516 0.0000
vt 0.3516 0.0000
vt 0.0000 0.0000
vt 0.0156 0.2813
vt 0.3281 0.2813
vt 0.3281 0.9219
vt 0.3516 0.9844
vt 0.3516 0.9844
vt 0.3516 0.0000
vt 0.3281 0.2813
vt 0.3281 0.9219
vt 0.0000 0.9844
vt 0.3516 0.9844
vt 0.3594 0.3125
vt 0.4844 0.3125
vt 0.4844 0.8750
vt 0.4844 0.8750
vt 0.3594 0.8750
vt 0.3594 0.3125
vt 0.5000 0.0000
vt 0.5000 0.9844
vt 0.9063 0.9844
vt 0.9063 0.9844
vt 0.9063 0.0000
vt 0.5000 0.0000
f 1/1 3/3 2/2
f 3/4 1/6 4/5
f 5/7 7/9 6/8
f 7/10 5/12 8/11
f 9/13 11/15 10/14
f 11/16 9/18 12/17
f 13/19 15/21 14/20
f 15/22 13/24 16/23
f 17/25 19/27 18/26
f 19/28 17/30 20/29
f 21/31 23/33 22/32
f 23/34 21/36 24/35
f 32/37 26/39 30/38
f 26/40 32/42 28/41
f 29/43 27/45 31/44
f 27/46 29/48 25/47
f 31/49 36/51 35/50
f 40/52 37/54 38/53
f 37/55 40/57 39/56
f 34/58 40/60 38/59
f 40/61 34/63 35/62
f 33/64 39/66 36/65
f 39/67 33/69 37/68
f 33/70 38/72 37/71
f 38/73 33/75 34/74
f 35/76 39/78 40/77
f 39/79 35/81 36/80
f 33/82 31/84 27/83
f 31/85 33/87 36/86
f 33/88 28/90 34/89
f 28/91 33/93 27/92
f 34/94 32/96 35/95
f 32/97 34/99 28/98
f 35/100 32/102 31/101
f 31/103 30/105 29/104
f 30/106 31/108 32/107
f 43/109 42/111 44/110
f 42/112 43/114 41/113
