g Object
v 0.3203 -0.0195 1.1953
v -0.4336 -0.0195 1.1953
v -0.5742 -0.0195 -0.0117
v 0.2500 -0.0195 -1.0938
v -0.3633 -0.0195 -1.0938
v -0.0586 0.6758 -1.1992
v -0.0586 0.5391 0.9102
v 0.1953 0.7539 0.3984
v -0.3086 0.7539 0.3984
v 0.1836 1.1094 -0.1719
v -0.2969 1.1094 -0.1719
v 0.2148 1.2227 -0.9688
v -0.3359 1.2227 -0.9688
v -0.0586 1.8711 -0.5234
v 0.1211 1.7656 -0.9805
v -0.2344 1.7656 -0.9805
v 0.1133 1.2305 -1.1406
v -0.2422 1.2305 -1.1406
v 0.0547 1.5117 -1.1289
v -0.1758 1.5117 -1.1289
v -0.0586 1.2227 -1.3828
v 0.0039 1.3750 -1.3242
v -0.1250 1.3750 -1.3242
v 0.3477 0.2500 -1.1289
v -0.4609 0.2500 -1.1289
v -0.5625 0.2500 -0.9570
v -0.5156 0.1680 -0.1250
v -0.8125 -0.0195 -1.0820
v -0.7656 0.2500 -0.9453
v -0.3906 -0.0195 -1.6445
v -0.4883 0.1836 -1.4844
v -0.8359 -0.0195 -1.6445
v -0.7578 0.1836 -1.4727
v -0.3242 1.0273 -0.2500
v -0.5703 1.1172 0.5352
v -0.5547 1.4219 0.1016
v -0.6172 1.4141 0.0195
v -0.9023 1.5898 0.9102
v 0.4609 -0.0195 -0.0117
v 0.3984 0.1680 -0.1250
v 0.6992 -0.0195 -1.0820
v 0.6523 0.2500 -0.9453
v 0.2109 1.0273 -0.2500
v 0.4492 0.2500 -0.9570
v 0.2773 -0.0195 -1.6445
v 0.3750 0.1836 -1.4844
v 0.6445 0.1836 -1.4727
v 0.7188 -0.0195 -1.6445
v 0.4531 1.1172 0.5352
v 0.4414 1.4219 0.1016
v 0.5039 1.4141 0.0195
v 0.7891 1.5898 0.9102
vt 0.8438 0.9219
vt 0.8125 1.0000
vt 0.5313 1.0000
vt 0.9688 0.3906
vt 0.8125 0.3906
vt 0.8906 0.2188
vt 0.8125 0.3906
vt 0.9688 0.3906
vt 0.9531 0.4844
vt 0.9531 0.4844
vt 0.8125 0.4844
vt 0.8125 0.3906
vt 0.2188 0.9531
vt 0.2188 0.9531
vt 0.3906 1.0000
vt 0.3594 0.6875
vt 0.5000 0.6875
vt 0.4219 0.8438
vt 0.9063 0.0156
vt 0.5313 0.0156
vt 0.5000 0.0781
vt 0.6563 0.2344
vt 0.8125 0.2031
vt 0.9063 0.0156
vt 0.5313 0.0156
vt 0.1875 0.0156
vt 0.2188 0.0938
vt 0.2188 0.3906
vt 0.4375 0.3125
vt 0.2188 0.0938
vt 0.5781 0.5156
vt 0.7656 0.5156
vt 0.6719 0.7500
vt 0.8125 0.4844
vt 0.9531 0.4844
vt 0.8750 0.7188
vt 0.4688 0.3594
vt 0.2188 0.3906
vt 0.2188 0.5469
vt 0.2188 0.5469
vt 0.3594 0.5781
vt 0.4688 0.3594
vt 0.6406 0.4531
vt 0.6875 0.4531
vt 0.6719 0.5156
vt 0.6094 0.3125
vt 0.7344 0.3125
vt 0.7031 0.4063
vt 0.7031 0.4063
vt 0.6250 0.4219
vt 0.6094 0.3125
vt 0.7656 0.5156
vt 0.5781 0.5156
vt 0.6250 0.5156
vt 0.6250 0.5156
vt 0.7188 0.5156
vt 0.7656 0.5156
vt 0.2188 0.5469
vt 0.2188 0.3906
vt 0.1563 0.3750
vt 0.1563 0.3750
vt 0.2031 0.4688
vt 0.2188 0.5469
vt 0.2188 0.3906
vt 0.2188 0.5469
vt 0.1875 0.4688
vt 0.1875 0.4688
vt 0.1563 0.3750
vt 0.2188 0.3906
vt 0.7188 0.5156
vt 0.6250 0.5156
vt 0.6719 0.5156
vt 0.1563 0.3750
vt 0.1875 0.4688
vt 0.1250 0.4375
vt 0.1250 0.4375
vt 0.0938 0.3750
vt 0.1563 0.3750
vt 0.6250 0.4219
vt 0.7031 0.4063
vt 0.6875 0.4531
vt 0.6875 0.4531
vt 0.6406 0.4531
vt 0.6250 0.4219
vt 0.1250 0.4375
vt 0.1563 0.3750
vt 0.0938 0.3750
vt 0.1563 0.3750
vt 0.1250 0.4375
vt 0.2031 0.4688
vt 0.5313 1.0000
vt 0.5000 0.9219
vt 0.8438 0.9219
vt 0.6719 0.7500
vt 0.8438 0.9219
vt 0.5000 0.9219
vt 0.1719 0.0938
vt 0.1094 0.1875
vt 0.2188 0.3906
vt 0.2188 0.0938
vt 0.1719 0.0938
vt 0.2188 0.3906
vt 0.5313 0.0156
vt 0.2188 0.0938
vt 0.5000 0.0781
vt 0.5000 0.0781
vt 0.2188 0.0938
vt 0.4531 0.3125
vt 0.9063 0.0156
vt 0.5000 0.0781
vt 0.6563 0.2344
vt 0.8125 1.0000
vt 0.8594 0.9375
vt 0.9688 0.9375
vt 0.9688 0.9375
vt 0.9844 1.0000
vt 0.8125 1.0000
vt 0.1719 0.0938
vt 0.2188 0.0938
vt 0.2188 0.0938
vt 0.5000 0.0781
vt 0.2188 0.0938
vt 0.2188 0.0938
vt 0.1875 0.0156
vt 0.1719 0.0938
vt 0.0469 0.0781
vt 0.0469 0.0781
vt 0.0000 0.0156
vt 0.1875 0.0156
vt 0.2188 0.0938
vt 0.1875 0.0156
vt 0.0000 0.0156
vt 0.0000 0.0156
vt 0.0469 0.0781
vt 0.2188 0.0938
vt 0.1719 0.0938
vt 0.2188 0.0938
vt 0.0469 0.0781
vt 0.0469 0.0781
vt 0.0469 0.0781
vt 0.1719 0.0938
vt 0.5000 0.0781
vt 0.4531 0.3125
vt 0.6563 0.2344
vt 0.2188 0.3906
vt 0.4688 0.3594
vt 0.4375 0.3125
vt 0.0313 0.6719
vt 0.2500 0.6719
vt 0.2500 0.7969
vt 0.2500 0.7969
vt 0.0625 0.8125
vt 0.0313 0.6719
vt 0.2500 0.6719
vt 0.0313 0.6719
vt 0.0625 0.8125
vt 0.0625 0.8125
vt 0.2500 0.7969
vt 0.2500 0.6719
vt 0.0313 0.6719
vt 0.0313 0.6719
vt 0.0625 0.8125
vt 0.0625 0.8125
vt 0.0625 0.8125
vt 0.0313 0.6719
vt 0.0625 0.8125
vt 0.2500 0.7969
vt 0.2969 0.9844
vt 0.2500 0.7969
vt 0.0625 0.8125
vt 0.2969 0.9844
vt 0.0625 0.8125
vt 0.0625 0.8125
vt 0.2969 0.9844
vt 0.9063 0.0156
vt 0.5000 0.0781
vt 0.5313 0.0156
vt 0.6563 0.2344
vt 0.9063 0.0156
vt 0.8125 0.2031
vt 0.5625 0.0156
vt 0.2344 0.1563
vt 0.1875 0.0156
vt 0.2188 0.3906
vt 0.2188 0.0938
vt 0.4375 0.3125
vt 0.4688 0.3594
vt 0.2188 0.5469
vt 0.2188 0.3906
vt 0.2188 0.5469
vt 0.4688 0.3594
vt 0.3594 0.5781
vt 0.1719 0.0938
vt 0.2188 0.3906
vt 0.1094 0.1875
vt 0.2188 0.0938
vt 0.2188 0.3906
vt 0.1719 0.0938
vt 0.5625 0.0156
vt 0.5156 0.1094
vt 0.2344 0.1563
vt 0.5000 0.0781
vt 0.4531 0.3125
vt 0.2188 0.0938
vt 0.9063 0.0156
vt 0.6563 0.2344
vt 0.5000 0.0781
vt 0.5156 1.0000
vt 0.3906 0.9375
vt 0.5000 0.9375
vt 0.3906 0.9375
vt 0.5156 1.0000
vt 0.3594 1.0000
vt 0.1719 0.0938
vt 0.2188 0.0938
vt 0.2188 0.0938
vt 0.5000 0.0781
vt 0.2188 0.0938
vt 0.2188 0.0938
vt 0.1875 0.0156
vt 0.0469 0.0781
vt 0.1719 0.0938
vt 0.0469 0.0781
vt 0.1875 0.0156
vt 0.0000 0.0156
vt 0.2188 0.0938
vt 0.0000 0.0156
vt 0.1875 0.0156
vt 0.0000 0.0156
vt 0.2188 0.0938
vt 0.0469 0.0781
vt 0.1719 0.0938
vt 0.0469 0.0781
vt 0.2188 0.0938
vt 0.0469 0.0781
vt 0.1719 0.0938
vt 0.0469 0.0781
vt 0.5000 0.0781
vt 0.6563 0.2344
vt 0.4531 0.3125
vt 0.2188 0.3906
vt 0.4375 0.3125
vt 0.4688 0.3594
vt 0.0313 0.6719
vt 0.2500 0.7969
vt 0.2500 0.6719
vt 0.2500 0.7969
vt 0.0313 0.6719
vt 0.0625 0.8125
vt 0.2500 0.6719
vt 0.0625 0.8125
vt 0.0313 0.6719
vt 0.0625 0.8125
vt 0.2500 0.6719
vt 0.2500 0.7969
vt 0.0313 0.6719
vt 0.0625 0.8125
vt 0.0313 0.6719
vt 0.0625 0.8125
vt 0.0313 0.6719
vt 0.0625 0.8125
vt 0.0625 0.8125
vt 0.2969 0.9844
vt 0.2500 0.7969
vt 0.2500 0.7969
vt 0.2969 0.9844
vt 0.0625 0.8125
vt 0.0625 0.8125
vt 0.2969 0.9844
vt 0.0625 0.8125
f 25/1 4/3 5/2
f 9/4 7/6 8/5
f 8/7 11/9 9/8
f 11/10 8/12 10/11
f 16/13 14/15 15/14
f 1/16 7/18 2/17
f 2/19 27/21 3/20
f 9/22 2/24 7/23
f 3/25 29/27 28/26
f 13/28 26/30 34/29
f 12/31 6/33 13/32
f 10/34 14/36 11/35
f 11/37 16/39 13/38
f 16/40 11/42 14/41
f 22/43 21/45 23/44
f 15/46 20/48 16/47
f 20/49 15/51 19/50
f 13/52 17/54 12/53
f 17/55 13/57 18/56
f 16/58 18/60 13/59
f 18/61 16/63 20/62
f 12/64 19/66 15/65
f 19/67 12/69 17/68
f 18/70 21/72 17/71
f 17/73 22/75 19/74
f 22/76 17/78 21/77
f 19/79 23/81 20/80
f 23/82 19/84 22/83
f 23/85 21/87 18/86
f 18/88 20/90 23/89
f 4/91 25/93 24/92
f 6/94 24/96 25/95
f 25/97 13/99 6/98
f 26/100 13/102 25/101
f 3/103 27/105 29/104
f 27/106 34/108 26/107
f 2/109 9/111 27/110
f 30/112 33/114 31/113
f 33/115 30/117 32/116
f 25/118 29/120 26/119
f 27/121 26/123 29/122
f 5/124 31/126 25/125
f 31/127 5/129 30/128
f 29/130 32/132 28/131
f 32/133 29/135 33/134
f 25/136 33/138 29/137
f 33/139 25/141 31/140
f 27/142 9/144 34/143
f 13/145 34/147 11/146
f 11/148 35/150 9/149
f 35/151 11/153 36/152
f 9/154 37/156 34/155
f 37/157 9/159 35/158
f 34/160 36/162 11/161
f 36/163 34/165 37/164
f 36/166 38/168 35/167
f 35/169 38/171 37/170
f 37/172 38/174 36/173
f 1/175 39/177 40/176
f 8/178 7/180 1/179
f 39/181 41/183 42/182
f 12/184 43/186 44/185
f 10/187 12/189 15/188
f 15/190 14/192 10/191
f 24/193 6/195 12/194
f 44/196 24/198 12/197
f 39/199 42/201 40/200
f 40/202 44/204 43/203
f 1/205 40/207 8/206
f 45/208 46/210 47/209
f 47/211 48/213 45/212
f 24/214 44/216 42/215
f 40/217 42/219 44/218
f 4/220 24/222 46/221
f 46/223 45/225 4/224
f 42/226 41/228 48/227
f 48/229 47/231 42/230
f 24/232 42/234 47/233
f 47/235 46/237 24/236
f 40/238 43/240 8/239
f 12/241 10/243 43/242
f 10/244 8/246 49/245
f 49/247 50/249 10/248
f 8/250 43/252 51/251
f 51/253 49/255 8/254
f 43/256 10/258 50/257
f 50/259 51/261 43/260
f 50/262 49/264 52/263
f 49/265 51/267 52/266
f 51/268 50/270 52/269
