g Object
v -0.0078 3.2383 -1.6992
v -0.1367 3.5195 -1.6992
v 0.1172 3.5195 -1.6992
v -0.0078 3.9922 -0.3828
v -0.1367 4.0273 -0.7930
v 0.1172 4.0273 -0.7930
v -0.0078 3.2383 1.6836
v 0.1172 3.5195 1.6836
v -0.1367 3.5195 1.6836
v -0.0078 3.9531 0.3477
v 0.1172 3.9336 0.8008
v -0.1367 3.9336 0.8008
v 0.3164 0.0000 -1.6563
v -0.3242 0.0000 -1.6563
v 0.3164 0.0000 -2.1758
v -0.3242 0.0000 -2.1758
v 0.2617 4.1055 -1.7227
v -0.2695 4.1055 -1.7227
v 0.2617 4.1055 -2.1328
v -0.2695 4.1055 -2.1328
v 0.3164 0.0000 2.1602
v -0.3242 0.0000 2.1602
v 0.3164 0.0000 1.6641
v -0.3242 0.0000 1.6641
v 0.2617 3.9141 2.1172
v -0.2695 3.9141 2.1172
v 0.2617 3.9141 1.7070
v -0.2695 3.9141 1.7070
v 0.2617 4.6133 -1.7227
v -0.2695 4.6133 -1.7227
v 0.2617 4.6875 -2.6953
v -0.2695 4.6875 -2.6953
v 0.2617 4.4453 2.6758
v -0.2695 4.4453 2.6758
v 0.2617 4.4609 1.7070
v -0.2695 4.4609 1.7070
v 0.2617 4.1406 -2.6953
v -0.2695 4.1406 -2.6953
v 0.2617 3.8789 2.6758
v -0.2695 3.8789 2.6758
vt 0.8125 0.0000
vt 0.9531 0.9688
vt 0.8125 0.9688
vt 0.8125 0.0000
vt 0.9531 0.0000
vt 0.9531 0.9688
vt 0.8125 0.0000
vt 0.9531 0.9688
vt 0.8125 0.9688
vt 0.8125 0.0000
vt 0.9531 0.0000
vt 0.9531 0.9688
vt 0.8125 0.0000
vt 0.9531 0.9688
vt 0.8125 0.9688
vt 0.8125 0.0000
vt 0.9531 0.0000
vt 0.9531 0.9688
vt 0.8125 0.0000
vt 0.9531 0.9688
vt 0.8125 0.9688
vt 0.8125 0.0000
vt 0.9531 0.0000
vt 0.9531 0.9688
vt 0.8125 0.0000
vt 0.9531 0.9688
vt 0.8125 0.9688
vt 0.8125 0.0000
vt 0.9531 0.0000
vt 0.9531 0.9688
vt 0.8125 0.0000
vt 0.9531 0.9688
vt 0.8125 0.9688
vt 0.8125 0.0000
vt 0.9531 0.0000
vt 0.9531 0.9688
vt 0.3594 0.0000
vt 0.5938 0.0000
vt 0.5938 1.0000
vt 0.5938 1.0000
vt 0.3594 0.9844
vt 0.3594 0.0000
vt 0.0000 0.0000
vt 0.3281 0.0000
vt 0.3281 0.9688
vt 0.3281 0.9688
vt 0.0000 0.9688
vt 0.0000 0.0000
vt 0.0000 0.0000
vt 0.3281 0.0000
vt 0.3281 0.9688
vt 0.3281 0.9688
vt 0.0000 0.9688
vt 0.0000 0.0000
vt 0.0000 0.0000
vt 0.3281 0.0000
vt 0.3281 0.9688
vt 0.3281 0.9688
vt 0.0000 0.9688
vt 0.0000 0.0000
vt 0.0000 0.0000
vt 0.3281 0.0000
vt 0.3281 0.9688
vt 0.3281 0.9688
vt 0.0000 0.9688
vt 0.0000 0.0000
vt 0.3594 0.0000
vt 0.5938 0.0000
vt 0.5938 1.0000
vt 0.5938 1.0000
vt 0.3594 0.9844
vt 0.3594 0.0000
vt 0.0000 0.0000
vt 0.3281 0.0000
vt 0.3281 0.9688
vt 0.3281 0.9688
vt 0.0000 0.9688
vt 0.0000 0.0000
vt 0.0000 0.0000
vt 0.3281 0.0000
vt 0.3281 0.9688
vt 0.3281 0.9688
vt 0.0000 0.9688
vt 0.0000 0.0000
vt 0.0000 0.0000
vt 0.3281 0.0000
vt 0.3281 0.9688
vt 0.3281 0.9688
vt 0.0000 0.9688
vt 0.0000 0.0000
vt 0.0000 0.0000
vt 0.3281 0.0000
vt 0.3281 0.9688
vt 0.3281 0.9688
vt 0.0000 0.9688
vt 0.0000 0.0000
vt 0.7969 0.1719
vt 0.7969 0.0938
vt 0.5625 0.0000
vt 0.5625 0.0000
vt 0.5625 0.1719
vt 0.7969 0.1719
vt 0.5938 1.0000
vt 0.3594 0.9844
vt 0.3594 0.0000
vt 0.3594 0.0000
vt 0.5938 0.0000
vt 0.5938 1.0000
vt 0.7969 0.0938
vt 0.7969 0.1719
vt 0.5625 0.1719
vt 0.5625 0.1719
vt 0.5625 0.0000
vt 0.7969 0.0938
vt 0.5938 1.0000
vt 0.3594 0.9844
vt 0.3594 0.0000
vt 0.3594 0.0000
vt 0.5938 0.0000
vt 0.5938 1.0000
vt 0.7969 0.8750
vt 0.7969 0.7969
vt 0.5625 0.7969
vt 0.5625 0.7969
vt 0.5625 0.9688
vt 0.7969 0.8750
vt 0.7969 0.1719
vt 0.7969 0.1719
vt 0.5625 0.1719
vt 0.5625 0.1719
vt 0.5625 0.1719
vt 0.7969 0.1719
vt 0.7969 0.7969
vt 0.7969 0.8750
vt 0.5625 0.9688
vt 0.5625 0.9688
vt 0.5625 0.7969
vt 0.7969 0.7969
vt 0.5938 1.0000
vt 0.3594 0.9844
vt 0.3594 0.0000
vt 0.3594 0.0000
vt 0.5938 0.0000
vt 0.5938 1.0000
vt 0.5938 1.0000
vt 0.3594 0.9844
vt 0.3594 0.0000
vt 0.3594 0.0000
vt 0.5938 0.0000
vt 0.5938 1.0000
vt 0.5625 0.7969
vt 0.7969 0.7969
vt 0.7969 0.1719
vt 0.7969 0.1719
vt 0.5625 0.1719
vt 0.5625 0.7969
vt 0.7969 0.7969
vt 0.5625 0.7969
vt 0.5625 0.1719
vt 0.5625 0.1719
vt 0.7969 0.1719
vt 0.7969 0.7969
vt 0.3594 0.0000
vt 0.5938 0.0000
vt 0.5938 1.0000
vt 0.5938 1.0000
vt 0.3594 0.9844
vt 0.3594 0.0000
vt 0.3594 0.0000
vt 0.5938 0.0000
vt 0.5938 1.0000
vt 0.5938 1.0000
vt 0.3594 0.9844
vt 0.3594 0.0000
vt 0.5625 0.0000
vt 0.7969 0.0938
vt 0.7969 0.0000
vt 0.5625 0.0000
vt 0.7969 0.0000
vt 0.7969 0.0938
vt 0.5625 0.9688
vt 0.7969 0.9688
vt 0.7969 0.8750
vt 0.5625 0.9688
vt 0.7969 0.8750
vt 0.7969 0.9688
f 1/1 4/3 5/2
f 1/4 5/6 2/5
f 2/7 5/9 6/8
f 2/10 6/12 3/11
f 3/13 6/15 4/14
f 3/16 4/18 1/17
f 7/19 10/21 11/20
f 7/22 11/24 8/23
f 8/25 11/27 12/26
f 8/28 12/30 9/29
f 9/31 12/33 10/32
f 9/34 10/36 7/35
f 29/37 32/39 30/38
f 32/40 29/42 31/41
f 13/43 18/45 14/44
f 18/46 13/48 17/47
f 14/49 20/51 16/50
f 20/52 14/54 18/53
f 16/55 19/57 15/56
f 19/58 16/60 20/59
f 15/61 17/63 13/62
f 17/64 15/66 19/65
f 33/67 36/69 34/68
f 36/70 33/72 35/71
f 21/73 26/75 22/74
f 26/76 21/78 25/77
f 22/79 28/81 24/80
f 28/82 22/84 26/83
f 24/85 27/87 23/86
f 27/88 24/90 28/89
f 23/91 25/93 21/92
f 25/94 23/96 27/95
f 18/97 32/99 20/98
f 32/100 18/102 30/101
f 38/103 31/105 37/104
f 31/106 38/108 32/107
f 19/109 29/111 17/110
f 29/112 19/114 31/113
f 39/115 34/117 40/116
f 34/118 39/120 33/119
f 26/121 36/123 28/122
f 36/124 26/126 34/125
f 18/127 29/129 17/128
f 29/130 18/132 30/131
f 27/133 33/135 25/134
f 33/136 27/138 35/137
f 35/139 30/141 36/140
f 30/142 35/144 29/143
f 28/145 17/147 27/146
f 17/148 28/150 18/149
f 36/151 18/153 28/152
f 18/154 36/156 30/155
f 27/157 29/159 35/158
f 29/160 27/162 17/161
f 20/163 37/165 19/164
f 37/166 20/168 38/167
f 25/169 40/171 26/170
f 40/172 25/174 39/173
f 32/175 38/177 20/176
f 31/178 19/180 37/179
f 34/181 26/183 40/182
f 33/184 39/186 25/185
