g Object
v -1.1680 -2.0313 -0.1406
v 1.1758 2.2227 0.0547
v -1.1680 2.2227 0.0586
v 1.1758 2.2227 -0.1445
v -1.1680 2.2227 -0.1406
v 0.9336 1.7422 0.0547
v -0.9219 1.7422 0.0586
v -0.9219 1.7422 -0.1406
v 0.9336 1.7422 -0.1445
v -0.9219 -2.0313 -0.1406
v -1.1680 1.7422 -0.1406
v 1.1758 1.7422 -0.1445
v -1.1680 1.7422 0.0586
v 1.1758 1.7422 0.0547
v 0.9336 -2.0313 -0.1445
v 1.1758 -2.0313 -0.1445
v -1.1680 -2.0313 0.0586
v 1.1758 -2.0313 0.0547
v -0.9219 -2.0313 0.0586
v 0.9414 -2.0313 0.0547
v 0.9336 1.7422 -0.0508
v -0.9219 1.7422 -0.0508
v -0.9219 -2.0313 -0.0508
v 0.9414 -2.0313 -0.0508
vt 0.0000 0.9375
vt 0.9688 0.9375
vt 0.9688 0.8125
vt 0.9688 0.8125
vt 0.0000 0.8125
vt 0.0000 0.9375
vt 0.0000 0.9375
vt 0.0000 0.8125
vt 0.9688 0.8125
vt 0.9688 0.8125
vt 0.9688 0.9375
vt 0.0000 0.9375
vt 0.9688 0.9688
vt 0.8750 0.7500
vt 0.0938 0.7500
vt 0.9688 0.9688
vt 0.0938 0.7500
vt 0.0000 0.9688
vt 0.0000 0.5000
vt 0.0000 0.7500
vt 0.9688 0.7500
vt 0.0000 0.5000
vt 0.9688 0.7500
vt 0.9688 0.5000
vt 0.5625 0.7500
vt 0.4375 0.7500
vt 0.4375 0.9688
vt 0.4375 0.9688
vt 0.5625 0.9688
vt 0.5625 0.7500
vt 0.8750 0.7500
vt 0.9688 0.9688
vt 0.9688 0.7500
vt 0.0000 0.7500
vt 0.0000 0.9688
vt 0.0938 0.7500
vt 0.5625 0.7500
vt 0.4375 0.7500
vt 0.4375 0.9688
vt 0.4375 0.9688
vt 0.5625 0.9688
vt 0.5625 0.7500
vt 0.0000 0.5000
vt 0.0000 0.7500
vt 0.9688 0.7500
vt 0.0000 0.5000
vt 0.9688 0.7500
vt 0.9688 0.5000
vt 0.0000 0.5000
vt 0.0000 0.7500
vt 0.9688 0.7500
vt 0.0000 0.5000
vt 0.9688 0.7500
vt 0.9688 0.5000
vt 0.0000 0.5000
vt 0.0000 0.7500
vt 0.9688 0.7500
vt 0.0000 0.5000
vt 0.9688 0.7500
vt 0.9688 0.5000
vt 0.0000 0.5000
vt 0.0000 0.7500
vt 0.9688 0.7500
vt 0.0000 0.5000
vt 0.9688 0.7500
vt 0.9688 0.5000
vt 0.0000 0.5000
vt 0.0000 0.7500
vt 0.9688 0.7500
vt 0.0000 0.5000
vt 0.9688 0.7500
vt 0.9688 0.5000
vt 0.0000 0.0000
vt 0.0000 0.4688
vt 0.9688 0.4688
vt 0.0000 0.0000
vt 0.9688 0.4688
vt 0.9688 0.0000
f 5/1 2/3 4/2
f 2/4 5/6 3/5
f 8/7 6/9 7/8
f 6/10 8/12 9/11
f 5/13 9/15 8/14
f 5/16 4/18 9/17
f 8/19 1/21 11/20
f 8/22 10/24 1/23
f 13/25 5/27 11/26
f 5/28 13/30 3/29
f 8/31 11/33 5/32
f 12/34 9/36 4/35
f 12/37 2/39 14/38
f 2/40 12/42 4/41
f 12/43 15/45 9/44
f 12/46 16/48 15/47
f 11/49 17/51 13/50
f 11/52 1/54 17/53
f 14/55 16/57 12/56
f 14/58 18/60 16/59
f 7/61 10/63 8/62
f 7/64 19/66 10/65
f 9/67 20/69 6/68
f 9/70 15/72 20/71
f 23/73 21/75 24/74
f 23/76 22/78 21/77
