g Object
v 0.1523 0.0352 0.1758
v -0.1523 0.0000 0.1758
v 0.1523 0.0000 -0.1836
v -0.1523 -0.0352 -0.1836
v -0.2852 2.2813 -0.2461
v 0.0430 1.8555 0.1211
v -0.4961 1.7891 0.1328
v -0.4961 1.7227 -0.5078
v 0.0430 1.7891 -0.5117
v 0.3203 -0.0469 0.1250
v 0.1406 0.0547 0.1094
v 0.3320 -0.0664 -0.1172
v 0.1523 0.0352 -0.1328
v 1.0977 1.2148 -0.0938
v 1.0664 0.8828 0.1602
v 0.7383 1.0625 0.1250
v 0.7617 1.0273 -0.3125
v 1.0898 0.8477 -0.2734
v 0.1094 -0.0547 0.4180
v -0.0977 -0.0664 0.3633
v 0.1484 0.0625 0.2461
v -0.0625 0.0430 0.1875
v -0.2930 0.9023 0.7773
v -0.0664 0.6094 0.8750
v -0.4375 0.5820 0.7813
v -0.3750 0.8008 0.4688
v 0.0000 0.8281 0.5703
vt 0.0000 0.0000
vt 0.5000 0.0000
vt 0.4844 0.9844
vt 0.4844 0.9844
vt 0.0000 0.9844
vt 0.0000 0.0000
vt 0.0781 0.1563
vt 0.4063 0.1563
vt 0.2500 0.8125
vt 0.5000 0.0000
vt 0.0000 0.0000
vt 0.0000 1.0000
vt 0.0000 1.0000
vt 0.5000 1.0000
vt 0.5000 0.0000
vt 0.0781 0.2344
vt 0.3906 0.2500
vt 0.2344 0.8594
vt 0.4063 0.2656
vt 0.0781 0.2656
vt 0.2344 0.9219
vt 0.5000 0.0000
vt 0.0000 0.0000
vt 0.0000 1.0000
vt 0.0000 1.0000
vt 0.5000 1.0000
vt 0.5000 0.0000
vt 0.0781 0.3750
vt 0.3750 0.3594
vt 0.1719 0.9688
vt 0.0000 0.0000
vt 0.5000 0.0000
vt 0.4844 0.9844
vt 0.4844 0.9844
vt 0.0000 0.9844
vt 0.0000 0.0000
vt 0.0000 0.0000
vt 0.5000 0.0000
vt 0.4844 0.9844
vt 0.4844 0.9844
vt 0.0000 0.9844
vt 0.0000 0.0000
vt 0.0781 0.1563
vt 0.4063 0.1563
vt 0.2500 0.8125
vt 0.5000 0.0000
vt 0.0000 0.0000
vt 0.0000 1.0000
vt 0.0000 1.0000
vt 0.5000 1.0000
vt 0.5000 0.0000
vt 0.0781 0.2344
vt 0.3906 0.2500
vt 0.2344 0.8594
vt 0.4063 0.2656
vt 0.0781 0.2656
vt 0.2344 0.9219
vt 0.5000 0.0000
vt 0.0000 0.0000
vt 0.0000 1.0000
vt 0.0000 1.0000
vt 0.5000 1.0000
vt 0.5000 0.0000
vt 0.0781 0.3750
vt 0.3750 0.3594
vt 0.1719 0.9688
vt 0.0000 0.0000
vt 0.5000 0.0000
vt 0.4844 0.9844
vt 0.4844 0.9844
vt 0.0000 0.9844
vt 0.0000 0.0000
vt 0.0000 0.0000
vt 0.5000 0.0000
vt 0.4844 0.9844
vt 0.4844 0.9844
vt 0.0000 0.9844
vt 0.0000 0.0000
vt 0.0781 0.1563
vt 0.4063 0.1563
vt 0.2500 0.8125
vt 0.5000 0.0000
vt 0.0000 0.0000
vt 0.0000 1.0000
vt 0.0000 1.0000
vt 0.5000 1.0000
vt 0.5000 0.0000
vt 0.0781 0.2344
vt 0.3906 0.2500
vt 0.2344 0.8594
vt 0.4063 0.2656
vt 0.0781 0.2656
vt 0.2344 0.9219
vt 0.5000 0.0000
vt 0.0000 0.0000
vt 0.0000 1.0000
vt 0.0000 1.0000
vt 0.5000 1.0000
vt 0.5000 0.0000
vt 0.0781 0.3750
vt 0.3750 0.3594
vt 0.1719 0.9688
vt 0.0000 0.0000
vt 0.5000 0.0000
vt 0.4844 0.9844
vt 0.4844 0.9844
vt 0.0000 0.9844
vt 0.0000 0.0000
f 1/1 7/3 2/2
f 7/4 1/6 6/5
f 6/7 5/9 7/8
f 2/10 8/12 4/11
f 8/13 2/15 7/14
f 7/16 5/18 8/17
f 8/19 5/21 9/20
f 3/22 6/24 1/23
f 6/25 3/27 9/26
f 9/28 5/30 6/29
f 4/31 9/33 3/32
f 9/34 4/36 8/35
f 10/37 16/39 11/38
f 16/40 10/42 15/41
f 15/43 14/45 16/44
f 11/46 17/48 13/47
f 17/49 11/51 16/50
f 16/52 14/54 17/53
f 17/55 14/57 18/56
f 12/58 15/60 10/59
f 15/61 12/63 18/62
f 18/64 14/66 15/65
f 13/67 18/69 12/68
f 18/70 13/72 17/71
f 19/73 25/75 20/74
f 25/76 19/78 24/77
f 24/79 23/81 25/80
f 20/82 26/84 22/83
f 26/85 20/87 25/86
f 25/88 23/90 26/89
f 26/91 23/93 27/92
f 21/94 24/96 19/95
f 24/97 21/99 27/98
f 27/100 23/102 24/101
f 22/103 27/105 21/104
f 27/106 22/108 26/107
