g Object
v 0.9648 0.0000 1.3633
v -0.9570 0.0000 1.3633
v 0.9648 0.0000 -1.3750
v -0.9570 0.0000 -1.3750
vt 0.0000 0.9844
vt 0.0000 0.0000
vt 0.9844 0.9844
vt 0.9844 0.0000
vt 0.9844 0.9844
vt 0.0000 0.0000
f 3/1 4/3 1/2
f 2/4 1/6 4/5
