g Object
v -1.1289 -0.0039 1.6719
v -1.3203 -0.0039 1.6719
v -1.2266 -0.0039 1.4844
v -1.1289 2.0742 1.6719
v -1.3203 2.0742 1.6719
v -1.2266 2.0742 1.4844
v -1.2266 2.2539 1.6172
v -1.2656 0.6836 -1.5781
v -1.2656 0.6836 1.5781
v -1.2148 1.3516 -1.5781
v -1.2148 1.1836 1.5781
v 1.2773 0.6836 -1.5781
v 1.2773 0.6836 1.5781
v 1.2266 1.3516 -1.5781
v 1.2266 1.1836 1.5781
v 1.1406 -0.0039 -1.4961
v -1.1289 -0.0039 -1.4961
v 1.0430 0.7461 -1.4414
v -1.0313 0.7461 -1.4414
v 1.1406 -0.0039 1.4844
v -1.1289 -0.0039 1.4844
v 1.0430 0.7461 1.4023
v -1.0313 0.7461 1.4023
v 1.1484 0.7031 1.6719
v 1.1484 0.5117 1.6719
v 1.1484 0.6094 1.4844
v -1.1406 0.7031 1.6719
v -1.1406 0.5117 1.6719
v -1.1406 0.6094 1.4844
v 1.3320 -0.0039 1.6719
v 1.1406 -0.0039 1.6719
v 1.1406 2.0742 1.6719
v 1.3320 2.0742 1.6719
v 1.2344 -0.0039 1.4844
v 1.2344 2.0742 1.4844
v 1.2344 2.2539 1.6172
v 1.0430 -0.0039 -1.6836
v 1.2344 -0.0039 -1.6836
v 1.2344 2.4453 -1.6836
v 1.0430 2.4453 -1.6836
v 1.1406 -0.0039 -1.4961
v 1.1406 2.4453 -1.4961
v 1.1406 2.6367 -1.6328
v -1.2148 -0.0039 -1.6836
v -1.0234 -0.0039 -1.6836
v -1.0234 2.4570 -1.6836
v -1.2148 2.4570 -1.6836
v -1.1172 -0.0039 -1.4961
v -1.1172 2.4570 -1.4961
v -1.1172 2.6367 -1.6328
v -1.2148 1.1836 -0.7813
v 1.2266 1.1836 -0.7813
v -1.2148 1.3320 -0.9844
v 1.2266 1.3320 -0.9844
vt 0.9844 0.0000
vt 0.9844 0.1094
vt 0.0313 0.1094
vt 0.0313 0.1094
vt 0.0313 0.0000
vt 0.9844 0.0000
vt 0.9844 0.1094
vt 0.9844 0.0469
vt 0.0313 0.0469
vt 0.0313 0.0469
vt 0.0313 0.1094
vt 0.9844 0.1094
vt 0.9844 0.0469
vt 0.9844 0.0000
vt 0.0313 0.0000
vt 0.0313 0.0000
vt 0.0313 0.0469
vt 0.9844 0.0469
vt 0.0313 0.0000
vt 0.0313 0.1094
vt 0.0000 0.0469
vt 0.0313 0.1094
vt 0.0313 0.0469
vt 0.0000 0.0469
vt 0.0313 0.0469
vt 0.0313 0.0000
vt 0.0000 0.0469
vt 0.0000 0.6563
vt 0.0000 0.9844
vt 0.1875 0.9844
vt 0.0000 0.6563
vt 0.1875 0.9844
vt 0.2344 0.9844
vt 0.0000 0.6563
vt 0.2344 0.9844
vt 0.9844 0.9844
vt 0.0000 0.6563
vt 0.9844 0.9844
vt 0.9844 0.6563
vt 0.0000 0.7188
vt 0.9844 0.7188
vt 0.9844 0.3906
vt 0.0000 0.7188
vt 0.9844 0.3906
vt 0.2344 0.3906
vt 0.0000 0.7188
vt 0.2344 0.3906
vt 0.1875 0.3906
vt 0.0000 0.7188
vt 0.1875 0.3906
vt 0.0000 0.3906
vt 0.3281 0.3906
vt 0.6563 0.3906
vt 0.6563 0.9844
vt 0.6563 0.9844
vt 0.3281 0.9844
vt 0.3281 0.3906
vt 0.2344 0.3906
vt 0.9844 0.3906
vt 0.9844 0.9844
vt 0.9844 0.9844
vt 0.2344 0.9844
vt 0.2344 0.3906
vt 0.0000 0.1406
vt 0.0313 0.3750
vt 0.9531 0.3750
vt 0.9531 0.3750
vt 0.9844 0.1406
vt 0.0000 0.1406
vt 0.0000 0.1406
vt 0.9844 0.1406
vt 0.9531 0.3750
vt 0.9531 0.3750
vt 0.0313 0.3750
vt 0.0000 0.1406
vt 0.0000 0.1406
vt 0.0156 0.3750
vt 0.9688 0.3750
vt 0.9688 0.3750
vt 0.9844 0.1406
vt 0.0000 0.1406
vt 0.0156 0.3750
vt 0.0000 0.1406
vt 0.9844 0.1406
vt 0.9844 0.1406
vt 0.9688 0.3750
vt 0.0156 0.3750
vt 0.0000 0.2500
vt 0.0000 0.1406
vt 0.9844 0.1406
vt 0.9844 0.1406
vt 0.9844 0.2500
vt 0.0000 0.2500
vt 0.0000 0.0313
vt 0.0000 0.1406
vt 0.9844 0.1406
vt 0.9844 0.1406
vt 0.9844 0.0313
vt 0.0000 0.0313
vt 0.0000 0.1406
vt 0.0000 0.2500
vt 0.9844 0.2500
vt 0.9844 0.2500
vt 0.9844 0.1406
vt 0.0000 0.1406
vt 0.9844 0.0000
vt 0.9844 0.1094
vt 0.0313 0.1094
vt 0.0313 0.1094
vt 0.0313 0.0000
vt 0.9844 0.0000
vt 0.9844 0.1094
vt 0.9844 0.0469
vt 0.0313 0.0469
vt 0.0313 0.0469
vt 0.0313 0.1094
vt 0.9844 0.1094
vt 0.9844 0.0469
vt 0.9844 0.0000
vt 0.0313 0.0000
vt 0.0313 0.0000
vt 0.0313 0.0469
vt 0.9844 0.0469
vt 0.0313 0.0000
vt 0.0313 0.1094
vt 0.0000 0.0469
vt 0.0313 0.1094
vt 0.0313 0.0469
vt 0.0000 0.0469
vt 0.0313 0.0469
vt 0.0313 0.0000
vt 0.0000 0.0469
vt 0.9844 0.0000
vt 0.9844 0.1094
vt 0.0313 0.1094
vt 0.0313 0.1094
vt 0.0313 0.0000
vt 0.9844 0.0000
vt 0.9844 0.1094
vt 0.9844 0.0469
vt 0.0313 0.0469
vt 0.0313 0.0469
vt 0.0313 0.1094
vt 0.9844 0.1094
vt 0.9844 0.0469
vt 0.9844 0.0000
vt 0.0313 0.0000
vt 0.0313 0.0000
vt 0.0313 0.0469
vt 0.9844 0.0469
vt 0.0313 0.0000
vt 0.0313 0.1094
vt 0.0000 0.0469
vt 0.0313 0.1094
vt 0.0313 0.0469
vt 0.0000 0.0469
vt 0.0313 0.0469
vt 0.0313 0.0000
vt 0.0000 0.0469
vt 0.9844 0.0000
vt 0.9844 0.1094
vt 0.0313 0.1094
vt 0.0313 0.1094
vt 0.0313 0.0000
vt 0.9844 0.0000
vt 0.9844 0.1094
vt 0.9844 0.0469
vt 0.0313 0.0469
vt 0.0313 0.0469
vt 0.0313 0.1094
vt 0.9844 0.1094
vt 0.9844 0.0469
vt 0.9844 0.0000
vt 0.0313 0.0000
vt 0.0313 0.0000
vt 0.0313 0.0469
vt 0.9844 0.0469
vt 0.0313 0.0000
vt 0.0313 0.1094
vt 0.0000 0.0469
vt 0.0313 0.1094
vt 0.0313 0.0469
vt 0.0000 0.0469
vt 0.0313 0.0469
vt 0.0313 0.0000
vt 0.0000 0.0469
vt 0.0000 0.3906
vt 0.1875 0.3906
vt 0.1875 0.9844
vt 0.1875 0.9844
vt 0.0000 0.9844
vt 0.0000 0.3906
vt 0.2344 0.3906
vt 0.2344 0.9844
vt 0.1875 0.9844
vt 0.1875 0.9844
vt 0.1875 0.3906
vt 0.2344 0.3906
f 1/1 5/3 2/2
f 5/4 1/6 4/5
f 2/7 6/9 3/8
f 6/10 2/12 5/11
f 3/13 4/15 1/14
f 4/16 3/18 6/17
f 4/19 7/21 5/20
f 5/22 7/24 6/23
f 6/25 7/27 4/26
f 8/28 53/30 10/29
f 8/31 51/33 53/32
f 8/34 11/36 51/35
f 8/37 9/39 11/38
f 12/40 15/42 13/41
f 12/43 52/45 15/44
f 12/46 54/48 52/47
f 12/49 14/51 54/50
f 9/52 15/54 11/53
f 15/55 9/57 13/56
f 52/58 11/60 15/59
f 11/61 52/63 51/62
f 16/64 19/66 18/65
f 19/67 16/69 17/68
f 20/70 23/72 21/71
f 23/73 20/75 22/74
f 17/76 23/78 19/77
f 23/79 17/81 21/80
f 18/82 20/84 16/83
f 20/85 18/87 22/86
f 24/88 28/90 25/89
f 28/91 24/93 27/92
f 25/94 29/96 26/95
f 29/97 25/99 28/98
f 26/100 27/102 24/101
f 27/103 26/105 29/104
f 30/106 32/108 31/107
f 32/109 30/111 33/110
f 31/112 35/114 34/113
f 35/115 31/117 32/116
f 34/118 33/120 30/119
f 33/121 34/123 35/122
f 33/124 36/126 32/125
f 32/127 36/129 35/128
f 35/130 36/132 33/131
f 37/133 39/135 38/134
f 39/136 37/138 40/137
f 38/139 42/141 41/140
f 42/142 38/144 39/143
f 41/145 40/147 37/146
f 40/148 41/150 42/149
f 40/151 43/153 39/152
f 39/154 43/156 42/155
f 42/157 43/159 40/158
f 44/160 46/162 45/161
f 46/163 44/165 47/164
f 45/166 49/168 48/167
f 49/169 45/171 46/170
f 48/172 47/174 44/173
f 47/175 48/177 49/176
f 47/178 50/180 46/179
f 46/181 50/183 49/182
f 49/184 50/186 47/185
f 14/187 53/189 54/188
f 53/190 14/192 10/191
f 52/193 53/195 51/194
f 53/196 52/198 54/197
