g Object
v 0.0000 3.8008 0.0000
v 0.3086 1.1875 0.2930
v -0.3086 1.1875 0.2930
v -0.3086 1.1875 -0.2969
v 0.3086 1.1875 -0.2969
v 0.3086 3.2188 0.2930
v -0.3086 3.2188 0.2930
v -0.3086 3.2188 -0.2969
v 0.3086 3.2188 -0.2969
v 0.4258 0.0000 0.4219
v -0.4219 0.0000 0.4219
v 0.4258 0.0000 -0.4258
v -0.4219 0.0000 -0.4258
v 0.4258 1.1875 0.4219
v -0.4219 1.1875 0.4219
v -0.4219 1.1875 -0.4258
v 0.4258 1.1875 -0.4258
vt 0.0000 2.0000
vt 0.2891 2.0000
vt 0.2891 0.9922
vt 0.2891 0.9922
vt 0.0000 0.9922
vt 0.0000 2.0000
vt 0.2891 2.0000
vt 0.0000 2.0000
vt 0.0000 0.9922
vt 0.0000 0.9922
vt 0.2891 0.9922
vt 0.2891 2.0000
vt 0.2891 2.0000
vt 0.0000 2.0000
vt 0.0000 0.9922
vt 0.0000 0.9922
vt 0.2891 0.9922
vt 0.2891 2.0000
vt 0.0000 2.0000
vt 0.2891 2.0000
vt 0.2891 0.9922
vt 0.2891 0.9922
vt 0.0000 0.9922
vt 0.0000 2.0000
vt 0.9922 2.0000
vt 0.3047 2.0000
vt 0.3047 2.0000
vt 0.3047 2.0000
vt 0.9922 2.0000
vt 0.9922 2.0000
vt 0.3047 2.0000
vt 0.9922 2.0000
vt 0.9922 0.9922
vt 0.9922 0.9922
vt 0.3047 0.9922
vt 0.3047 2.0000
vt 0.9922 2.0000
vt 0.3047 2.0000
vt 0.3047 0.9922
vt 0.3047 0.9922
vt 0.9922 0.9922
vt 0.9922 2.0000
vt 0.9922 2.0000
vt 0.3047 2.0000
vt 0.3047 0.9922
vt 0.3047 0.9922
vt 0.9922 0.9922
vt 0.9922 2.0000
vt 0.3047 2.0000
vt 0.9922 2.0000
vt 0.9922 0.9922
vt 0.9922 0.9922
vt 0.3047 0.9922
vt 0.3047 2.0000
vt 0.9922 0.9922
vt 0.3047 0.9922
vt 0.3047 0.9453
vt 0.9922 0.9922
vt 0.3047 0.9453
vt 0.9922 0.9453
vt 0.9922 0.9922
vt 0.3047 0.9922
vt 0.3047 0.9453
vt 0.9922 0.9922
vt 0.3047 0.9453
vt 0.9922 0.9453
vt 0.9922 0.9922
vt 0.3047 0.9922
vt 0.3047 0.9453
vt 0.9922 0.9922
vt 0.3047 0.9453
vt 0.9922 0.9453
vt 0.9922 0.9922
vt 0.3047 0.9922
vt 0.3047 0.9453
vt 0.9922 0.9922
vt 0.3047 0.9453
vt 0.9922 0.9453
vt 0.2500 0.6875
vt 0.0313 0.6875
vt 0.1406 0.4766
vt 0.0313 0.6875
vt 0.2500 0.6875
vt 0.1406 0.4766
vt 0.0313 0.6875
vt 0.2500 0.6875
vt 0.1406 0.4766
vt 0.0313 0.6875
vt 0.2500 0.6875
vt 0.1406 0.4766
f 2/1 7/3 3/2
f 7/4 2/6 6/5
f 3/7 8/9 4/8
f 8/10 3/12 7/11
f 4/13 9/15 5/14
f 9/16 4/18 8/17
f 5/19 6/21 2/20
f 6/22 5/24 9/23
f 10/25 13/27 12/26
f 13/28 10/30 11/29
f 10/31 15/33 11/32
f 15/34 10/36 14/35
f 11/37 16/39 13/38
f 16/40 11/42 15/41
f 13/43 17/45 12/44
f 17/46 13/48 16/47
f 12/49 14/51 10/50
f 14/52 12/54 17/53
f 16/55 5/57 17/56
f 16/58 4/60 5/59
f 15/61 4/63 16/62
f 15/64 3/66 4/65
f 17/67 2/69 14/68
f 17/70 5/72 2/71
f 14/73 3/75 15/74
f 14/76 2/78 3/77
f 6/79 1/81 7/80
f 8/82 1/84 9/83
f 7/85 1/87 8/86
f 9/88 1/90 6/89
