[gd_scene load_steps=2 format=3 uid="uid://b48cw8qcyqmrd"]

[sub_resource type="BoxShape3D" id="BoxShape3D_ygu1i"]

[node name="bandit_swordsman" type="CharacterBody3D"]

[node name="CollisionShape3D" type="CollisionShape3D" parent="."]
shape = SubResource("BoxShape3D_ygu1i")

[node name="MeshInstance3D" type="MeshInstance3D" parent="."]
